data15_13TeV.00270441.physics_Main.merge.DAOD_HIGG4D2.r7600_p2521_p2667
data15_13TeV.00270448.physics_Main.merge.DAOD_HIGG4D2.r7600_p2521_p2667
data15_13TeV.00270588.physics_Main.merge.DAOD_HIGG4D2.r7600_p2521_p2667
data15_13TeV.00270806.physics_Main.merge.DAOD_HIGG4D2.r7600_p2521_p2667
data15_13TeV.00270816.physics_Main.merge.DAOD_HIGG4D2.r7600_p2521_p2667
data15_13TeV.00270949.physics_Main.merge.DAOD_HIGG4D2.r7600_p2521_p2667
data15_13TeV.00270953.physics_Main.merge.DAOD_HIGG4D2.r7600_p2521_p2667
data15_13TeV.00271048.physics_Main.merge.DAOD_HIGG4D2.r7600_p2521_p2667
data15_13TeV.00271298.physics_Main.merge.DAOD_HIGG4D2.r7600_p2521_p2667
data15_13TeV.00271388.physics_Main.merge.DAOD_HIGG4D2.r7600_p2521_p2667
data15_13TeV.00271421.physics_Main.merge.DAOD_HIGG4D2.r7600_p2521_p2667
data15_13TeV.00271516.physics_Main.merge.DAOD_HIGG4D2.r7600_p2521_p2667
data15_13TeV.00271595.physics_Main.merge.DAOD_HIGG4D2.r7600_p2521_p2667
data15_13TeV.00271744.physics_Main.merge.DAOD_HIGG4D2.r7600_p2521_p2667
data15_13TeV.00276073.physics_Main.merge.DAOD_HIGG4D2.r7562_p2521_p2667
data15_13TeV.00276147.physics_Main.merge.DAOD_HIGG4D2.r7562_p2521_p2667
data15_13TeV.00276161.physics_Main.merge.DAOD_HIGG4D2.r7562_p2521_p2667
data15_13TeV.00276176.physics_Main.merge.DAOD_HIGG4D2.r7567_p2521_p2667
data15_13TeV.00276181.physics_Main.merge.DAOD_HIGG4D2.r7567_p2521_p2667
data15_13TeV.00276183.physics_Main.merge.DAOD_HIGG4D2.r7562_p2521_p2667
data15_13TeV.00276189.physics_Main.merge.DAOD_HIGG4D2.r7562_p2521_p2667
data15_13TeV.00276212.physics_Main.merge.DAOD_HIGG4D2.r7562_p2521_p2667
data15_13TeV.00276245.physics_Main.merge.DAOD_HIGG4D2.r7562_p2521_p2667
data15_13TeV.00276262.physics_Main.merge.DAOD_HIGG4D2.r7562_p2521_p2667
data15_13TeV.00276329.physics_Main.merge.DAOD_HIGG4D2.r7562_p2521_p2667
data15_13TeV.00276330.physics_Main.merge.DAOD_HIGG4D2.r7562_p2521_p2667
data15_13TeV.00276336.physics_Main.merge.DAOD_HIGG4D2.r7562_p2521_p2667
data15_13TeV.00276416.physics_Main.merge.DAOD_HIGG4D2.r7562_p2521_p2667
data15_13TeV.00276511.physics_Main.merge.DAOD_HIGG4D2.r7562_p2521_p2667
data15_13TeV.00276689.physics_Main.merge.DAOD_HIGG4D2.r7562_p2521_p2667
data15_13TeV.00276731.physics_Main.merge.DAOD_HIGG4D2.r7600_p2521_p2667
data15_13TeV.00276778.physics_Main.merge.DAOD_HIGG4D2.r7562_p2521_p2667
data15_13TeV.00276790.physics_Main.merge.DAOD_HIGG4D2.r7562_p2521_p2667
data15_13TeV.00276952.physics_Main.merge.DAOD_HIGG4D2.r7562_p2521_p2667
data15_13TeV.00276954.physics_Main.merge.DAOD_HIGG4D2.r7562_p2521_p2667
data15_13TeV.00278727.physics_Main.merge.DAOD_HIGG4D2.r7562_p2521_p2667
data15_13TeV.00278748.physics_Main.merge.DAOD_HIGG4D2.r7562_p2521_p2667
data15_13TeV.00278880.physics_Main.merge.DAOD_HIGG4D2.r7562_p2521_p2667
data15_13TeV.00278912.physics_Main.merge.DAOD_HIGG4D2.r7562_p2521_p2667
data15_13TeV.00278968.physics_Main.merge.DAOD_HIGG4D2.r7562_p2521_p2667
data15_13TeV.00278970.physics_Main.merge.DAOD_HIGG4D2.r7562_p2521_p2667
data15_13TeV.00279169.physics_Main.merge.DAOD_HIGG4D2.r7562_p2521_p2667
data15_13TeV.00279259.physics_Main.merge.DAOD_HIGG4D2.r7562_p2521_p2667
data15_13TeV.00279279.physics_Main.merge.DAOD_HIGG4D2.r7562_p2521_p2667
data15_13TeV.00279284.physics_Main.merge.DAOD_HIGG4D2.r7562_p2521_p2667
data15_13TeV.00279345.physics_Main.merge.DAOD_HIGG4D2.r7562_p2521_p2667
data15_13TeV.00279515.physics_Main.merge.DAOD_HIGG4D2.r7562_p2521_p2667
data15_13TeV.00279598.physics_Main.merge.DAOD_HIGG4D2.r7562_p2521_p2667
data15_13TeV.00279685.physics_Main.merge.DAOD_HIGG4D2.r7562_p2521_p2667
data15_13TeV.00279764.physics_Main.merge.DAOD_HIGG4D2.r7562_p2521_p2667
data15_13TeV.00279813.physics_Main.merge.DAOD_HIGG4D2.r7562_p2521_p2667
data15_13TeV.00279867.physics_Main.merge.DAOD_HIGG4D2.r7562_p2521_p2667
data15_13TeV.00279928.physics_Main.merge.DAOD_HIGG4D2.r7562_p2521_p2667
data15_13TeV.00279932.physics_Main.merge.DAOD_HIGG4D2.r7562_p2521_p2667
data15_13TeV.00279984.physics_Main.merge.DAOD_HIGG4D2.r7562_p2521_p2667
data15_13TeV.00280231.physics_Main.merge.DAOD_HIGG4D2.r7562_p2521_p2667
data15_13TeV.00280273.physics_Main.merge.DAOD_HIGG4D2.r7562_p2521_p2667
data15_13TeV.00280319.physics_Main.merge.DAOD_HIGG4D2.r7562_p2521_p2667
data15_13TeV.00280368.physics_Main.merge.DAOD_HIGG4D2.r7562_p2521_p2667
data15_13TeV.00280423.physics_Main.merge.DAOD_HIGG4D2.r7562_p2521_p2667
data15_13TeV.00280464.physics_Main.merge.DAOD_HIGG4D2.r7562_p2521_p2667
data15_13TeV.00280500.physics_Main.merge.DAOD_HIGG4D2.r7562_p2521_p2667
data15_13TeV.00280520.physics_Main.merge.DAOD_HIGG4D2.r7562_p2521_p2667
data15_13TeV.00280614.physics_Main.merge.DAOD_HIGG4D2.r7562_p2521_p2667
data15_13TeV.00280673.physics_Main.merge.DAOD_HIGG4D2.r7562_p2521_p2667
data15_13TeV.00280753.physics_Main.merge.DAOD_HIGG4D2.r7562_p2521_p2667
data15_13TeV.00280853.physics_Main.merge.DAOD_HIGG4D2.r7562_p2521_p2667
data15_13TeV.00280862.physics_Main.merge.DAOD_HIGG4D2.r7562_p2521_p2667
data15_13TeV.00280950.physics_Main.merge.DAOD_HIGG4D2.r7562_p2521_p2667
data15_13TeV.00280977.physics_Main.merge.DAOD_HIGG4D2.r7562_p2521_p2667
data15_13TeV.00281070.physics_Main.merge.DAOD_HIGG4D2.r7562_p2521_p2667
data15_13TeV.00281074.physics_Main.merge.DAOD_HIGG4D2.r7562_p2521_p2667
data15_13TeV.00281075.physics_Main.merge.DAOD_HIGG4D2.r7562_p2521_p2667
data15_13TeV.00281130.physics_Main.merge.DAOD_HIGG4D2.r7562_p2521_p2667
data15_13TeV.00281143.physics_Main.merge.DAOD_HIGG4D2.r7562_p2521_p2667
data15_13TeV.00281317.physics_Main.merge.DAOD_HIGG4D2.r7562_p2521_p2667
data15_13TeV.00281381.physics_Main.merge.DAOD_HIGG4D2.r7562_p2521_p2667
data15_13TeV.00281385.physics_Main.merge.DAOD_HIGG4D2.r7562_p2521_p2667
data15_13TeV.00281411.physics_Main.merge.DAOD_HIGG4D2.r7562_p2521_p2667
data15_13TeV.00282625.physics_Main.merge.DAOD_HIGG4D2.r7562_p2521_p2667
data15_13TeV.00282631.physics_Main.merge.DAOD_HIGG4D2.r7562_p2521_p2667
data15_13TeV.00282712.physics_Main.merge.DAOD_HIGG4D2.r7562_p2521_p2667
data15_13TeV.00282784.physics_Main.merge.DAOD_HIGG4D2.r7562_p2521_p2667
data15_13TeV.00282992.physics_Main.merge.DAOD_HIGG4D2.r7562_p2521_p2667
data15_13TeV.00283074.physics_Main.merge.DAOD_HIGG4D2.r7562_p2521_p2667
data15_13TeV.00283155.physics_Main.merge.DAOD_HIGG4D2.r7562_p2521_p2667
data15_13TeV.00283270.physics_Main.merge.DAOD_HIGG4D2.r7562_p2521_p2667
data15_13TeV.00283429.physics_Main.merge.DAOD_HIGG4D2.r7562_p2521_p2667
data15_13TeV.00283608.physics_Main.merge.DAOD_HIGG4D2.r7562_p2521_p2667
data15_13TeV.00283780.physics_Main.merge.DAOD_HIGG4D2.r7562_p2521_p2667
data15_13TeV.00284006.physics_Main.merge.DAOD_HIGG4D2.r7562_p2521_p2667
data15_13TeV.00284154.physics_Main.merge.DAOD_HIGG4D2.r7562_p2521_p2667
data15_13TeV.00284213.physics_Main.merge.DAOD_HIGG4D2.r7562_p2521_p2667
data15_13TeV.00284285.physics_Main.merge.DAOD_HIGG4D2.r7562_p2521_p2667
data15_13TeV.00284420.physics_Main.merge.DAOD_HIGG4D2.r7562_p2521_p2667
data15_13TeV.00284427.physics_Main.merge.DAOD_HIGG4D2.r7562_p2521_p2667
data15_13TeV.00284473.physics_Main.merge.DAOD_HIGG4D2.r7562_p2521_p2667
data15_13TeV.00284484.physics_Main.merge.DAOD_HIGG4D2.r7562_p2521_p2667
data16_13TeV.00296939.physics_Main.merge.DAOD_HIGG4D2.f702_m1594_p2667
data16_13TeV.00296942.physics_Main.merge.DAOD_HIGG4D2.f702_m1594_p2667
data16_13TeV.00297041.physics_Main.merge.DAOD_HIGG4D2.f686_m1583_p2667
data16_13TeV.00297083.physics_Main.merge.DAOD_HIGG4D2.f686_m1583_p2667
data16_13TeV.00297170.physics_Main.merge.DAOD_HIGG4D2.f686_m1583_p2667
data16_13TeV.00297447.physics_Main.merge.DAOD_HIGG4D2.f693_m1583_p2667
data16_13TeV.00297730.physics_Main.merge.DAOD_HIGG4D2.f694_m1583_p2667
data16_13TeV.00298591.physics_Main.merge.DAOD_HIGG4D2.f695_m1588_p2667
data16_13TeV.00298595.physics_Main.merge.DAOD_HIGG4D2.f698_m1594_p2667
data16_13TeV.00298609.physics_Main.merge.DAOD_HIGG4D2.f698_m1594_p2667
data16_13TeV.00298633.physics_Main.merge.DAOD_HIGG4D2.f698_m1594_p2667
data16_13TeV.00298687.physics_Main.merge.DAOD_HIGG4D2.f698_m1594_p2667
data16_13TeV.00298690.physics_Main.merge.DAOD_HIGG4D2.f698_m1594_p2667
data16_13TeV.00298771.physics_Main.merge.DAOD_HIGG4D2.f698_m1594_p2667
data16_13TeV.00298773.physics_Main.merge.DAOD_HIGG4D2.f698_m1594_p2667
data16_13TeV.00298862.physics_Main.merge.DAOD_HIGG4D2.f696_m1588_p2667
data16_13TeV.00298967.physics_Main.merge.DAOD_HIGG4D2.f696_m1588_p2667
data16_13TeV.00299055.physics_Main.merge.DAOD_HIGG4D2.f698_m1594_p2667
data16_13TeV.00299144.physics_Main.merge.DAOD_HIGG4D2.f698_m1594_p2667
data16_13TeV.00299147.physics_Main.merge.DAOD_HIGG4D2.f698_m1594_p2667
data16_13TeV.00299184.physics_Main.merge.DAOD_HIGG4D2.f698_m1594_p2667
data16_13TeV.00299241.physics_Main.merge.DAOD_HIGG4D2.f698_m1594_p2667
data16_13TeV.00299243.physics_Main.merge.DAOD_HIGG4D2.f698_m1594_p2667
data16_13TeV.00299288.physics_Main.merge.DAOD_HIGG4D2.f698_m1594_p2667
data16_13TeV.00299315.physics_Main.merge.DAOD_HIGG4D2.f701_m1594_p2667
data16_13TeV.00299340.physics_Main.merge.DAOD_HIGG4D2.f698_m1594_p2667
data16_13TeV.00299343.physics_Main.merge.DAOD_HIGG4D2.f698_m1594_p2667
data16_13TeV.00299390.physics_Main.merge.DAOD_HIGG4D2.f701_m1594_p2667
data16_13TeV.00299584.physics_Main.merge.DAOD_HIGG4D2.f703_m1600_p2667
data16_13TeV.00300279.physics_Main.merge.DAOD_HIGG4D2.f705_m1606_p2667
data16_13TeV.00300287.physics_Main.merge.DAOD_HIGG4D2.f706_m1606_p2667
data16_13TeV.00300345.physics_Main.merge.DAOD_HIGG4D2.f705_m1606_p2667
data16_13TeV.00300415.physics_Main.merge.DAOD_HIGG4D2.f705_m1606_p2667
data16_13TeV.00300418.physics_Main.merge.DAOD_HIGG4D2.f705_m1606_p2667
data16_13TeV.00300487.physics_Main.merge.DAOD_HIGG4D2.f705_m1606_p2667
data16_13TeV.00300540.physics_Main.merge.DAOD_HIGG4D2.f705_m1606_p2667
data16_13TeV.00300571.physics_Main.merge.DAOD_HIGG4D2.f705_m1606_p2667
data16_13TeV.00300600.physics_Main.merge.DAOD_HIGG4D2.f708_m1606_p2667
data16_13TeV.00300655.physics_Main.merge.DAOD_HIGG4D2.f708_m1606_p2667
data16_13TeV.00300687.physics_Main.merge.DAOD_HIGG4D2.f708_m1606_p2667
data16_13TeV.00300784.physics_Main.merge.DAOD_HIGG4D2.f708_m1606_p2667
data16_13TeV.00300800.physics_Main.merge.DAOD_HIGG4D2.f708_m1606_p2667
data16_13TeV.00300863.physics_Main.merge.DAOD_HIGG4D2.f708_m1606_p2667
data16_13TeV.00300908.physics_Main.merge.DAOD_HIGG4D2.f708_m1606_p2667
data16_13TeV.00301912.physics_Main.merge.DAOD_HIGG4D2.f709_m1611_p2667
data16_13TeV.00301915.physics_Main.merge.DAOD_HIGG4D2.f709_m1611_p2667
data16_13TeV.00301918.physics_Main.merge.DAOD_HIGG4D2.f709_m1611_p2667
data16_13TeV.00301932.physics_Main.merge.DAOD_HIGG4D2.f709_m1611_p2667
data16_13TeV.00301973.physics_Main.merge.DAOD_HIGG4D2.f709_m1611_p2667
data16_13TeV.00302053.physics_Main.merge.DAOD_HIGG4D2.f709_m1611_p2689
data16_13TeV.00302137.physics_Main.merge.DAOD_HIGG4D2.f709_m1620_p2689
data16_13TeV.00302265.physics_Main.merge.DAOD_HIGG4D2.f709_m1620_p2689
data16_13TeV.00302269.physics_Main.merge.DAOD_HIGG4D2.f709_m1620_p2689
data16_13TeV.00302300.physics_Main.merge.DAOD_HIGG4D2.f711_m1620_p2689
data16_13TeV.00302347.physics_Main.merge.DAOD_HIGG4D2.f711_m1620_p2689
data16_13TeV.00302380.physics_Main.merge.DAOD_HIGG4D2.f711_m1620_p2689
data16_13TeV.00302391.physics_Main.merge.DAOD_HIGG4D2.f711_m1620_p2689
data16_13TeV.00302393.physics_Main.merge.DAOD_HIGG4D2.f711_m1620_p2689
data16_13TeV.00302737.physics_Main.merge.DAOD_HIGG4D2.f711_m1620_p2689
data16_13TeV.00302829.physics_Main.merge.DAOD_HIGG4D2.f711_m1620_p2689
data16_13TeV.00302831.physics_Main.merge.DAOD_HIGG4D2.f711_m1620_p2689
data16_13TeV.00302872.physics_Main.merge.DAOD_HIGG4D2.f715_m1620_p2689
data16_13TeV.00302872.physics_Main.merge.DAOD_HIGG4D2.f716_m1620_p2689
data16_13TeV.00302919.physics_Main.merge.DAOD_HIGG4D2.f715_m1620_p2689
data16_13TeV.00302925.physics_Main.merge.DAOD_HIGG4D2.f715_m1620_p2689
data16_13TeV.00302956.physics_Main.merge.DAOD_HIGG4D2.f715_m1620_p2689
data16_13TeV.00303007.physics_Main.merge.DAOD_HIGG4D2.f715_m1620_p2689
data16_13TeV.00303059.physics_Main.merge.DAOD_HIGG4D2.f715_m1620_p2689
data16_13TeV.00303079.physics_Main.merge.DAOD_HIGG4D2.f715_m1620_p2689
data16_13TeV.00303201.physics_Main.merge.DAOD_HIGG4D2.f715_m1620_p2689
data16_13TeV.00303208.physics_Main.merge.DAOD_HIGG4D2.f715_m1620_p2689
data16_13TeV.00303264.physics_Main.merge.DAOD_HIGG4D2.f715_m1620_p2689
data16_13TeV.00303266.physics_Main.merge.DAOD_HIGG4D2.f715_m1620_p2689
data16_13TeV.00303291.physics_Main.merge.DAOD_HIGG4D2.f716_m1620_p2689
data16_13TeV.00303304.physics_Main.merge.DAOD_HIGG4D2.f716_m1620_p2689
data16_13TeV.00303338.physics_Main.merge.DAOD_HIGG4D2.f716_m1620_p2689
data16_13TeV.00303421.physics_Main.merge.DAOD_HIGG4D2.f716_m1620_p2689
data16_13TeV.00303499.physics_Main.merge.DAOD_HIGG4D2.f716_m1620_p2689
data16_13TeV.00303560.physics_Main.merge.DAOD_HIGG4D2.f716_m1620_p2689
data16_13TeV.00303638.physics_Main.merge.DAOD_HIGG4D2.f716_m1620_p2689
data16_13TeV.00303726.physics_Main.merge.DAOD_HIGG4D2.f716_m1620_p2689
data16_13TeV.00303811.physics_Main.merge.DAOD_HIGG4D2.f716_m1620_p2689
data16_13TeV.00303817.physics_Main.merge.DAOD_HIGG4D2.f716_m1620_p2689
data16_13TeV.00303819.physics_Main.merge.DAOD_HIGG4D2.f716_m1620_p2689
data16_13TeV.00303832.physics_Main.merge.DAOD_HIGG4D2.f716_m1620_p2689
data16_13TeV.00303846.physics_Main.merge.DAOD_HIGG4D2.f716_m1620_p2689
data16_13TeV.00303943.physics_Main.merge.DAOD_HIGG4D2.f716_m1620_p2689
