mc15_13TeV.301040.PowhegPythia8EvtGen_AZNLOCTEQ6L1_DYtautau_120M180.merge.DAOD_HIGG4D3.e3649_s2576_s2132_r7772_r7676_p2666
mc15_13TeV.301041.PowhegPythia8EvtGen_AZNLOCTEQ6L1_DYtautau_180M250.merge.DAOD_HIGG4D3.e3649_s2576_s2132_r7772_r7676_p2666
mc15_13TeV.301042.PowhegPythia8EvtGen_AZNLOCTEQ6L1_DYtautau_250M400.merge.DAOD_HIGG4D3.e3649_s2576_s2132_r7772_r7676_p2666
mc15_13TeV.301043.PowhegPythia8EvtGen_AZNLOCTEQ6L1_DYtautau_400M600.merge.DAOD_HIGG4D3.e3649_s2576_s2132_r7772_r7676_p2666
mc15_13TeV.301044.PowhegPythia8EvtGen_AZNLOCTEQ6L1_DYtautau_600M800.merge.DAOD_HIGG4D3.e3649_s2576_s2132_r7772_r7676_p2666
mc15_13TeV.301045.PowhegPythia8EvtGen_AZNLOCTEQ6L1_DYtautau_800M1000.merge.DAOD_HIGG4D3.e3649_s2576_s2132_r7772_r7676_p2666
mc15_13TeV.301046.PowhegPythia8EvtGen_AZNLOCTEQ6L1_DYtautau_1000M1250.merge.DAOD_HIGG4D3.e3649_s2576_s2132_r7772_r7676_p2666
mc15_13TeV.301047.PowhegPythia8EvtGen_AZNLOCTEQ6L1_DYtautau_1250M1500.merge.DAOD_HIGG4D3.e3649_s2576_s2132_r7772_r7676_p2666
mc15_13TeV.301048.PowhegPythia8EvtGen_AZNLOCTEQ6L1_DYtautau_1500M1750.merge.DAOD_HIGG4D3.e3649_s2576_s2132_r7772_r7676_p2666
mc15_13TeV.301049.PowhegPythia8EvtGen_AZNLOCTEQ6L1_DYtautau_1750M2000.merge.DAOD_HIGG4D3.e3649_s2576_s2132_r7772_r7676_p2666
mc15_13TeV.301050.PowhegPythia8EvtGen_AZNLOCTEQ6L1_DYtautau_2000M2250.merge.DAOD_HIGG4D3.e3649_s2576_s2132_r7772_r7676_p2666
mc15_13TeV.301051.PowhegPythia8EvtGen_AZNLOCTEQ6L1_DYtautau_2250M2500.merge.DAOD_HIGG4D3.e3649_s2576_s2132_r7772_r7676_p2666
mc15_13TeV.301052.PowhegPythia8EvtGen_AZNLOCTEQ6L1_DYtautau_2500M2750.merge.DAOD_HIGG4D3.e3649_s2576_s2132_r7772_r7676_p2666
mc15_13TeV.301053.PowhegPythia8EvtGen_AZNLOCTEQ6L1_DYtautau_2750M3000.merge.DAOD_HIGG4D3.e3649_s2576_s2132_r7772_r7676_p2666
mc15_13TeV.301054.PowhegPythia8EvtGen_AZNLOCTEQ6L1_DYtautau_3000M3500.merge.DAOD_HIGG4D3.e3649_s2576_s2132_r7772_r7676_p2666
mc15_13TeV.301055.PowhegPythia8EvtGen_AZNLOCTEQ6L1_DYtautau_3500M4000.merge.DAOD_HIGG4D3.e3649_s2576_s2132_r7772_r7676_p2666
mc15_13TeV.301056.PowhegPythia8EvtGen_AZNLOCTEQ6L1_DYtautau_4000M4500.merge.DAOD_HIGG4D3.e3649_s2576_s2132_r7772_r7676_p2666
mc15_13TeV.301057.PowhegPythia8EvtGen_AZNLOCTEQ6L1_DYtautau_4500M5000.merge.DAOD_HIGG4D3.e3649_s2576_s2132_r7772_r7676_p2666
mc15_13TeV.301058.PowhegPythia8EvtGen_AZNLOCTEQ6L1_DYtautau_5000M.merge.DAOD_HIGG4D3.e3649_s2576_s2132_r7772_r7676_p2666
mc15_13TeV.303024.Sherpa_CT10_VV_llee_500M1000.merge.DAOD_HIGG4D3.e4586_s2726_r7772_r7676_p2666
mc15_13TeV.303026.Sherpa_CT10_VV_llee_2000M3000.merge.DAOD_HIGG4D3.e4586_s2726_r7772_r7676_p2666
mc15_13TeV.303054.Sherpa_CT10_VV_llmumu_50M150.merge.DAOD_HIGG4D3.e4586_s2726_r7772_r7676_p2666
mc15_13TeV.303351.MadGraphPythia8EvtGen_A14NNPDF23LO_RS_G_hh_bbtt_hh_c10_M260.merge.DAOD_HIGG4D3.e5111_s2726_r7772_r7676_p2666
mc15_13TeV.303352.MadGraphPythia8EvtGen_A14NNPDF23LO_RS_G_hh_bbtt_hh_c10_M300.merge.DAOD_HIGG4D3.e5111_s2726_r7772_r7676_p2666
mc15_13TeV.303353.MadGraphPythia8EvtGen_A14NNPDF23LO_RS_G_hh_bbtt_hh_c10_M400.merge.DAOD_HIGG4D3.e5111_s2726_r7772_r7676_p2666
mc15_13TeV.303354.MadGraphPythia8EvtGen_A14NNPDF23LO_RS_G_hh_bbtt_hh_c10_M500.merge.DAOD_HIGG4D3.e5111_s2726_r7772_r7676_p2666
mc15_13TeV.303355.MadGraphPythia8EvtGen_A14NNPDF23LO_RS_G_hh_bbtt_hh_c10_M600.merge.DAOD_HIGG4D3.e5111_s2726_r7772_r7676_p2666
mc15_13TeV.303356.MadGraphPythia8EvtGen_A14NNPDF23LO_RS_G_hh_bbtt_hh_c10_M700.merge.DAOD_HIGG4D3.e5111_s2726_r7772_r7676_p2666
mc15_13TeV.303357.MadGraphPythia8EvtGen_A14NNPDF23LO_RS_G_hh_bbtt_hh_c10_M800.merge.DAOD_HIGG4D3.e5111_s2726_r7772_r7676_p2666
mc15_13TeV.303358.MadGraphPythia8EvtGen_A14NNPDF23LO_RS_G_hh_bbtt_hh_c10_M900.merge.DAOD_HIGG4D3.e5111_s2726_r7772_r7676_p2666
mc15_13TeV.303359.MadGraphPythia8EvtGen_A14NNPDF23LO_RS_G_hh_bbtt_hh_c10_M1000.merge.DAOD_HIGG4D3.e5111_s2726_r7772_r7676_p2666
mc15_13TeV.303373.MadGraphPythia8EvtGen_A14NNPDF23LO_RS_G_hh_bbtt_hh_c20_M300.merge.DAOD_HIGG4D3.e5111_s2726_r7772_r7676_p2666
mc15_13TeV.303377.MadGraphPythia8EvtGen_A14NNPDF23LO_RS_G_hh_bbtt_hh_c20_M700.merge.DAOD_HIGG4D3.e5111_s2726_r7772_r7676_p2666
mc15_13TeV.304017.Sherpa_CT10_Wtaunu2JetsEW1JetQCD15GeV.merge.DAOD_HIGG4D3.e4523_s2608_r7772_r7676_p2666
mc15_13TeV.304021.Sherpa_CT10_Ztautau2JetsEW1JetQCD15GeVM40.merge.DAOD_HIGG4D3.e4523_s2608_r7772_r7676_p2666
mc15_13TeV.305133.Pythia8EvtGen_A14NNPDF23LO_LQ3LQ3_250_btaubtau.merge.DAOD_HIGG4D3.e5017_s2726_r7772_r7676_p2666
mc15_13TeV.305138.Pythia8EvtGen_A14NNPDF23LO_LQ3LQ3_500_btaubtau.merge.DAOD_HIGG4D3.e5017_s2726_r7772_r7676_p2666
mc15_13TeV.305148.Pythia8EvtGen_A14NNPDF23LO_LQ3LQ3_1000_btaubtau.merge.DAOD_HIGG4D3.e5017_s2726_r7772_r7676_p2666
mc15_13TeV.341096.PowhegPythia8EvtGen_CT10_AZNLO_ggZH125_tautaubb.merge.DAOD_HIGG4D3.e3891_s2608_s2183_r7772_r7676_p2666
mc15_13TeV.341102.Pythia8EvtGen_A14NNPDF23LO_ZllH125_bb.merge.DAOD_HIGG4D3.e3885_s2608_s2183_r7772_r7676_p2666
mc15_13TeV.341124.PowhegPythia8EvtGen_CT10_AZNLOCTEQ6L1_ggH125_tautauhh.merge.DAOD_HIGG4D3.e3935_s2608_s2183_r7772_r7676_p2666
mc15_13TeV.341157.PowhegPythia8EvtGen_CT10_AZNLOCTEQ6L1_VBFH125_tautauhh.merge.DAOD_HIGG4D3.e3888_s2608_s2183_r7772_r7676_p2666
mc15_13TeV.342171.aMcAtNloHppEG_UE5_C6L1_CT10ME_ttH125_H2tau_semilep.merge.DAOD_HIGG4D3.e4273_s2608_r7772_r7676_p2666
mc15_13TeV.342172.aMcAtNloHppEG_UE5_C6L1_CT10ME_ttH125_H2tau_allhad.merge.DAOD_HIGG4D3.e4273_s2608_r7772_r7676_p2666
mc15_13TeV.342282.PowhegPythia8EvtGen_CT10_AZNLOCTEQ6L1_ggH125_inc.merge.DAOD_HIGG4D3.e4246_s2608_s2183_r7772_r7676_p2666
mc15_13TeV.342283.PowhegPythia8EvtGen_CT10_AZNLOCTEQ6L1_VBFH125_inc.merge.DAOD_HIGG4D3.e4246_s2608_s2183_r7772_r7676_p2666
mc15_13TeV.342284.Pythia8EvtGen_A14NNPDF23LO_WH125_inc.merge.DAOD_HIGG4D3.e4246_s2608_s2183_r7772_r7676_p2666
mc15_13TeV.342285.Pythia8EvtGen_A14NNPDF23LO_ZH125_inc.merge.DAOD_HIGG4D3.e4246_s2608_s2183_r7772_r7676_p2666
mc15_13TeV.342623.aMcAtNloHerwigppEvtGen_UEEE5_CTEQ6L1_CT10ME_hh_ttbb_hh.merge.DAOD_HIGG4D3.e5072_s2726_r7772_r7676_p2666
mc15_13TeV.342635.MadGraphPythia8EvtGen_A14NNPDF23LO_X260tohh_bbtautau_hadhad.merge.DAOD_HIGG4D3.e5050_s2726_r7772_r7676_p2666
mc15_13TeV.342636.MadGraphPythia8EvtGen_A14NNPDF23LO_X300tohh_bbtautau_hadhad.merge.DAOD_HIGG4D3.e5050_s2726_r7772_r7676_p2666
mc15_13TeV.342637.MadGraphPythia8EvtGen_A14NNPDF23LO_X400tohh_bbtautau_hadhad.merge.DAOD_HIGG4D3.e5050_s2726_r7772_r7676_p2666
mc15_13TeV.342638.MadGraphPythia8EvtGen_A14NNPDF23LO_X500tohh_bbtautau_hadhad.merge.DAOD_HIGG4D3.e5050_s2726_r7772_r7676_p2666
mc15_13TeV.342639.MadGraphPythia8EvtGen_A14NNPDF23LO_X600tohh_bbtautau_hadhad.merge.DAOD_HIGG4D3.e5050_s2726_r7772_r7676_p2666
mc15_13TeV.342640.MadGraphPythia8EvtGen_A14NNPDF23LO_X700tohh_bbtautau_hadhad.merge.DAOD_HIGG4D3.e5050_s2726_r7772_r7676_p2666
mc15_13TeV.342641.MadGraphPythia8EvtGen_A14NNPDF23LO_X800tohh_bbtautau_hadhad.merge.DAOD_HIGG4D3.e5050_s2726_r7772_r7676_p2666
mc15_13TeV.342643.MadGraphPythia8EvtGen_A14NNPDF23LO_X1000tohh_bbtautau_hadhad.merge.DAOD_HIGG4D3.e5050_s2726_r7772_r7676_p2666
mc15_13TeV.343323.Pythia8EvtGen_A14NNPDF23LO_WqqH125_tautauIncl.merge.DAOD_HIGG4D3.e4654_s2726_r7772_r7676_p2666
mc15_13TeV.343334.Pythia8EvtGen_A14NNPDF23LO_ZqqH125_tautauIncl.merge.DAOD_HIGG4D3.e4654_s2726_r7772_r7676_p2666
mc15_13TeV.343365.aMcAtNloPythia8EvtGen_A14_NNPDF23_NNPDF30ME_ttH125_dilep.merge.DAOD_HIGG4D3.e4706_s2726_r7772_r7676_p2666
mc15_13TeV.343366.aMcAtNloPythia8EvtGen_A14_NNPDF23_NNPDF30ME_ttH125_semilep.merge.DAOD_HIGG4D3.e4706_s2726_r7772_r7676_p2666
mc15_13TeV.343367.aMcAtNloPythia8EvtGen_A14_NNPDF23_NNPDF30ME_ttH125_allhad.merge.DAOD_HIGG4D3.e4706_s2726_r7772_r7676_p2666
mc15_13TeV.343942.Pythia8EvtGen_A14NNPDF23LO_WlvH125_tautauIncl.merge.DAOD_HIGG4D3.e4879_s2726_r7772_r7676_p2666
mc15_13TeV.343953.Pythia8EvtGen_A14NNPDF23LO_ZllH125_tautauIncl.merge.DAOD_HIGG4D3.e4879_s2726_r7772_r7676_p2666
mc15_13TeV.361020.Pythia8EvtGen_A14NNPDF23LO_jetjet_JZ0W.merge.DAOD_HIGG4D3.e3569_s2576_s2132_r7725_r7676_p2666
mc15_13TeV.361021.Pythia8EvtGen_A14NNPDF23LO_jetjet_JZ1W.merge.DAOD_HIGG4D3.e3569_s2576_s2132_r7725_r7676_p2666
mc15_13TeV.361022.Pythia8EvtGen_A14NNPDF23LO_jetjet_JZ2W.merge.DAOD_HIGG4D3.e3668_s2576_s2132_r7725_r7676_p2666
mc15_13TeV.361023.Pythia8EvtGen_A14NNPDF23LO_jetjet_JZ3W.merge.DAOD_HIGG4D3.e3668_s2576_s2132_r7725_r7676_p2666
mc15_13TeV.361024.Pythia8EvtGen_A14NNPDF23LO_jetjet_JZ4W.merge.DAOD_HIGG4D3.e3668_s2576_s2132_r7725_r7676_p2666
mc15_13TeV.361025.Pythia8EvtGen_A14NNPDF23LO_jetjet_JZ5W.merge.DAOD_HIGG4D3.e3668_s2576_s2132_r7725_r7676_p2666
mc15_13TeV.361026.Pythia8EvtGen_A14NNPDF23LO_jetjet_JZ6W.merge.DAOD_HIGG4D3.e3569_s2608_s2183_r7725_r7676_p2666
mc15_13TeV.361027.Pythia8EvtGen_A14NNPDF23LO_jetjet_JZ7W.merge.DAOD_HIGG4D3.e3668_s2608_s2183_r7725_r7676_p2666
mc15_13TeV.361028.Pythia8EvtGen_A14NNPDF23LO_jetjet_JZ8W.merge.DAOD_HIGG4D3.e3569_s2576_s2132_r7772_r7676_p2666
mc15_13TeV.361081.Sherpa_CT10_WplvWmqq.merge.DAOD_HIGG4D3.e3836_s2608_s2183_r7772_r7676_p2666
mc15_13TeV.361082.Sherpa_CT10_WpqqWmlv.merge.DAOD_HIGG4D3.e3836_s2608_s2183_r7772_r7676_p2666
mc15_13TeV.361083.Sherpa_CT10_WlvZqq.merge.DAOD_HIGG4D3.e3836_s2608_s2183_r7772_r7676_p2666
mc15_13TeV.361084.Sherpa_CT10_WqqZll.merge.DAOD_HIGG4D3.e3836_s2608_s2183_r7772_r7676_p2666
mc15_13TeV.361085.Sherpa_CT10_WqqZvv.merge.DAOD_HIGG4D3.e3836_s2608_s2183_r7772_r7676_p2666
mc15_13TeV.361086.Sherpa_CT10_ZqqZll.merge.DAOD_HIGG4D3.e3926_s2608_s2183_r7772_r7676_p2666
mc15_13TeV.361091.Sherpa_CT10_WplvWmqq_SHv21_improved.merge.DAOD_HIGG4D3.e4607_s2726_r7725_r7676_p2666
mc15_13TeV.361092.Sherpa_CT10_WpqqWmlv_SHv21_improved.merge.DAOD_HIGG4D3.e4607_s2726_r7725_r7676_p2666
mc15_13TeV.361093.Sherpa_CT10_WlvZqq_SHv21_improved.merge.DAOD_HIGG4D3.e4607_s2726_r7725_r7676_p2666
mc15_13TeV.361094.Sherpa_CT10_WqqZll_SHv21_improved.merge.DAOD_HIGG4D3.e4607_s2726_r7725_r7676_p2666
mc15_13TeV.361095.Sherpa_CT10_WqqZvv_SHv21_improved.merge.DAOD_HIGG4D3.e4607_s2726_r7772_r7676_p2666
mc15_13TeV.361096.Sherpa_CT10_ZqqZll_SHv21_improved.merge.DAOD_HIGG4D3.e4607_s2726_r7725_r7676_p2666
mc15_13TeV.361097.Sherpa_CT10_ZqqZvv_SHv21_improved.merge.DAOD_HIGG4D3.e4607_s2726_r7772_r7676_p2666
mc15_13TeV.361102.PowhegPythia8EvtGen_AZNLOCTEQ6L1_Wplustaunu.merge.DAOD_HIGG4D3.e3601_s2576_s2132_r7725_r7676_p2666
mc15_13TeV.361108.PowhegPythia8EvtGen_AZNLOCTEQ6L1_Ztautau.merge.DAOD_HIGG4D3.e3601_s2726_r7725_r7676_p2666
mc15_13TeV.361348.Sherpa_CT10_Wtaunu_Pt0_70_CVetoBVeto.merge.DAOD_HIGG4D3.e3733_s2608_s2183_r7725_r7676_p2666
mc15_13TeV.361349.Sherpa_CT10_Wtaunu_Pt0_70_CFilterBVeto.merge.DAOD_HIGG4D3.e3733_s2608_s2183_r7725_r7676_p2666
mc15_13TeV.361350.Sherpa_CT10_Wtaunu_Pt0_70_BFilter.merge.DAOD_HIGG4D3.e3733_s2608_s2183_r7725_r7676_p2666
mc15_13TeV.361351.Sherpa_CT10_Wtaunu_Pt70_140_CVetoBVeto.merge.DAOD_HIGG4D3.e3733_s2608_s2183_r7725_r7676_p2666
mc15_13TeV.361352.Sherpa_CT10_Wtaunu_Pt70_140_CFilterBVeto.merge.DAOD_HIGG4D3.e3733_s2608_s2183_r7725_r7676_p2666
mc15_13TeV.361353.Sherpa_CT10_Wtaunu_Pt70_140_BFilter.merge.DAOD_HIGG4D3.e3733_s2608_s2183_r7725_r7676_p2666
mc15_13TeV.361354.Sherpa_CT10_Wtaunu_Pt140_280_CVetoBVeto.merge.DAOD_HIGG4D3.e3733_s2608_s2183_r7725_r7676_p2666
mc15_13TeV.361355.Sherpa_CT10_Wtaunu_Pt140_280_CFilterBVeto.merge.DAOD_HIGG4D3.e3733_s2608_s2183_r7725_r7676_p2666
mc15_13TeV.361356.Sherpa_CT10_Wtaunu_Pt140_280_BFilter.merge.DAOD_HIGG4D3.e3733_s2608_s2183_r7725_r7676_p2666
mc15_13TeV.361357.Sherpa_CT10_Wtaunu_Pt280_500_CVetoBVeto.merge.DAOD_HIGG4D3.e4133_s2608_s2183_r7725_r7676_p2666
mc15_13TeV.361358.Sherpa_CT10_Wtaunu_Pt280_500_CFilterBVeto.merge.DAOD_HIGG4D3.e4133_s2608_s2183_r7725_r7676_p2666
mc15_13TeV.361359.Sherpa_CT10_Wtaunu_Pt280_500_BFilter.merge.DAOD_HIGG4D3.e4133_s2608_s2183_r7725_r7676_p2666
mc15_13TeV.361360.Sherpa_CT10_Wtaunu_Pt500_700_CVetoBVeto.merge.DAOD_HIGG4D3.e4133_s2608_s2183_r7725_r7676_p2666
mc15_13TeV.361361.Sherpa_CT10_Wtaunu_Pt500_700_CFilterBVeto.merge.DAOD_HIGG4D3.e4133_s2608_s2183_r7725_r7676_p2666
mc15_13TeV.361362.Sherpa_CT10_Wtaunu_Pt500_700_BFilter.merge.DAOD_HIGG4D3.e4133_s2608_s2183_r7725_r7676_p2666
mc15_13TeV.361363.Sherpa_CT10_Wtaunu_Pt700_1000_CVetoBVeto.merge.DAOD_HIGG4D3.e4133_s2608_s2183_r7725_r7676_p2666
mc15_13TeV.361364.Sherpa_CT10_Wtaunu_Pt700_1000_CFilterBVeto.merge.DAOD_HIGG4D3.e4133_s2608_s2183_r7725_r7676_p2666
mc15_13TeV.361365.Sherpa_CT10_Wtaunu_Pt700_1000_BFilter.merge.DAOD_HIGG4D3.e4133_s2608_s2183_r7725_r7676_p2666
mc15_13TeV.361366.Sherpa_CT10_Wtaunu_Pt1000_2000_CVetoBVeto.merge.DAOD_HIGG4D3.e4133_s2608_s2183_r7725_r7676_p2666
mc15_13TeV.361367.Sherpa_CT10_Wtaunu_Pt1000_2000_CFilterBVeto.merge.DAOD_HIGG4D3.e4316_s2608_s2183_r7725_r7676_p2666
mc15_13TeV.361368.Sherpa_CT10_Wtaunu_Pt1000_2000_BFilter.merge.DAOD_HIGG4D3.e4133_s2608_s2183_r7725_r7676_p2666
mc15_13TeV.361369.Sherpa_CT10_Wtaunu_Pt2000_E_CMS_CVetoBVeto.merge.DAOD_HIGG4D3.e4133_s2608_s2183_r7725_r7676_p2666
mc15_13TeV.361370.Sherpa_CT10_Wtaunu_Pt2000_E_CMS_CFilterBVeto.merge.DAOD_HIGG4D3.e4133_s2608_s2183_r7725_r7676_p2666
mc15_13TeV.361371.Sherpa_CT10_Wtaunu_Pt2000_E_CMS_BFilter.merge.DAOD_HIGG4D3.e4133_s2608_s2183_r7725_r7676_p2666
mc15_13TeV.361420.Sherpa_CT10_Ztautau_Pt0_70_CVetoBVeto.merge.DAOD_HIGG4D3.e3733_s2608_s2183_r7772_r7676_p2666
mc15_13TeV.361421.Sherpa_CT10_Ztautau_Pt0_70_CFilterBVeto.merge.DAOD_HIGG4D3.e3733_s2608_s2183_r7772_r7676_p2666
mc15_13TeV.361422.Sherpa_CT10_Ztautau_Pt0_70_BFilter.merge.DAOD_HIGG4D3.e3733_s2608_s2183_r7772_r7676_p2666
mc15_13TeV.361423.Sherpa_CT10_Ztautau_Pt70_140_CVetoBVeto.merge.DAOD_HIGG4D3.e3733_s2608_s2183_r7772_r7676_p2666
mc15_13TeV.361424.Sherpa_CT10_Ztautau_Pt70_140_CFilterBVeto.merge.DAOD_HIGG4D3.e3733_s2608_s2183_r7772_r7676_p2666
mc15_13TeV.361425.Sherpa_CT10_Ztautau_Pt70_140_BFilter.merge.DAOD_HIGG4D3.e3733_s2608_s2183_r7772_r7676_p2666
mc15_13TeV.361426.Sherpa_CT10_Ztautau_Pt140_280_CVetoBVeto.merge.DAOD_HIGG4D3.e3733_s2608_s2183_r7772_r7676_p2666
mc15_13TeV.361427.Sherpa_CT10_Ztautau_Pt140_280_CFilterBVeto.merge.DAOD_HIGG4D3.e3733_s2608_s2183_r7772_r7676_p2666
mc15_13TeV.361428.Sherpa_CT10_Ztautau_Pt140_280_BFilter.merge.DAOD_HIGG4D3.e3733_s2608_s2183_r7772_r7676_p2666
mc15_13TeV.361429.Sherpa_CT10_Ztautau_Pt280_500_CVetoBVeto.merge.DAOD_HIGG4D3.e4133_s2608_s2183_r7772_r7676_p2666
mc15_13TeV.361430.Sherpa_CT10_Ztautau_Pt280_500_CFilterBVeto.merge.DAOD_HIGG4D3.e4133_s2608_s2183_r7772_r7676_p2666
mc15_13TeV.361431.Sherpa_CT10_Ztautau_Pt280_500_BFilter.merge.DAOD_HIGG4D3.e4133_s2608_s2183_r7772_r7676_p2666
mc15_13TeV.361432.Sherpa_CT10_Ztautau_Pt500_700_CVetoBVeto.merge.DAOD_HIGG4D3.e4133_s2608_s2183_r7772_r7676_p2666
mc15_13TeV.361433.Sherpa_CT10_Ztautau_Pt500_700_CFilterBVeto.merge.DAOD_HIGG4D3.e4133_s2608_s2183_r7772_r7676_p2666
mc15_13TeV.361434.Sherpa_CT10_Ztautau_Pt500_700_BFilter.merge.DAOD_HIGG4D3.e4133_s2608_s2183_r7772_r7676_p2666
mc15_13TeV.361435.Sherpa_CT10_Ztautau_Pt700_1000_CVetoBVeto.merge.DAOD_HIGG4D3.e4133_s2608_s2183_r7772_r7676_p2666
mc15_13TeV.361436.Sherpa_CT10_Ztautau_Pt700_1000_CFilterBVeto.merge.DAOD_HIGG4D3.e4133_s2608_s2183_r7772_r7676_p2666
mc15_13TeV.361437.Sherpa_CT10_Ztautau_Pt700_1000_BFilter.merge.DAOD_HIGG4D3.e4133_s2608_s2183_r7772_r7676_p2666
mc15_13TeV.361438.Sherpa_CT10_Ztautau_Pt1000_2000_CVetoBVeto.merge.DAOD_HIGG4D3.e4133_s2608_s2183_r7772_r7676_p2666
mc15_13TeV.361439.Sherpa_CT10_Ztautau_Pt1000_2000_CFilterBVeto.merge.DAOD_HIGG4D3.e4133_s2608_s2183_r7772_r7676_p2666
mc15_13TeV.361440.Sherpa_CT10_Ztautau_Pt1000_2000_BFilter.merge.DAOD_HIGG4D3.e4133_s2608_s2183_r7772_r7676_p2666
mc15_13TeV.361441.Sherpa_CT10_Ztautau_Pt2000_E_CMS_CVetoBVeto.merge.DAOD_HIGG4D3.e4133_s2608_s2183_r7772_r7676_p2666
mc15_13TeV.361442.Sherpa_CT10_Ztautau_Pt2000_E_CMS_CFilterBVeto.merge.DAOD_HIGG4D3.e4133_s2608_s2183_r7772_r7676_p2666
mc15_13TeV.361443.Sherpa_CT10_Ztautau_Pt2000_E_CMS_BFilter.merge.DAOD_HIGG4D3.e4316_s2608_s2183_r7772_r7676_p2666
mc15_13TeV.361485.Sherpa_CT10_Ztautau_Mll10to40_Pt0_70_BFilter.merge.DAOD_HIGG4D3.e4198_s2608_s2183_r7772_r7676_p2666
mc15_13TeV.361488.Sherpa_CT10_Ztautau_Mll10to40_Pt140_400_BVeto.merge.DAOD_HIGG4D3.e4198_s2608_s2183_r7772_r7676_p2666
mc15_13TeV.361489.Sherpa_CT10_Ztautau_Mll10to40_Pt140_400_BFilter.merge.DAOD_HIGG4D3.e4198_s2608_s2183_r7772_r7676_p2666
mc15_13TeV.361510.MadGraphPythia8EvtGen_A14NNPDF23LO_Ztautau_Np0.merge.DAOD_HIGG4D3.e3898_s2608_s2183_r7725_r7676_p2666
mc15_13TeV.361511.MadGraphPythia8EvtGen_A14NNPDF23LO_Ztautau_Np1.merge.DAOD_HIGG4D3.e3898_s2608_s2183_r7772_r7676_p2666
mc15_13TeV.361512.MadGraphPythia8EvtGen_A14NNPDF23LO_Ztautau_Np2.merge.DAOD_HIGG4D3.e3898_s2608_s2183_r7772_r7676_p2666
mc15_13TeV.361513.MadGraphPythia8EvtGen_A14NNPDF23LO_Ztautau_Np3.merge.DAOD_HIGG4D3.e3898_s2608_s2183_r7772_r7676_p2666
mc15_13TeV.361514.MadGraphPythia8EvtGen_A14NNPDF23LO_Ztautau_Np4.merge.DAOD_HIGG4D3.e3898_s2608_s2183_r7772_r7676_p2666
mc15_13TeV.361530.MadGraphPythia8EvtGen_A14NNPDF23LO_Wtaunu_Np0.merge.DAOD_HIGG4D3.e3898_s2608_s2183_r7772_r7676_p2666
mc15_13TeV.361531.MadGraphPythia8EvtGen_A14NNPDF23LO_Wtaunu_Np1.merge.DAOD_HIGG4D3.e3898_s2608_s2183_r7725_r7676_p2666
mc15_13TeV.361532.MadGraphPythia8EvtGen_A14NNPDF23LO_Wtaunu_Np2.merge.DAOD_HIGG4D3.e3898_s2608_s2183_r7772_r7676_p2666
mc15_13TeV.361533.MadGraphPythia8EvtGen_A14NNPDF23LO_Wtaunu_Np3.merge.DAOD_HIGG4D3.e3898_s2608_s2183_r7725_r7676_p2666
mc15_13TeV.361534.MadGraphPythia8EvtGen_A14NNPDF23LO_Wtaunu_Np4.merge.DAOD_HIGG4D3.e3898_s2608_s2183_r7725_r7676_p2666
mc15_13TeV.361638.MadGraphPythia8EvtGen_A14NNPDF23LO_Ztautau_lowMll_Np0.merge.DAOD_HIGG4D3.e4442_s2608_s2183_r7772_r7676_p2666
mc15_13TeV.361639.MadGraphPythia8EvtGen_A14NNPDF23LO_Ztautau_lowMll_Np1.merge.DAOD_HIGG4D3.e4442_s2608_s2183_r7772_r7676_p2666
mc15_13TeV.361640.MadGraphPythia8EvtGen_A14NNPDF23LO_Ztautau_lowMll_Np2.merge.DAOD_HIGG4D3.e4442_s2608_s2183_r7772_r7676_p2666
mc15_13TeV.361641.MadGraphPythia8EvtGen_A14NNPDF23LO_Ztautau_lowMll_Np3.merge.DAOD_HIGG4D3.e4442_s2608_s2183_r7772_r7676_p2666
mc15_13TeV.361642.MadGraphPythia8EvtGen_A14NNPDF23LO_Ztautau_lowMll_Np4.merge.DAOD_HIGG4D3.e4442_s2608_s2183_r7772_r7676_p2666
mc15_13TeV.361669.PowhegPythia8EvtGen_AZNLOCTEQ6L1_DYtautau_10M60.merge.DAOD_HIGG4D3.e4770_s2726_r7772_r7676_p2666
mc15_13TeV.363102.Sherpa_NNPDF30NNLO_Ztautau_Pt70_140_CVetoBVeto.merge.DAOD_HIGG4D3.e4742_s2726_r7725_r7676_p2666
mc15_13TeV.363103.Sherpa_NNPDF30NNLO_Ztautau_Pt70_140_CFilterBVeto.merge.DAOD_HIGG4D3.e4742_s2726_r7725_r7676_p2666
mc15_13TeV.363104.Sherpa_NNPDF30NNLO_Ztautau_Pt70_140_BFilter.merge.DAOD_HIGG4D3.e4792_s2726_r7725_r7676_p2666
mc15_13TeV.363105.Sherpa_NNPDF30NNLO_Ztautau_Pt140_280_CVetoBVeto.merge.DAOD_HIGG4D3.e4666_s2726_r7725_r7676_p2666
mc15_13TeV.363106.Sherpa_NNPDF30NNLO_Ztautau_Pt140_280_CFilterBVeto.merge.DAOD_HIGG4D3.e4666_s2726_r7725_r7676_p2666
mc15_13TeV.363107.Sherpa_NNPDF30NNLO_Ztautau_Pt140_280_BFilter.merge.DAOD_HIGG4D3.e4742_s2726_r7725_r7676_p2666
mc15_13TeV.363108.Sherpa_NNPDF30NNLO_Ztautau_Pt280_500_CVetoBVeto.merge.DAOD_HIGG4D3.e4666_s2726_r7725_r7676_p2666
mc15_13TeV.363109.Sherpa_NNPDF30NNLO_Ztautau_Pt280_500_CFilterBVeto.merge.DAOD_HIGG4D3.e4792_s2726_r7725_r7676_p2666
mc15_13TeV.363110.Sherpa_NNPDF30NNLO_Ztautau_Pt280_500_BFilter.merge.DAOD_HIGG4D3.e4792_s2726_r7725_r7676_p2666
mc15_13TeV.363111.Sherpa_NNPDF30NNLO_Ztautau_Pt500_700_CVetoBVeto.merge.DAOD_HIGG4D3.e4666_s2726_r7725_r7676_p2666
mc15_13TeV.363112.Sherpa_NNPDF30NNLO_Ztautau_Pt500_700_CFilterBVeto.merge.DAOD_HIGG4D3.e4742_s2726_r7725_r7676_p2666
mc15_13TeV.363113.Sherpa_NNPDF30NNLO_Ztautau_Pt500_700_BFilter.merge.DAOD_HIGG4D3.e4742_s2726_r7725_r7676_p2666
mc15_13TeV.363114.Sherpa_NNPDF30NNLO_Ztautau_Pt700_1000_CVetoBVeto.merge.DAOD_HIGG4D3.e4742_s2726_r7725_r7676_p2666
mc15_13TeV.363115.Sherpa_NNPDF30NNLO_Ztautau_Pt700_1000_CFilterBVeto.merge.DAOD_HIGG4D3.e4792_s2726_r7725_r7676_p2666
mc15_13TeV.363116.Sherpa_NNPDF30NNLO_Ztautau_Pt700_1000_BFilter.merge.DAOD_HIGG4D3.e4742_s2726_r7725_r7676_p2666
mc15_13TeV.363117.Sherpa_NNPDF30NNLO_Ztautau_Pt1000_2000_CVetoBVeto.merge.DAOD_HIGG4D3.e4666_s2726_r7725_r7676_p2666
mc15_13TeV.363118.Sherpa_NNPDF30NNLO_Ztautau_Pt1000_2000_CFilterBVeto.merge.DAOD_HIGG4D3.e4666_s2726_r7725_r7676_p2666
mc15_13TeV.363119.Sherpa_NNPDF30NNLO_Ztautau_Pt1000_2000_BFilter.merge.DAOD_HIGG4D3.e4666_s2726_r7725_r7676_p2666
mc15_13TeV.363120.Sherpa_NNPDF30NNLO_Ztautau_Pt2000_E_CMS_CVetoBVeto.merge.DAOD_HIGG4D3.e4690_s2726_r7725_r7676_p2666
mc15_13TeV.363121.Sherpa_NNPDF30NNLO_Ztautau_Pt2000_E_CMS_CFilterBVeto.merge.DAOD_HIGG4D3.e4690_s2726_r7725_r7676_p2666
mc15_13TeV.363122.Sherpa_NNPDF30NNLO_Ztautau_Pt2000_E_CMS_BFilter.merge.DAOD_HIGG4D3.e4792_s2726_r7725_r7676_p2666
mc15_13TeV.363331.Sherpa_NNPDF30NNLO_Wtaunu_Pt0_70_CVetoBVeto.merge.DAOD_HIGG4D3.e4709_s2726_r7725_r7676_p2666
mc15_13TeV.363332.Sherpa_NNPDF30NNLO_Wtaunu_Pt0_70_CFilterBVeto.merge.DAOD_HIGG4D3.e4709_s2726_r7725_r7676_p2666
mc15_13TeV.363333.Sherpa_NNPDF30NNLO_Wtaunu_Pt0_70_BFilter.merge.DAOD_HIGG4D3.e4709_s2726_r7725_r7676_p2666
mc15_13TeV.363334.Sherpa_NNPDF30NNLO_Wtaunu_Pt70_140_CVetoBVeto.merge.DAOD_HIGG4D3.e4709_s2726_r7725_r7676_p2666
mc15_13TeV.363335.Sherpa_NNPDF30NNLO_Wtaunu_Pt70_140_CFilterBVeto.merge.DAOD_HIGG4D3.e4709_s2726_r7725_r7676_p2666
mc15_13TeV.363336.Sherpa_NNPDF30NNLO_Wtaunu_Pt70_140_BFilter.merge.DAOD_HIGG4D3.e4779_s2726_r7725_r7676_p2666
mc15_13TeV.363337.Sherpa_NNPDF30NNLO_Wtaunu_Pt140_280_CVetoBVeto.merge.DAOD_HIGG4D3.e4709_s2726_r7725_r7676_p2666
mc15_13TeV.363338.Sherpa_NNPDF30NNLO_Wtaunu_Pt140_280_CFilterBVeto.merge.DAOD_HIGG4D3.e4709_s2726_r7725_r7676_p2666
mc15_13TeV.363339.Sherpa_NNPDF30NNLO_Wtaunu_Pt140_280_BFilter.merge.DAOD_HIGG4D3.e4709_s2726_r7725_r7676_p2666
mc15_13TeV.363340.Sherpa_NNPDF30NNLO_Wtaunu_Pt280_500_CVetoBVeto.merge.DAOD_HIGG4D3.e4709_s2726_r7725_r7676_p2666
mc15_13TeV.363341.Sherpa_NNPDF30NNLO_Wtaunu_Pt280_500_CFilterBVeto.merge.DAOD_HIGG4D3.e4779_s2726_r7725_r7676_p2666
mc15_13TeV.363342.Sherpa_NNPDF30NNLO_Wtaunu_Pt280_500_BFilter.merge.DAOD_HIGG4D3.e4779_s2726_r7725_r7676_p2666
mc15_13TeV.363343.Sherpa_NNPDF30NNLO_Wtaunu_Pt500_700_CVetoBVeto.merge.DAOD_HIGG4D3.e4709_s2726_r7725_r7676_p2666
mc15_13TeV.363344.Sherpa_NNPDF30NNLO_Wtaunu_Pt500_700_CFilterBVeto.merge.DAOD_HIGG4D3.e4709_s2726_r7725_r7676_p2666
mc15_13TeV.363345.Sherpa_NNPDF30NNLO_Wtaunu_Pt500_700_BFilter.merge.DAOD_HIGG4D3.e4779_s2726_r7725_r7676_p2666
mc15_13TeV.363346.Sherpa_NNPDF30NNLO_Wtaunu_Pt700_1000_CVetoBVeto.merge.DAOD_HIGG4D3.e4709_s2726_r7725_r7676_p2666
mc15_13TeV.363347.Sherpa_NNPDF30NNLO_Wtaunu_Pt700_1000_CFilterBVeto.merge.DAOD_HIGG4D3.e4709_s2726_r7725_r7676_p2666
mc15_13TeV.363348.Sherpa_NNPDF30NNLO_Wtaunu_Pt700_1000_BFilter.merge.DAOD_HIGG4D3.e4779_s2726_r7725_r7676_p2666
mc15_13TeV.363349.Sherpa_NNPDF30NNLO_Wtaunu_Pt1000_2000_CVetoBVeto.merge.DAOD_HIGG4D3.e4709_s2726_r7725_r7676_p2666
mc15_13TeV.363350.Sherpa_NNPDF30NNLO_Wtaunu_Pt1000_2000_CFilterBVeto.merge.DAOD_HIGG4D3.e4709_s2726_r7725_r7676_p2666
mc15_13TeV.363351.Sherpa_NNPDF30NNLO_Wtaunu_Pt1000_2000_BFilter.merge.DAOD_HIGG4D3.e4779_s2726_r7725_r7676_p2666
mc15_13TeV.363352.Sherpa_NNPDF30NNLO_Wtaunu_Pt2000_E_CMS_CVetoBVeto.merge.DAOD_HIGG4D3.e4709_s2726_r7725_r7676_p2666
mc15_13TeV.363353.Sherpa_NNPDF30NNLO_Wtaunu_Pt2000_E_CMS_CFilterBVeto.merge.DAOD_HIGG4D3.e4709_s2726_r7725_r7676_p2666
mc15_13TeV.363354.Sherpa_NNPDF30NNLO_Wtaunu_Pt2000_E_CMS_BFilter.merge.DAOD_HIGG4D3.e4709_s2726_r7725_r7676_p2666
mc15_13TeV.363361.Sherpa_NNPDF30NNLO_Ztautau_Pt0_70_CVetoBVeto.merge.DAOD_HIGG4D3.e4689_s2726_r7725_r7676_p2666
mc15_13TeV.363362.Sherpa_NNPDF30NNLO_Ztautau_Pt0_70_CFilterBVeto.merge.DAOD_HIGG4D3.e4689_s2726_r7725_r7676_p2666
mc15_13TeV.363363.Sherpa_NNPDF30NNLO_Ztautau_Pt0_70_BFilter.merge.DAOD_HIGG4D3.e4743_s2726_r7725_r7676_p2666
mc15_13TeV.410000.PowhegPythiaEvtGen_P2012_ttbar_hdamp172p5_nonallhad.merge.DAOD_HIGG4D3.e3698_s2608_s2183_r7725_r7676_p2666
mc15_13TeV.410001.PowhegPythiaEvtGen_P2012radHi_ttbar_hdamp345_down_nonallhad.merge.DAOD_HIGG4D3.e3783_s2608_r7725_r7676_p2666
mc15_13TeV.410002.PowhegPythiaEvtGen_P2012radLo_ttbar_hdamp172_up_nonallhad.merge.DAOD_HIGG4D3.e3783_s2608_r7725_r7676_p2666
mc15_13TeV.410007.PowhegPythiaEvtGen_P2012_ttbar_hdamp172p5_allhad.merge.DAOD_HIGG4D3.e4135_s2608_s2183_r7725_r7676_p2666
mc15_13TeV.410009.PowhegPythiaEvtGen_P2012_ttbar_hdamp172p5_dil.merge.DAOD_HIGG4D3.e4511_s2608_s2183_r7725_r7676_p2666
mc15_13TeV.410011.PowhegPythiaEvtGen_P2012_singletop_tchan_lept_top.merge.DAOD_HIGG4D3.e3824_s2608_s2183_r7725_r7676_p2666
mc15_13TeV.410012.PowhegPythiaEvtGen_P2012_singletop_tchan_lept_antitop.merge.DAOD_HIGG4D3.e3824_s2608_s2183_r7725_r7676_p2666
mc15_13TeV.410013.PowhegPythiaEvtGen_P2012_Wt_inclusive_top.merge.DAOD_HIGG4D3.e3753_s2608_s2183_r7725_r7676_p2666
mc15_13TeV.410014.PowhegPythiaEvtGen_P2012_Wt_inclusive_antitop.merge.DAOD_HIGG4D3.e3753_s2608_s2183_r7725_r7676_p2666
mc15_13TeV.410015.PowhegPythiaEvtGen_P2012_Wt_dilepton_top.merge.DAOD_HIGG4D3.e3753_s2608_s2183_r7725_r7676_p2666
mc15_13TeV.410016.PowhegPythiaEvtGen_P2012_Wt_dilepton_antitop.merge.DAOD_HIGG4D3.e3753_s2608_s2183_r7725_r7676_p2666
mc15_13TeV.410025.PowhegPythiaEvtGen_P2012_SingleTopSchan_noAllHad_top.merge.DAOD_HIGG4D3.e3998_s2608_s2183_r7725_r7676_p2666
mc15_13TeV.410026.PowhegPythiaEvtGen_P2012_SingleTopSchan_noAllHad_antitop.merge.DAOD_HIGG4D3.e3998_s2608_s2183_r7725_r7676_p2666
mc15_13TeV.361500.MadGraphPythia8EvtGen_A14NNPDF23LO_Zee_Np0.merge.DAOD_HIGG4D3.e3898_s2608_s2183_r7725_r7676_p2666
mc15_13TeV.361501.MadGraphPythia8EvtGen_A14NNPDF23LO_Zee_Np1.merge.DAOD_HIGG4D3.e3898_s2608_s2183_r7725_r7676_p2666
mc15_13TeV.361502.MadGraphPythia8EvtGen_A14NNPDF23LO_Zee_Np2.merge.DAOD_HIGG4D3.e3898_s2608_s2183_r7725_r7676_p2666
mc15_13TeV.361503.MadGraphPythia8EvtGen_A14NNPDF23LO_Zee_Np3.merge.DAOD_HIGG4D3.e3898_s2608_s2183_r7725_r7676_p2666
mc15_13TeV.361504.MadGraphPythia8EvtGen_A14NNPDF23LO_Zee_Np4.merge.DAOD_HIGG4D3.e3898_s2608_s2183_r7725_r7676_p2666
mc15_13TeV.361520.MadGraphPythia8EvtGen_A14NNPDF23LO_Wenu_Np0.merge.DAOD_HIGG4D3.e3898_s2608_s2183_r7725_r7676_p2666
mc15_13TeV.361521.MadGraphPythia8EvtGen_A14NNPDF23LO_Wenu_Np1.merge.DAOD_HIGG4D3.e3898_s2608_s2183_r7725_r7676_p2666
mc15_13TeV.361522.MadGraphPythia8EvtGen_A14NNPDF23LO_Wenu_Np2.merge.DAOD_HIGG4D3.e3898_s2608_s2183_r7772_r7676_p2666
mc15_13TeV.361523.MadGraphPythia8EvtGen_A14NNPDF23LO_Wenu_Np3.merge.DAOD_HIGG4D3.e3898_s2608_s2183_r7725_r7676_p2666
mc15_13TeV.361524.MadGraphPythia8EvtGen_A14NNPDF23LO_Wenu_Np4.merge.DAOD_HIGG4D3.e3898_s2608_s2183_r7772_r7676_p2666
mc15_13TeV.361525.MadGraphPythia8EvtGen_A14NNPDF23LO_Wmunu_Np0.merge.DAOD_HIGG4D3.e3898_s2608_s2183_r7725_r7676_p2666
mc15_13TeV.361526.MadGraphPythia8EvtGen_A14NNPDF23LO_Wmunu_Np1.merge.DAOD_HIGG4D3.e3898_s2608_s2183_r7725_r7676_p2666
mc15_13TeV.361527.MadGraphPythia8EvtGen_A14NNPDF23LO_Wmunu_Np2.merge.DAOD_HIGG4D3.e3898_s2608_s2183_r7772_r7676_p2666
mc15_13TeV.361528.MadGraphPythia8EvtGen_A14NNPDF23LO_Wmunu_Np3.merge.DAOD_HIGG4D3.e3898_s2608_s2183_r7725_r7676_p2666
mc15_13TeV.361529.MadGraphPythia8EvtGen_A14NNPDF23LO_Wmunu_Np4.merge.DAOD_HIGG4D3.e3898_s2608_s2183_r7725_r7676_p2666
