# VBF SM
mc16_13TeV.345915.MGH7EvtGen_A14NNPDF23LO_hh_bbtt_vbf_hh_l1cvv1cv1.recon.AOD.e6911_s3126_r10201
mc16_13TeV.345915.MGH7EvtGen_A14NNPDF23LO_hh_bbtt_vbf_hh_l1cvv1cv1.recon.AOD.e6911_s3126_r9364
mc16_13TeV.345915.MGH7EvtGen_A14NNPDF23LO_hh_bbtt_vbf_hh_l1cvv1cv1.recon.AOD.e6911_s3126_r10724

# VBF SM (dipole recoil on)
mc16_13TeV.450113.MGPy8EvtGen_A14NNPDF23LO_hh_bbtt_vbf_hh_l1cvv1cv1_dip.recon.AOD.e7248_s3126_r10201
mc16_13TeV.450113.MGPy8EvtGen_A14NNPDF23LO_hh_bbtt_vbf_hh_l1cvv1cv1_dip.recon.AOD.e7248_s3126_r10724
mc16_13TeV.450113.MGPy8EvtGen_A14NNPDF23LO_hh_bbtt_vbf_hh_l1cvv1cv1_dip.recon.AOD.e7248_s3126_r9364

# VBF (varied couplings)
mc16_13TeV.450057.MGH7EvtGen_MMHT2014_hh_bbtt_vbf_hh_l1cvv1p5cv1.recon.AOD.e7254_s3126_r9364
mc16_13TeV.450057.MGH7EvtGen_MMHT2014_hh_bbtt_vbf_hh_l1cvv1p5cv1.recon.AOD.e7254_s3126_r10724
mc16_13TeV.450057.MGH7EvtGen_MMHT2014_hh_bbtt_vbf_hh_l1cvv1p5cv1.recon.AOD.e7254_s3126_r10201

mc16_13TeV.450058.MGH7EvtGen_MMHT2014_hh_bbtt_vbf_hh_l1cvv4cv1.recon.AOD.e7254_s3126_r10724
mc16_13TeV.450058.MGH7EvtGen_MMHT2014_hh_bbtt_vbf_hh_l1cvv4cv1.recon.AOD.e7254_s3126_r9364
mc16_13TeV.450058.MGH7EvtGen_MMHT2014_hh_bbtt_vbf_hh_l1cvv4cv1.recon.AOD.e7254_s3126_r10201

mc16_13TeV.450059.MGH7EvtGen_MMHT2014_hh_bbtt_vbf_hh_l1cvv2cv1.recon.AOD.e7254_s3126_r9364
mc16_13TeV.450059.MGH7EvtGen_MMHT2014_hh_bbtt_vbf_hh_l1cvv2cv1.recon.AOD.e7254_s3126_r10724
mc16_13TeV.450059.MGH7EvtGen_MMHT2014_hh_bbtt_vbf_hh_l1cvv2cv1.recon.AOD.e7254_s3126_r10201

mc16_13TeV.450060.MGH7EvtGen_MMHT2014_hh_bbtt_vbf_hh_l1cvv1cv1p5.recon.AOD.e7254_s3126_r10201
mc16_13TeV.450060.MGH7EvtGen_MMHT2014_hh_bbtt_vbf_hh_l1cvv1cv1p5.recon.AOD.e7254_s3126_r9364
mc16_13TeV.450060.MGH7EvtGen_MMHT2014_hh_bbtt_vbf_hh_l1cvv1cv1p5.recon.AOD.e7254_s3126_r10724

mc16_13TeV.450061.MGH7EvtGen_MMHT2014_hh_bbtt_vbf_hh_l1cvv1cv0p5.recon.AOD.e7254_s3126_r9364
mc16_13TeV.450061.MGH7EvtGen_MMHT2014_hh_bbtt_vbf_hh_l1cvv1cv0p5.recon.AOD.e7254_s3126_r10201
mc16_13TeV.450061.MGH7EvtGen_MMHT2014_hh_bbtt_vbf_hh_l1cvv1cv0p5.recon.AOD.e7254_s3126_r10724

mc16_13TeV.450062.MGH7EvtGen_MMHT2014_hh_bbtt_vbf_hh_l1cvv0p5cv1.recon.AOD.e7254_s3126_r10724
mc16_13TeV.450062.MGH7EvtGen_MMHT2014_hh_bbtt_vbf_hh_l1cvv0p5cv1.recon.AOD.e7254_s3126_r10201
mc16_13TeV.450062.MGH7EvtGen_MMHT2014_hh_bbtt_vbf_hh_l1cvv0p5cv1.recon.AOD.e7254_s3126_r9364

mc16_13TeV.450063.MGH7EvtGen_MMHT2014_hh_bbtt_vbf_hh_l1cvv0cv1.recon.AOD.e7254_s3126_r10724
mc16_13TeV.450063.MGH7EvtGen_MMHT2014_hh_bbtt_vbf_hh_l1cvv0cv1.recon.AOD.e7254_s3126_r10201
mc16_13TeV.450063.MGH7EvtGen_MMHT2014_hh_bbtt_vbf_hh_l1cvv0cv1.recon.AOD.e7254_s3126_r9364

mc16_13TeV.450064.MGH7EvtGen_MMHT2014_hh_bbtt_vbf_hh_l10cvv1cv1.recon.AOD.e7254_s3126_r10201
mc16_13TeV.450064.MGH7EvtGen_MMHT2014_hh_bbtt_vbf_hh_l10cvv1cv1.recon.AOD.e7254_s3126_r10724
mc16_13TeV.450064.MGH7EvtGen_MMHT2014_hh_bbtt_vbf_hh_l10cvv1cv1.recon.AOD.e7254_s3126_r9364

mc16_13TeV.450065.MGH7EvtGen_MMHT2014_hh_bbtt_vbf_hh_l0cvv1cv1.recon.AOD.e7254_s3126_r10724
mc16_13TeV.450065.MGH7EvtGen_MMHT2014_hh_bbtt_vbf_hh_l0cvv1cv1.recon.AOD.e7254_s3126_r10201
mc16_13TeV.450065.MGH7EvtGen_MMHT2014_hh_bbtt_vbf_hh_l0cvv1cv1.recon.AOD.e7254_s3126_r9364

mc16_13TeV.450066.MGH7EvtGen_MMHT2014_hh_bbtt_vbf_hh_l2cvv1cv1.recon.AOD.e7254_s3126_r10724
mc16_13TeV.450066.MGH7EvtGen_MMHT2014_hh_bbtt_vbf_hh_l2cvv1cv1.recon.AOD.e7254_s3126_r9364
mc16_13TeV.450066.MGH7EvtGen_MMHT2014_hh_bbtt_vbf_hh_l2cvv1cv1.recon.AOD.e7254_s3126_r10201

mc16_13TeV.450067.MGH7EvtGen_MMHT2014_hh_bbtt_vbf_hh_l1cvv0cv0p5.recon.AOD.e7254_s3126_r10724
mc16_13TeV.450067.MGH7EvtGen_MMHT2014_hh_bbtt_vbf_hh_l1cvv0cv0p5.recon.AOD.e7254_s3126_r10201
mc16_13TeV.450067.MGH7EvtGen_MMHT2014_hh_bbtt_vbf_hh_l1cvv0cv0p5.recon.AOD.e7254_s3126_r9364

mc16_13TeV.450068.MGH7EvtGen_MMHT2014_hh_bbtt_vbf_hh_l0cvv0cv1.recon.AOD.e7254_s3126_r10724
mc16_13TeV.450068.MGH7EvtGen_MMHT2014_hh_bbtt_vbf_hh_l0cvv0cv1.recon.AOD.e7254_s3126_r9364
mc16_13TeV.450068.MGH7EvtGen_MMHT2014_hh_bbtt_vbf_hh_l0cvv0cv1.recon.AOD.e7254_s3126_r10201
