00276262		12453880.0		207.0		12453880.0		physics_Main
00276329		12972955.0		399.0		12972955.0		physics_Main
00276336		635155.0		33.0		635155.0		physics_Main
00276416		3894134.0		144.0		3894134.0		physics_Main
00276511		5988485.0		303.0		5988485.0		physics_Main
00276689		5314467.0		378.0		5314467.0		physics_Main
00276778		430783.0		22.0		430783.0		physics_Main
00276790		941878.0		55.0		941878.0		physics_Main
00276952		3492176.0		260.0		3492176.0		physics_Main
00276954		417503.0		22.0		417503.0		physics_Main
00278880		12771895.0		882.0		12771895.0		physics_Main
00278912		10890509.0		784.0		10890509.0		physics_Main
00278968		4824560.0		375.0		4824560.0		physics_Main
00279169		28681854.0		2178.0		28681854.0		physics_Main
00279259		3398058.0		266.0		3398058.0		physics_Main
00279279		8636581.0		667.0		8636581.0		physics_Main
00279284		15698710.0		1278.0		15698710.0		physics_Main
00279345		23676576.0		2104.0		23676576.0		physics_Main
00279515		99594.0		16.0		99594.0		physics_Main
00279598		27836447.0		2809.0		27836447.0		physics_Main
00279685		31519825.0		2766.0		31519825.0		physics_Main
00279764		2629946.0		267.0		2629946.0		physics_Main
00279813		22465562.0		1925.0		22465562.0		physics_Main
00279867		11732819.0		1173.0		11732819.0		physics_Main
00279928		345640.0		53.0		345640.0		physics_Main
00279932		18498231.0		1801.0		18498231.0		physics_Main
00279984		30899495.0		2696.0		30899495.0		physics_Main
00280231		38863293.0		3532.0		38863293.0		physics_Main
00280273		548271.0		87.0		548271.0		physics_Main
00280319		37042230.0		3903.0		37042230.0		physics_Main
00280368		2814636.0		333.0		2814636.0		physics_Main
00280423		26065895.0		2900.0		26065895.0		physics_Main
00280464		21462402.0		2386.0		21462402.0		physics_Main
00280500		3409266.0		319.0		3409266.0		physics_Main
00280520		6422287.0		464.0		6422287.0		physics_Main
00280614		9032451.0		986.0		9032451.0		physics_Main
00280673		55904749.0		6082.0		55904749.0		physics_Main
00280753		14443493.0		1896.0		14443493.0		physics_Main
00280853		2733592.0		271.0		2733592.0		physics_Main
00280862		49250789.0		5353.0		49250789.0		physics_Main
00280950		47827601.0		5115.0		47827601.0		physics_Main
00280977		11717261.0		1498.0		11717261.0		physics_Main
00281070		4408995.0		530.0		4408995.0		physics_Main
00281074		15654592.0		1868.0		15654592.0		physics_Main
00281075		438686.0		44.0		438686.0		physics_Main
00281317		7857695.0		1012.0		7857695.0		physics_Main
00281385		40873501.0		3632.0		40873501.0		physics_Main
00281411		45207147.0		5418.0		45207147.0		physics_Main
00282625		5485314.0		450.0		5485314.0		physics_Main
00282631		9829580.0		1112.0		9829580.0		physics_Main
00282712		31385769.0		3895.0		31385769.0		physics_Main
00282784		4046640.0		116.0		4046640.0		physics_Main
00282992		35831753.0		4386.0		35831753.0		physics_Main
00283074		18933386.0		2404.0		18933386.0		physics_Main
00283155		9752472.0		1158.0		9752472.0		physics_Main
00283270		4430658.0		512.0		4430658.0		physics_Main
00283429		79569604.0		9815.0		79569604.0		physics_Main
00283608		9606521.0		995.0		9606521.0		physics_Main
00283780		46435904.0		5951.0		46435904.0		physics_Main
00284006		11928929.0		1605.0		11928929.0		physics_Main
00284154		7956448.0		378.0		7956448.0		physics_Main
00284213		63189115.0		8325.0		63189115.0		physics_Main
00284285		76835679.0		10244.0		76835679.0		physics_Main
00284420		18187501.0		2286.0		18187501.0		physics_Main
00284427		10995023.0		1416.0		10995023.0		physics_Main
00284484		31754768.0		4398.0		31754768.0		physics_Main
00297730		14666349.0		183.0		14666349.0		physics_Main
00298595		3133859.0		65.0		3133859.0		physics_Main
00298609		6288037.0		78.0		6288037.0		physics_Main
00298633		13229931.0		299.0		13229931.0		physics_Main
00298687		17971981.0		972.0		17971981.0		physics_Main
00298690		1258445.0		73.0		1258445.0		physics_Main
00298771		7061356.0		371.0		7061356.0		physics_Main
00298773		6837614.0		336.0		6837614.0		physics_Main
00298862		20220154.0		1154.0		20220154.0		physics_Main
00298967		27997456.0		2552.0		27997456.0		physics_Main
00299055		23880448.0		2125.0		23880448.0		physics_Main
00299144		14319022.0		1392.0		14319022.0		physics_Main
00299147		13938967.0		1156.0		13938967.0		physics_Main
00299184		35490989.0		4447.0		35490989.0		physics_Main
00299243		3304691.0		276.0		3304691.0		physics_Main
00299584		83821946.0		10332.0		83821946.0		physics_Main
00300279		4204065.0		243.0		4204065.0		physics_Main
00300345		1396892.0		208.0		1396892.0		physics_Main
00300415		23298781.0		3833.0		23298781.0		physics_Main
00300418		1026746.0		225.0		1026746.0		physics_Main
00300487		28433227.0		4782.0		28433227.0		physics_Main
00300540		36299109.0		7228.0		36299109.0		physics_Main
00300571		28876747.0		5739.0		28876747.0		physics_Main
00300600		10395148.0		2058.0		10395148.0		physics_Main
00300655		38976996.0		9482.0		38976996.0		physics_Main
00300687		58638253.0		12983.0		58638253.0		physics_Main
00300784		1241726.0		311.0		1241726.0		physics_Main
00300800		48096930.0		11106.0		48096930.0		physics_Main
00300863		58204420.0		13122.0		58204420.0		physics_Main
00300908		35726539.0		8480.0		35726539.0		physics_Main
00301912		2526693.0		246.0		2526693.0		physics_Main
00301915		1450964.0		135.0		1450964.0		physics_Main
00301918		8233214.0		772.0		8233214.0		physics_Main
00301932		82526129.0		14320.0		82526129.0		physics_Main
00301973		100108843.0		18618.0		100108843.0		physics_Main
00302053		78400574.0		15391.0		78400574.0		physics_Main
00302137		39832205.0		8005.0		39832205.0		physics_Main
00302265		20774509.0		4191.0		20774509.0		physics_Main
00302269		11340155.0		1597.0		11340155.0		physics_Main
00302300		83588612.0		15191.0		83588612.0		physics_Main
00302347		39072724.0		8000.0		39072724.0		physics_Main
00302380		21222052.0		4253.0		21222052.0		physics_Main
00302391		28142740.0		5208.0		28142740.0		physics_Main
00302393		106733895.0		19614.0		106733895.0		physics_Main
00302737		16786522.0		3598.0		16786522.0		physics_Main
00302831		5555894.0		645.0		5555894.0		physics_Main
00302872		131571245.0		26646.0		131571245.0		physics_Main
00302919		10884376.0		2654.0		10884376.0		physics_Main
00302925		20417664.0		4795.0		20417664.0		physics_Main
00302956		52494980.0		13933.0		52494980.0		physics_Main
00303007		2350962.0		661.0		2350962.0		physics_Main
00303079		15170741.0		4267.0		15170741.0		physics_Main
00303201		14596310.0		3911.0		14596310.0		physics_Main
00303208		87008115.0		22139.0		87008115.0		physics_Main
00303264		5633196.0		1245.0		5633196.0		physics_Main
00303266		43666543.0		11090.0		43666543.0		physics_Main
00303291		26505956.0		7300.0		26505956.0		physics_Main
00303304		80740573.0		10881.0		80740573.0		physics_Main
00303338		90782421.0		15573.0		90782421.0		physics_Main
00303421		75229788.0		19894.0		75229788.0		physics_Main
00303499		68687323.0		16915.0		68687323.0		physics_Main
00303560		48916019.0		13597.0		48916019.0		physics_Main
00303638		74335806.0		18935.0		74335806.0		physics_Main
00303832		13919593.0		3540.0		13919593.0		physics_Main
00303846		71077917.0		20175.0		71077917.0		physics_Main
00303892		65779677.0		18823.0		65779677.0		physics_Main
00303943		60342124.0		18616.0		60342124.0		physics_Main
00304006		20930523.0		6544.0		20930523.0		physics_Main
00304008		63249618.0		18895.0		63249618.0		physics_Main
00304128		71422463.0		22686.0		71422463.0		physics_Main
00304178		53579736.0		17234.0		53579736.0		physics_Main
00304198		20173266.0		6795.0		20173266.0		physics_Main
00304211		16052307.0		5238.0		16052307.0		physics_Main
00304243		43859826.0		14362.0		43859826.0		physics_Main
00304308		3755004.0		1155.0		3755004.0		physics_Main
00304337		51425359.0		17265.0		51425359.0		physics_Main
00304409		13470958.0		4280.0		13470958.0		physics_Main
00304431		18955902.0		6419.0		18955902.0		physics_Main
00304494		7892600.0		2402.0		7892600.0		physics_Main
00305380		39218593.0		12185.0		39218593.0		physics_Main
00305543		34208100.0		6884.0		34208100.0		physics_Main
00305571		3553268.0		706.0		3553268.0		physics_Main
00305618		36949727.0		11500.0		36949727.0		physics_Main
00305671		3260271.0		1007.0		3260271.0		physics_Main
00305674		2311425.0		700.0		2311425.0		physics_Main
00305723		33307013.0		10757.0		33307013.0		physics_Main
00305727		8430939.0		2392.0		8430939.0		physics_Main
00305735		14849764.0		4669.0		14849764.0		physics_Main
00305777		39042835.0		12212.0		39042835.0		physics_Main
00305811		31880840.0		10502.0		31880840.0		physics_Main
00305920		30350299.0		9846.0		30350299.0		physics_Main
00306269		18416059.0		6042.0		18416059.0		physics_Main
00306278		46710498.0		15044.0		46710498.0		physics_Main
00306310		48415395.0		14575.0		48415395.0		physics_Main
00306384		28307434.0		7800.0		28307434.0		physics_Main
00306419		10910235.0		3607.0		10910235.0		physics_Main
00306442		3953031.0		1256.0		3953031.0		physics_Main
00306448		12095541.0		4409.0		12095541.0		physics_Main
00306451		38956733.0		13145.0		38956733.0		physics_Main
00307126		6678358.0		1000.0		6678358.0		physics_Main
00307195		24745704.0		8576.0		24745704.0		physics_Main
00307259		47891034.0		11862.0		47891034.0		physics_Main
00307306		21648529.0		7415.0		21648529.0		physics_Main
00307354		9815758.0		3287.0		9815758.0		physics_Main
00307358		46725678.0		14717.0		46725678.0		physics_Main
00307394		44002449.0		13730.0		44002449.0		physics_Main
00307454		60677930.0		18892.0		60677930.0		physics_Main
00307514		23130069.0		7874.0		23130069.0		physics_Main
00307539		9105245.0		2883.0		9105245.0		physics_Main
00307569		40510230.0		13138.0		40510230.0		physics_Main
00307601		36485000.0		12052.0		36485000.0		physics_Main
00307619		8266961.0		2722.0		8266961.0		physics_Main
00307656		58377338.0		16881.0		58377338.0		physics_Main
00307710		10467936.0		3092.0		10467936.0		physics_Main
00307716		27266528.0		8884.0		27266528.0		physics_Main
00307732		69443419.0		21010.0		69443419.0		physics_Main
00307861		36073657.0		11874.0		36073657.0		physics_Main
00307935		52828779.0		15982.0		52828779.0		physics_Main
00308047		62119233.0		18011.0		62119233.0		physics_Main
00308084		44248093.0		13811.0		44248093.0		physics_Main
00309375		12655194.0		1426.0		12655194.0		physics_Main
00309390		50733479.0		8486.0		50733479.0		physics_Main
00309440		58970492.0		17872.0		58970492.0		physics_Main
00309516		48003561.0		15091.0		48003561.0		physics_Main
00309640		49249481.0		15283.0		49249481.0		physics_Main
00309674		44280492.0		13951.0		44280492.0		physics_Main
00309759		46515816.0		14291.0		46515816.0		physics_Main
00310015		2038023.0		92.0		2038023.0		physics_Main
00310247		4365774.0		1127.0		4365774.0		physics_Main
00310249		58443043.0		16104.0		58443043.0		physics_Main
00310341		56570797.0		15969.0		56570797.0		physics_Main
00310370		4488643.0		678.0		4488643.0		physics_Main
00310405		23313314.0		7104.0		23313314.0		physics_Main
00310468		19758243.0		5835.0		19758243.0		physics_Main
00310473		28671695.0		8801.0		28671695.0		physics_Main
00310634		72039752.0		20244.0		72039752.0		physics_Main
00310691		42630088.0		12624.0		42630088.0		physics_Main
00310738		57060346.0		15139.0		57060346.0		physics_Main
00310809		60744067.0		14563.0		60744067.0		physics_Main
00310863		15594412.0		4700.0		15594412.0		physics_Main
00310872		23911752.0		7234.0		23911752.0		physics_Main
00310969		25016508.0		6636.0		25016508.0		physics_Main
00311071		28475101.0		8906.0		28475101.0		physics_Main
00311170		48889697.0		14674.0		48889697.0		physics_Main
00311244		31614680.0		9879.0		31614680.0		physics_Main
00311287		47627258.0		14157.0		47627258.0		physics_Main
00311321		47805002.0		14268.0		47805002.0		physics_Main
00311365		38041073.0		11129.0		38041073.0		physics_Main
00311402		42759462.0		13347.0		42759462.0		physics_Main
00311473		12437510.0		3890.0		12437510.0		physics_Main
00311481		44043715.0		13743.0		44043715.0		physics_Main
345055		2689000.0		32131.0		204700.958015		PwPy8EG_NNPDF3_AZNLO_ZH125J_MINLO_llbb_VpT
345057		750000.0		9015.0		4340.11696838		PwPy8EG_NNPDF3_AZNLO_ggZH125_llbb
345873		4985000.0		11116.0		1935372.5419		PwPy8EG_A14NNPDF23_NNPDF30ME_ttH125_allhad
345874		4995000.0		9712.0		3519978.72082		PhPy8EG_A14NNPDF23_NNPDF30ME_ttH125_hdamp352p5_semilep
345875		4985000.0		10940.0		474057.626112		PhPy8EG_A14NNPDF23_NNPDF30ME_ttH125_hdamp352p5_dilep
345910		200000.0		33978.0		200000.0		MGPy8EG_A14NNPDF23LO_hh_bbtt_vbf_hh_l0cvv0cv1
345912		100000.0		10110.0		100000.0		MGPy8EG_A14NNPDF23LO_hh_bbtt_vbf_hh_l2cvv1cv1
345952		100000.0		17975.0		100000.0		MGPy8EG_A14NNPDF23LO_hh_bbtt_vbf_hh_l1cvv0cv1
345953		100000.0		16252.0		100000.0		MGPy8EG_A14NNPDF23LO_hh_bbtt_vbf_hh_l1cvv0p5cv1
345954		100000.0		10504.0		100000.0		MGPy8EG_A14NNPDF23LO_hh_bbtt_vbf_hh_l1cvv1cv1
345955		100000.0		18968.0		100000.0		MGPy8EG_A14NNPDF23LO_hh_bbtt_vbf_hh_l1cvv1p5cv1
345956		100000.0		20233.0		100000.0		MGPy8EG_A14NNPDF23LO_hh_bbtt_vbf_hh_l1cvv2cv1
345957		100000.0		11158.0		100000.0		MGPy8EG_A14NNPDF23LO_hh_bbtt_vbf_hh_l0cvv1cv1
345958		100000.0		18828.0		100000.0		MGPy8EG_A14NNPDF23LO_hh_bbtt_vbf_hh_l1cvv0cv0
345959		100000.0		11147.0		100000.0		MGPy8EG_A14NNPDF23LO_hh_bbtt_vbf_hh_l1cvv0cv0
345960		100000.0		19303.0		100000.0		MGPy8EG_A14NNPDF23LO_hh_bbtt_vbf_hh_l1cvv1cv0p5
363355		5400000.0		52.0		3496611.89369		Sh_221_NNPDF30NNLO_ZqqZvv
363356		5400000.0		13796.0		3493297.56961		Sh_221_NNPDF30NNLO_ZqqZll
363357		6000000.0		80.0		559370.390577		Sh_221_NNPDF30NNLO_WqqZvv
363358		5400000.0		15032.0		254404.249829		Sh_221_NNPDF30NNLO_WqqZll
363359		7194000.0		1374.0		1076338.13689		Sh_221_NNPDF30NNLO_WpqqWmlv
363489		7180000.0		1421.0		1124496.06696		Sh_221_NNPDF30NNLO_WlvZqq
364100		7970000.0		2.0		5372476.06854		Sh_221_NNPDF30NNLO_Zmumu_MAXHTPTV0_70_CVetoBVeto
364101		4982000.0		1.0		2871991.42614		Sh_221_NNPDF30NNLO_Zmumu_MAXHTPTV0_70_CFilterBVeto
364102		7983000.0		1.0		4120985.33734		Sh_221_NNPDF30NNLO_Zmumu_MAXHTPTV0_70_BFilter
364103		5983000.0		7.0		2166490.44184		Sh_221_NNPDF30NNLO_Zmumu_MAXHTPTV70_140_CVetoBVeto
364104		1996800.0		2.0		732465.502558		Sh_221_NNPDF30NNLO_Zmumu_MAXHTPTV70_140_CFilterBVeto
364105		5981600.0		6.0		2082263.96859		Sh_221_NNPDF30NNLO_Zmumu_MAXHTPTV70_140_BFilter
364106		5000000.0		26.0		2974012.06716		Sh_221_NNPDF30NNLO_Zmumu_MAXHTPTV140_280_CVetoBVeto
364107		3000000.0		15.0		1991088.33074		Sh_221_NNPDF30NNLO_Zmumu_MAXHTPTV140_280_CFilterBVeto
364108		12458900.0		68.0		8646674.04088		Sh_221_NNPDF30NNLO_Zmumu_MAXHTPTV140_280_BFilter
364109		2000000.0		30.0		1728411.3116		Sh_221_NNPDF30NNLO_Zmumu_MAXHTPTV280_500_CVetoBVeto
364110		999600.0		11.0		918652.62389		Sh_221_NNPDF30NNLO_Zmumu_MAXHTPTV280_500_CFilterBVeto
364111		1999400.0		13.0		1880442.9321		Sh_221_NNPDF30NNLO_Zmumu_MAXHTPTV280_500_BFilter
364112		2996500.0		39.0		2980513.21444		Sh_221_NNPDF30NNLO_Zmumu_MAXHTPTV500_1000
364113		997000.0		7.0		1017049.29351		Sh_221_NNPDF30NNLO_Zmumu_MAXHTPTV1000_E_CMS
364114		8000000.0		10.0		5374833.01675		Sh_221_NNPDF30NNLO_Zee_MAXHTPTV0_70_CVetoBVeto
364115		4999000.0		8.0		2872880.27642		Sh_221_NNPDF30NNLO_Zee_MAXHTPTV0_70_CFilterBVeto
364116		7995600.0		15.0		4110178.06018		Sh_221_NNPDF30NNLO_Zee_MAXHTPTV0_70_BFilter
364117		5956000.0		79.0		2175375.41702		Sh_221_NNPDF30NNLO_Zee_MAXHTPTV70_140_CVetoBVeto
364118		1999200.0		30.0		724681.699915		Sh_221_NNPDF30NNLO_Zee_MAXHTPTV70_140_CFilterBVeto
364119		5970000.0		51.0		2083822.28554		Sh_221_NNPDF30NNLO_Zee_MAXHTPTV70_140_BFilter
364120		5000000.0		128.0		2996565.61912		Sh_221_NNPDF30NNLO_Zee_MAXHTPTV140_280_CVetoBVeto
364121		3000000.0		82.0		2001395.90133		Sh_221_NNPDF30NNLO_Zee_MAXHTPTV140_280_CFilterBVeto
364122		12439600.0		308.0		8626709.41826		Sh_221_NNPDF30NNLO_Zee_MAXHTPTV140_280_BFilter
364123		1999800.0		79.0		1723396.10573		Sh_221_NNPDF30NNLO_Zee_MAXHTPTV280_500_CVetoBVeto
364124		999900.0		54.0		918309.624933		Sh_221_NNPDF30NNLO_Zee_MAXHTPTV280_500_CFilterBVeto
364125		1999850.0		72.0		1875662.69019		Sh_221_NNPDF30NNLO_Zee_MAXHTPTV280_500_BFilter
364126		2999000.0		167.0		2968474.17929		Sh_221_NNPDF30NNLO_Zee_MAXHTPTV500_1000
364127		1000000.0		47.0		1016520.83329		Sh_221_NNPDF30NNLO_Zee_MAXHTPTV1000_E_CMS
364128		7986000.0		1252.0		5376034.85937		Sh_221_NNPDF30NNLO_Ztautau_MAXHTPTV0_70_CVetoBVeto
364129		4979000.0		1356.0		2869441.98659		Sh_221_NNPDF30NNLO_Ztautau_MAXHTPTV0_70_CFilterBVeto
364130		7995800.0		2013.0		4114442.11523		Sh_221_NNPDF30NNLO_Ztautau_MAXHTPTV0_70_BFilter
364131		5997500.0		18801.0		2190964.01323		Sh_221_NNPDF30NNLO_Ztautau_MAXHTPTV70_140_CVetoBVeto
364132		1999200.0		7034.0		731614.169086		Sh_221_NNPDF30NNLO_Ztautau_MAXHTPTV70_140_CFilterBVeto
364133		5969550.0		19388.0		2090757.19021		Sh_221_NNPDF30NNLO_Ztautau_MAXHTPTV70_140_BFilter
364134		4940000.0		55647.0		2959723.05679		Sh_221_NNPDF30NNLO_Ztautau_MAXHTPTV140_280_CVetoBVeto
364135		3000000.0		34591.0		2001155.3521		Sh_221_NNPDF30NNLO_Ztautau_MAXHTPTV140_280_CFilterBVeto
364136		4992950.0		55090.0		3472626.20143		Sh_221_NNPDF30NNLO_Ztautau_MAXHTPTV140_280_BFilter
364137		2000000.0		43089.0		1678900.33208		Sh_221_NNPDF30NNLO_Ztautau_MAXHTPTV280_500_CVetoBVeto
364138		1000000.0		20446.0		918259.650128		Sh_221_NNPDF30NNLO_Ztautau_MAXHTPTV280_500_CFilterBVeto
364139		1983950.0		38208.0		1860875.96469		Sh_221_NNPDF30NNLO_Ztautau_MAXHTPTV280_500_BFilter
364140		2999800.0		64115.0		2978478.47472		Sh_221_NNPDF30NNLO_Ztautau_MAXHTPTV500_1000
364141		1000000.0		20165.0		1018271.29465		Sh_221_NNPDF30NNLO_Ztautau_MAXHTPTV1000_E_CMS
364156		24966000.0		5.0		16783367.7152		Sh_221_NNPDF30NNLO_Wmunu_MAXHTPTV0_70_CVetoBVeto
364157		9993000.0		3.0		5726997.70075		Sh_221_NNPDF30NNLO_Wmunu_MAXHTPTV0_70_CFilterBVeto
364158		17485200.0		7.0		10559843.0788		Sh_221_NNPDF30NNLO_Wmunu_MAXHTPTV0_70_BFilter
364159		14964000.0		14.0		5482207.91321		Sh_221_NNPDF30NNLO_Wmunu_MAXHTPTV70_140_CVetoBVeto
364160		9975200.0		20.0		3739738.71653		Sh_221_NNPDF30NNLO_Wmunu_MAXHTPTV70_140_CFilterBVeto
364161		19915000.0		27.0		8101688.30063		Sh_221_NNPDF30NNLO_Wmunu_MAXHTPTV70_140_BFilter
364162		10000000.0		47.0		6228867.74873		Sh_221_NNPDF30NNLO_Wmunu_MAXHTPTV140_280_CVetoBVeto
364163		7500000.0		55.0		5326023.97131		Sh_221_NNPDF30NNLO_Wmunu_MAXHTPTV140_280_CFilterBVeto
364164		25000000.0		151.0		18531580.7631		Sh_221_NNPDF30NNLO_Wmunu_MAXHTPTV140_280_BFilter
364165		4999000.0		57.0		4376833.8348		Sh_221_NNPDF30NNLO_Wmunu_MAXHTPTV280_500_CVetoBVeto
364166		2989000.0		60.0		2813148.81615		Sh_221_NNPDF30NNLO_Wmunu_MAXHTPTV280_500_CFilterBVeto
364167		2939500.0		49.0		2816636.72689		Sh_221_NNPDF30NNLO_Wmunu_MAXHTPTV280_500_BFilter
364168		5997500.0		113.0		6029336.82547		Sh_221_NNPDF30NNLO_Wmunu_MAXHTPTV500_1000
364169		3998000.0		47.0		4108152.13579		Sh_221_NNPDF30NNLO_Wmunu_MAXHTPTV1000_E_CMS
364170		24427000.0		6.0		16405266.0714		Sh_221_NNPDF30NNLO_Wenu_MAXHTPTV0_70_CVetoBVeto
364171		9910500.0		4.0		5679456.92207		Sh_221_NNPDF30NNLO_Wenu_MAXHTPTV0_70_CFilterBVeto
364172		17482400.0		11.0		10553785.923		Sh_221_NNPDF30NNLO_Wenu_MAXHTPTV0_70_BFilter
364173		14815500.0		34.0		5415989.61195		Sh_221_NNPDF30NNLO_Wenu_MAXHTPTV70_140_CVetoBVeto
364174		9940400.0		35.0		3760767.33242		Sh_221_NNPDF30NNLO_Wenu_MAXHTPTV70_140_CFilterBVeto
364175		9895900.0		41.0		4017769.48874		Sh_221_NNPDF30NNLO_Wenu_MAXHTPTV70_140_BFilter
364176		10000000.0		115.0		6234702.26577		Sh_221_NNPDF30NNLO_Wenu_MAXHTPTV140_280_CVetoBVeto
364177		7498000.0		121.0		5326066.17642		Sh_221_NNPDF30NNLO_Wenu_MAXHTPTV140_280_CFilterBVeto
364178		24860800.0		343.0		18433491.2623		Sh_221_NNPDF30NNLO_Wenu_MAXHTPTV140_280_BFilter
364179		4998800.0		131.0		4378414.32311		Sh_221_NNPDF30NNLO_Wenu_MAXHTPTV280_500_CVetoBVeto
364180		2999400.0		125.0		2812495.50016		Sh_221_NNPDF30NNLO_Wenu_MAXHTPTV280_500_CFilterBVeto
364181		2998000.0		106.0		2873526.18781		Sh_221_NNPDF30NNLO_Wenu_MAXHTPTV280_500_BFilter
364182		5998600.0		210.0		6085450.80947		Sh_221_NNPDF30NNLO_Wenu_MAXHTPTV500_1000
364183		3999000.0		120.0		4129139.92138		Sh_221_NNPDF30NNLO_Wenu_MAXHTPTV1000_E_CMS
364184		24921000.0		39.0		16819156.769		Sh_221_NNPDF30NNLO_Wtaunu_MAXHTPTV0_70_CVetoBVeto
364185		9994600.0		45.0		5745345.39694		Sh_221_NNPDF30NNLO_Wtaunu_MAXHTPTV0_70_CFilterBVeto
364186		17483200.0		62.0		10626861.1261		Sh_221_NNPDF30NNLO_Wtaunu_MAXHTPTV0_70_BFilter
364187		14998500.0		968.0		5496494.38062		Sh_221_NNPDF30NNLO_Wtaunu_MAXHTPTV70_140_CVetoBVeto
364188		9999000.0		855.0		3772484.90809		Sh_221_NNPDF30NNLO_Wtaunu_MAXHTPTV70_140_CFilterBVeto
364189		9999000.0		756.0		4026450.52081		Sh_221_NNPDF30NNLO_Wtaunu_MAXHTPTV70_140_BFilter
364190		9970000.0		3423.0		6210472.1822		Sh_221_NNPDF30NNLO_Wtaunu_MAXHTPTV140_280_CVetoBVeto
364191		7500000.0		3579.0		5315025.00756		Sh_221_NNPDF30NNLO_Wtaunu_MAXHTPTV140_280_CFilterBVeto
364192		24999900.0		9693.0		18537130.7842		Sh_221_NNPDF30NNLO_Wtaunu_MAXHTPTV140_280_BFilter
364193		4999200.0		4018.0		4382337.21193		Sh_221_NNPDF30NNLO_Wtaunu_MAXHTPTV280_500_CVetoBVeto
364194		2998400.0		3180.0		2811523.16208		Sh_221_NNPDF30NNLO_Wtaunu_MAXHTPTV280_500_CFilterBVeto
364195		2998100.0		2467.0		2872290.12046		Sh_221_NNPDF30NNLO_Wtaunu_MAXHTPTV280_500_BFilter
364196		5960000.0		6259.0		5998107.73105		Sh_221_NNPDF30NNLO_Wtaunu_MAXHTPTV500_1000
364197		4000000.0		3783.0		4113124.75937		Sh_221_NNPDF30NNLO_Wtaunu_MAXHTPTV1000_E_CMS
364198		7490000.0		0.0		3346738.51543		Sh_221_NN30NNLO_Zmm_Mll10_40_MAXHTPTV0_70_BVeto
364199		1500000.0		0.0		633229.521453		Sh_221_NN30NNLO_Zmm_Mll10_40_MAXHTPTV0_70_BFilter
364200		2380000.0		4.0		1338628.88462		Sh_221_NN30NNLO_Zmm_Mll10_40_MAXHTPTV70_280_BVeto
364201		1100000.0		1.0		640180.092114		Sh_221_NN30NNLO_Zmm_Mll10_40_MAXHTPTV70_280_BFilter
364202		598400.0		4.0		575003.157485		Sh_221_NN30NNLO_Zmm_Mll10_40_MAXHTPTV280_E_CMS_BVeto
364203		249810.0		4.0		246687.902706		Sh_221_NN30NNLO_Zmm_Mll10_40_MAXHTPTV280_E_CMS_BFilter
364204		7500000.0		0.0		3350770.79452		Sh_221_NN30NNLO_Zee_Mll10_40_MAXHTPTV0_70_BVeto
364205		1500000.0		0.0		634977.000209		Sh_221_NN30NNLO_Zee_Mll10_40_MAXHTPTV0_70_BFilter
364206		2400000.0		10.0		1355659.53185		Sh_221_NN30NNLO_Zee_Mll10_40_MAXHTPTV70_280_BVeto
364207		1100000.0		2.0		641173.943864		Sh_221_NN30NNLO_Zee_Mll10_40_MAXHTPTV70_280_BFilter
364208		600000.0		10.0		575348.550475		Sh_221_NN30NNLO_Zee_Mll10_40_MAXHTPTV280_E_CMS_BVeto
364209		250000.0		6.0		246286.41342		Sh_221_NN30NNLO_Zee_Mll10_40_MAXHTPTV280_E_CMS_BFilter
410470		59998000.0		41451.0		43808539085.5		PhPy8EG_A14_ttbar_hdamp258p75_nonallhad
410471		19994000.0		4819.0		14599590131.2		PhPy8EG_A14_ttbar_hdamp258p75_allhad
410642		4994000.0		415.0		184898334.134		PhPy8EG_A14_tchan_lept_top
410643		4975500.0		499.0		110439966.851		PhPy8EG_A14_tchan_lept_antitop
410644		2000000.0		117.0		4056368.95581		PwPy8EG_A14_singletop_schan_lept_top
410645		2000000.0		134.0		2537965.30339		PwPy8EG_A14_singletop_schan_lept_antitop
410646		4996000.0		2270.0		189644620.315		PwPy8EG_A14_Wt_DR_inclusive_top
410647		4999000.0		2239.0		189607897.912		PwPy8EG_A14_Wt_DR_inclusive_antitop
410659		4761500.0		383.0		105687644.473		PhPy8EG_A14_tchan_BW50_lept_antitop
