00276262		12453880.0		2150.0		12453880.0		physics_Main
00276329		12972955.0		3954.0		12972955.0		physics_Main
00276336		635155.0		206.0		635155.0		physics_Main
00276416		3894134.0		1345.0		3894134.0		physics_Main
00276511		5988485.0		2847.0		5988485.0		physics_Main
00276689		5314467.0		3585.0		5314467.0		physics_Main
00276778		430783.0		208.0		430783.0		physics_Main
00276790		941878.0		518.0		941878.0		physics_Main
00276952		3492176.0		2025.0		3492176.0		physics_Main
00276954		417503.0		232.0		417503.0		physics_Main
00278880		12771895.0		6637.0		12771895.0		physics_Main
00278912		10890509.0		6094.0		10890509.0		physics_Main
00278968		4824560.0		3062.0		4824560.0		physics_Main
00279169		28681854.0		16860.0		28681854.0		physics_Main
00279259		3398058.0		2307.0		3398058.0		physics_Main
00279279		8636581.0		5218.0		8636581.0		physics_Main
00279284		15698710.0		9919.0		15698710.0		physics_Main
00279345		23676576.0		15954.0		23676576.0		physics_Main
00279515		99594.0		109.0		99594.0		physics_Main
00279598		27836447.0		20153.0		27836447.0		physics_Main
00279685		31519825.0		22296.0		31519825.0		physics_Main
00279764		2629946.0		2045.0		2629946.0		physics_Main
00279813		22465562.0		14455.0		22465562.0		physics_Main
00279867		11732819.0		8952.0		11732819.0		physics_Main
00279928		345640.0		357.0		345640.0		physics_Main
00279932		18498231.0		13189.0		18498231.0		physics_Main
00279984		30899495.0		19917.0		30899495.0		physics_Main
00280231		38863293.0		26719.0		38863293.0		physics_Main
00280273		548271.0		527.0		548271.0		physics_Main
00280319		37042230.0		29256.0		37042230.0		physics_Main
00280368		2814636.0		2571.0		2814636.0		physics_Main
00280423		26065895.0		21265.0		26065895.0		physics_Main
00280464		21462402.0		17853.0		21462402.0		physics_Main
00280500		3409266.0		2264.0		3409266.0		physics_Main
00280520		6422287.0		3797.0		6422287.0		physics_Main
00280614		9032451.0		7453.0		9032451.0		physics_Main
00280673		55904749.0		45529.0		55904749.0		physics_Main
00280753		14443493.0		13770.0		14443493.0		physics_Main
00280853		2733592.0		2278.0		2733592.0		physics_Main
00280862		49250789.0		38998.0		49250789.0		physics_Main
00280950		47827601.0		37811.0		47827601.0		physics_Main
00280977		11717261.0		10989.0		11717261.0		physics_Main
00281070		4408995.0		3992.0		4408995.0		physics_Main
00281074		15654592.0		14200.0		15654592.0		physics_Main
00281075		438686.0		412.0		438686.0		physics_Main
00281317		7857695.0		7479.0		7857695.0		physics_Main
00281385		35766381.0		26519.0		35766381.0		physics_Main
00281411		45207147.0		45530.0		45207147.0		physics_Main
00282625		5485314.0		3513.0		5485314.0		physics_Main
00282631		9829580.0		8284.0		9829580.0		physics_Main
00282712		31385769.0		29758.0		31385769.0		physics_Main
00282784		4046640.0		1028.0		4046640.0		physics_Main
00282992		35806242.0		32477.0		35806242.0		physics_Main
00283074		18933386.0		17149.0		18933386.0		physics_Main
00283155		9752472.0		9001.0		9752472.0		physics_Main
00283270		4430658.0		4090.0		4430658.0		physics_Main
00283429		79569604.0		70794.0		79569604.0		physics_Main
00283608		9606521.0		6865.0		9606521.0		physics_Main
00283780		46435904.0		42358.0		46435904.0		physics_Main
00284006		11928929.0		12016.0		11928929.0		physics_Main
00284154		8705373.0		3189.0		8705373.0		physics_Main
00284213		63189115.0		60678.0		63189115.0		physics_Main
00284285		76835679.0		76136.0		76835679.0		physics_Main
00284420		18187501.0		18190.0		18187501.0		physics_Main
00284427		10995023.0		11049.0		10995023.0		physics_Main
00284484		31754768.0		32102.0		31754768.0		physics_Main
00297730		14666349.0		1394.0		14666349.0		physics_Main
00298595		3133859.0		453.0		3133859.0		physics_Main
00298609		6288037.0		757.0		6288037.0		physics_Main
00298633		13229931.0		2166.0		13229931.0		physics_Main
00298687		17971981.0		8102.0		17971981.0		physics_Main
00298690		1258445.0		598.0		1258445.0		physics_Main
00298771		7061356.0		3307.0		7061356.0		physics_Main
00298773		6837614.0		3202.0		6837614.0		physics_Main
00298862		20220154.0		9494.0		20220154.0		physics_Main
00298967		27997456.0		21310.0		27997456.0		physics_Main
00299055		23880448.0		17224.0		23880448.0		physics_Main
00299144		14319022.0		11063.0		14319022.0		physics_Main
00299147		13938967.0		9117.0		13938967.0		physics_Main
00299184		35490989.0		35405.0		35490989.0		physics_Main
00299243		3304691.0		2171.0		3304691.0		physics_Main
00299584		83821946.0		78004.0		83821946.0		physics_Main
00300279		2590933.0		2228.0		2590933.0		physics_Main
00300345		1396892.0		2068.0		1396892.0		physics_Main
00300415		23298781.0		34059.0		23298781.0		physics_Main
00300418		1026746.0		1500.0		1026746.0		physics_Main
00300487		28433227.0		38125.0		28433227.0		physics_Main
00300540		35939700.0		51048.0		35939700.0		physics_Main
00300571		28876747.0		38970.0		28876747.0		physics_Main
00300600		10395148.0		12787.0		10395148.0		physics_Main
00300655		38976996.0		57162.0		38976996.0		physics_Main
00300687		58638253.0		83416.0		58638253.0		physics_Main
00300784		1241726.0		1810.0		1241726.0		physics_Main
00300800		48096930.0		66582.0		48096930.0		physics_Main
00300863		58204420.0		85031.0		58204420.0		physics_Main
00300908		35726539.0		51391.0		35726539.0		physics_Main
00301912		2526693.0		2670.0		2526693.0		physics_Main
00301915		1450964.0		1600.0		1450964.0		physics_Main
00301918		8233214.0		8120.0		8233214.0		physics_Main
00301932		82526129.0		96936.0		82526129.0		physics_Main
00301973		100108843.0		135255.0		100108843.0		physics_Main
00302053		78400574.0		96489.0		78400574.0		physics_Main
00302137		39832205.0		49554.0		39832205.0		physics_Main
00302265		20774509.0		25704.0		20774509.0		physics_Main
00302269		11340155.0		13777.0		11340155.0		physics_Main
00302300		83588612.0		113104.0		83588612.0		physics_Main
00302347		39072724.0		48799.0		39072724.0		physics_Main
00302380		21222052.0		26228.0		21222052.0		physics_Main
00302391		28142740.0		32486.0		28142740.0		physics_Main
00302393		106733895.0		144624.0		106733895.0		physics_Main
00302737		16786522.0		22031.0		16786522.0		physics_Main
00302831		5555894.0		5720.0		5555894.0		physics_Main
00302872		131571245.0		187154.0		131571245.0		physics_Main
00302919		10884376.0		16219.0		10884376.0		physics_Main
00302925		20417664.0		31883.0		20417664.0		physics_Main
00302956		52494980.0		82213.0		52494980.0		physics_Main
00303007		2350962.0		3539.0		2350962.0		physics_Main
00303079		15170741.0		23713.0		15170741.0		physics_Main
00303201		14596310.0		21949.0		14596310.0		physics_Main
00303208		87008115.0		140706.0		87008115.0		physics_Main
00303264		5633196.0		8198.0		5633196.0		physics_Main
00303266		45079005.0		67410.0		45079005.0		physics_Main
00303291		26505956.0		42978.0		26505956.0		physics_Main
00303304		80740573.0		131869.0		80740573.0		physics_Main
00303338		90782421.0		148383.0		90782421.0		physics_Main
00303421		75229788.0		123219.0		75229788.0		physics_Main
00303499		68687323.0		111270.0		68687323.0		physics_Main
00303560		48916019.0		79019.0		48916019.0		physics_Main
00303638		74335806.0		120553.0		74335806.0		physics_Main
00303832		13919593.0		20536.0		13919593.0		physics_Main
00303846		71077917.0		115767.0		71077917.0		physics_Main
00303892		65779677.0		109145.0		65779677.0		physics_Main
00303943		60342124.0		89107.0		60342124.0		physics_Main
00304006		20930523.0		31129.0		20930523.0		physics_Main
00304008		61410138.0		90018.0		61410138.0		physics_Main
00304128		71422463.0		105699.0		71422463.0		physics_Main
00304178		53579736.0		81930.0		53579736.0		physics_Main
00304198		23536919.0		31878.0		23536919.0		physics_Main
00304211		16052307.0		25068.0		16052307.0		physics_Main
00304243		43859826.0		66212.0		43859826.0		physics_Main
00304308		3755004.0		5753.0		3755004.0		physics_Main
00304337		51425359.0		80032.0		51425359.0		physics_Main
00304409		13470958.0		20102.0		13470958.0		physics_Main
00304431		18955902.0		29878.0		18955902.0		physics_Main
00304494		7892600.0		11796.0		7892600.0		physics_Main
00305380		39218593.0		65828.0		39218593.0		physics_Main
00305543		34208100.0		34675.0		34208100.0		physics_Main
00305571		3553268.0		3810.0		3553268.0		physics_Main
00305618		36949727.0		58984.0		36949727.0		physics_Main
00305671		3260271.0		5356.0		3260271.0		physics_Main
00305674		2311425.0		3895.0		2311425.0		physics_Main
00305723		33307013.0		54749.0		33307013.0		physics_Main
00305727		8430939.0		12036.0		8430939.0		physics_Main
00305735		14849764.0		24856.0		14849764.0		physics_Main
00305777		39042835.0		61977.0		39042835.0		physics_Main
00305811		31880840.0		52892.0		31880840.0		physics_Main
00305920		30350299.0		50666.0		30350299.0		physics_Main
00306269		18416059.0		31972.0		18416059.0		physics_Main
00306278		46710498.0		75835.0		46710498.0		physics_Main
00306310		48415395.0		73896.0		48415395.0		physics_Main
00306384		26323954.0		39528.0		26323954.0		physics_Main
00306419		10910235.0		18804.0		10910235.0		physics_Main
00306442		3953031.0		6450.0		3953031.0		physics_Main
00306448		12095541.0		21253.0		12095541.0		physics_Main
00306451		38956733.0		64436.0		38956733.0		physics_Main
00307126		6678358.0		6178.0		6678358.0		physics_Main
00307195		24745704.0		42921.0		24745704.0		physics_Main
00307259		47891034.0		60171.0		47891034.0		physics_Main
00307306		21648529.0		37674.0		21648529.0		physics_Main
00307354		9815758.0		16721.0		9815758.0		physics_Main
00307358		46725678.0		74653.0		46725678.0		physics_Main
00307394		44002449.0		69879.0		44002449.0		physics_Main
00307454		60677930.0		93765.0		60677930.0		physics_Main
00307514		23130069.0		40378.0		23130069.0		physics_Main
00307539		9105245.0		15480.0		9105245.0		physics_Main
00307569		40510230.0		64159.0		40510230.0		physics_Main
00307601		36485000.0		60582.0		36485000.0		physics_Main
00307619		8266961.0		13938.0		8266961.0		physics_Main
00307656		59224221.0		84862.0		59224221.0		physics_Main
00307710		10467936.0		17591.0		10467936.0		physics_Main
00307716		27266528.0		45345.0		27266528.0		physics_Main
00307732		69443419.0		103223.0		69443419.0		physics_Main
00307861		36073657.0		58272.0		36073657.0		physics_Main
00307935		52828779.0		80334.0		52828779.0		physics_Main
00308047		62119233.0		90960.0		62119233.0		physics_Main
00308084		44248093.0		67832.0		44248093.0		physics_Main
00309375		12655194.0		11539.0		12655194.0		physics_Main
00309390		50733479.0		58640.0		50733479.0		physics_Main
00309440		58970492.0		82422.0		58970492.0		physics_Main
00309516		48003561.0		69666.0		48003561.0		physics_Main
00309640		49249481.0		71399.0		49249481.0		physics_Main
00309674		44280492.0		65286.0		44280492.0		physics_Main
00309759		46515816.0		65119.0		46515816.0		physics_Main
00310015		2038023.0		461.0		2038023.0		physics_Main
00310247		4365774.0		6678.0		4365774.0		physics_Main
00310249		58443043.0		81669.0		58443043.0		physics_Main
00310341		56570797.0		82062.0		56570797.0		physics_Main
00310370		4488643.0		3468.0		4488643.0		physics_Main
00310405		23313314.0		36819.0		23313314.0		physics_Main
00310468		19758243.0		31492.0		19758243.0		physics_Main
00310473		28671695.0		45658.0		28671695.0		physics_Main
00310634		72039752.0		102713.0		72039752.0		physics_Main
00310691		42630088.0		65505.0		42630088.0		physics_Main
00310738		57060346.0		78110.0		57060346.0		physics_Main
00310809		60744067.0		73325.0		60744067.0		physics_Main
00310863		15594412.0		24752.0		15594412.0		physics_Main
00310872		23911752.0		37206.0		23911752.0		physics_Main
00310969		25016508.0		33460.0		25016508.0		physics_Main
00311071		28475101.0		45277.0		28475101.0		physics_Main
00311170		48889697.0		70067.0		48889697.0		physics_Main
00311244		31614680.0		50887.0		31614680.0		physics_Main
00311287		47627258.0		72141.0		47627258.0		physics_Main
00311321		47805002.0		69898.0		47805002.0		physics_Main
00311365		38041073.0		55550.0		38041073.0		physics_Main
00311402		42759462.0		64765.0		42759462.0		physics_Main
00311473		12437510.0		19599.0		12437510.0		physics_Main
00311481		44043715.0		66656.0		44043715.0		physics_Main
361100		41415000.0		47.0		4.68247174697e+11		PowhegPythia8EvtGen_AZNLOCTEQ6L1_Wplusenu
361101		39212000.0		3.0		4.43329885258e+11		PowhegPythia8EvtGen_AZNLOCTEQ6L1_Wplusmunu
361103		49904000.0		61.0		4.13338391815e+11		PowhegPythia8EvtGen_AZNLOCTEQ6L1_Wminusenu
361104		31973000.0		4.0		2.64816513116e+11		PowhegPythia8EvtGen_AZNLOCTEQ6L1_Wminusmunu
361107		289669000.0		15.0		5.50705367586e+11		PowhegPythia8EvtGen_AZNLOCTEQ6L1_Zmumu
361600		14770000.0		530.0		157096564.527		PowhegPy8EG_CT10nloME_AZNLOCTEQ6L1_WWlvlv
361601		10010000.0		705.0		45069438.031		PowhegPy8EG_CT10nloME_AZNLOCTEQ6L1_WZlvll_mll4
361602		985000.0		26.0		2736142.85105		PowhegPy8EG_CT10nloME_AZNLOCTEQ6L1_WZlvvv_mll4
361603		3980000.0		55.0		5043805.99677		PowhegPy8EG_CT10nloME_AZNLOCTEQ6L1_ZZllll_mll4
361604		995000.0		56.0		913353.02998		PowhegPy8EG_CT10nloME_AZNLOCTEQ6L1_ZZvvll_mll4
361605		200000.0		2.0		109800.681938		PowhegPy8EG_CT10nloME_AZNLOCTEQ6L1_ZZvvvv_mll4
361606		4369000.0		1608.0		193023220.938		PowhegPy8EG_CT10nloME_AZNLOCTEQ6L1_WWlvqq
361607		1490000.0		1628.0		4883764.27919		PowhegPy8EG_CT10nloME_AZNLOCTEQ6L1_WZqqll_mll20
361608		2970000.0		2517.0		17100047.2709		PowhegPy8EG_CT10nloME_AZNLOCTEQ6L1_WZqqvv
361609		9769000.0		7390.0		98532779.3661		PowhegPy8EG_CT10nloME_AZNLOCTEQ6L1_WZlvqq_mqq20
361610		3990000.0		1597.0		9056932.38043		PowhegPy8EG_CT10nloME_AZNLOCTEQ6L1_ZZqqll_mqq20mll20
361611		9907000.0		2358.0		39055338.7716		PowhegPy8EG_CT10nloME_AZNLOCTEQ6L1_ZZvvqq_mqq20
364114		8000000.0		0.0		5374833.01675		Sherpa_221_NNPDF30NNLO_Zee_MAXHTPTV0_70_CVetoBVeto
364115		4999000.0		1.0		2872880.27642		Sherpa_221_NNPDF30NNLO_Zee_MAXHTPTV0_70_CFilterBVeto
364116		7995600.0		1.0		4110178.06018		Sherpa_221_NNPDF30NNLO_Zee_MAXHTPTV0_70_BFilter
364117		5956000.0		3.0		2175375.41702		Sherpa_221_NNPDF30NNLO_Zee_MAXHTPTV70_140_CVetoBVeto
364118		1999200.0		2.0		724681.699915		Sherpa_221_NNPDF30NNLO_Zee_MAXHTPTV70_140_CFilterBVeto
364119		5970000.0		4.0		2083822.28554		Sherpa_221_NNPDF30NNLO_Zee_MAXHTPTV70_140_BFilter
364120		5000000.0		100.0		2996565.61912		Sherpa_221_NNPDF30NNLO_Zee_MAXHTPTV140_280_CVetoBVeto
364121		3000000.0		62.0		2001395.90133		Sherpa_221_NNPDF30NNLO_Zee_MAXHTPTV140_280_CFilterBVeto
364122		12439600.0		187.0		8626709.41826		Sherpa_221_NNPDF30NNLO_Zee_MAXHTPTV140_280_BFilter
364123		1999800.0		2885.0		1723396.10573		Sherpa_221_NNPDF30NNLO_Zee_MAXHTPTV280_500_CVetoBVeto
364124		999900.0		1014.0		918309.624933		Sherpa_221_NNPDF30NNLO_Zee_MAXHTPTV280_500_CFilterBVeto
364125		1999850.0		1610.0		1875662.69019		Sherpa_221_NNPDF30NNLO_Zee_MAXHTPTV280_500_BFilter
364126		2999000.0		23109.0		2968474.17929		Sherpa_221_NNPDF30NNLO_Zee_MAXHTPTV500_1000
364127		1000000.0		18730.0		1016520.83329		Sherpa_221_NNPDF30NNLO_Zee_MAXHTPTV1000_E_CMS
364128		7986000.0		5.0		5376034.85937		Sherpa_221_NNPDF30NNLO_Ztautau_MAXHTPTV0_70_CVetoBVeto
364129		3566000.0		0.0		2053820.71554		Sherpa_221_NNPDF30NNLO_Ztautau_MAXHTPTV0_70_CFilterBVeto
364130		7995800.0		7.0		4114442.11523		Sherpa_221_NNPDF30NNLO_Ztautau_MAXHTPTV0_70_BFilter
364131		5997500.0		11.0		2190964.01323		Sherpa_221_NNPDF30NNLO_Ztautau_MAXHTPTV70_140_CVetoBVeto
364132		1334200.0		3.0		487290.026862		Sherpa_221_NNPDF30NNLO_Ztautau_MAXHTPTV70_140_CFilterBVeto
364133		5969550.0		13.0		2090757.19021		Sherpa_221_NNPDF30NNLO_Ztautau_MAXHTPTV70_140_BFilter
364134		4940000.0		147.0		2959723.05679		Sherpa_221_NNPDF30NNLO_Ztautau_MAXHTPTV140_280_CVetoBVeto
364135		3000000.0		126.0		2001155.3521		Sherpa_221_NNPDF30NNLO_Ztautau_MAXHTPTV140_280_CFilterBVeto
364136		4992950.0		191.0		3472626.20143		Sherpa_221_NNPDF30NNLO_Ztautau_MAXHTPTV140_280_BFilter
364137		2000000.0		12759.0		1678900.33208		Sherpa_221_NNPDF30NNLO_Ztautau_MAXHTPTV280_500_CVetoBVeto
364138		1000000.0		4367.0		918259.650128		Sherpa_221_NNPDF30NNLO_Ztautau_MAXHTPTV280_500_CFilterBVeto
364139		1983950.0		7336.0		1860875.96469		Sherpa_221_NNPDF30NNLO_Ztautau_MAXHTPTV280_500_BFilter
364140		2999800.0		173206.0		2978478.47472		Sherpa_221_NNPDF30NNLO_Ztautau_MAXHTPTV500_1000
364141		1000000.0		162365.0		1018271.29465		Sherpa_221_NNPDF30NNLO_Ztautau_MAXHTPTV1000_E_CMS
364184		19620000.0		2.0		13240590.5453		Sherpa_221_NNPDF30NNLO_Wtaunu_MAXHTPTV0_70_CVetoBVeto
364185		8544600.0		4.0		4913998.02472		Sherpa_221_NNPDF30NNLO_Wtaunu_MAXHTPTV0_70_CFilterBVeto
364186		17483200.0		6.0		10626861.1261		Sherpa_221_NNPDF30NNLO_Wtaunu_MAXHTPTV0_70_BFilter
364187		14249000.0		2.0		5209387.2965		Sherpa_221_NNPDF30NNLO_Wtaunu_MAXHTPTV70_140_CVetoBVeto
364188		8839000.0		2.0		3335058.15856		Sherpa_221_NNPDF30NNLO_Wtaunu_MAXHTPTV70_140_CFilterBVeto
364189		9999000.0		7.0		4026450.52081		Sherpa_221_NNPDF30NNLO_Wtaunu_MAXHTPTV70_140_BFilter
364190		19913000.0		175.0		12393699.046		Sherpa_221_NNPDF30NNLO_Wtaunu_MAXHTPTV140_280_CVetoBVeto
364191		11299200.0		159.0		8011502.00422		Sherpa_221_NNPDF30NNLO_Wtaunu_MAXHTPTV140_280_CFilterBVeto
364192		24999900.0		341.0		18537130.7842		Sherpa_221_NNPDF30NNLO_Wtaunu_MAXHTPTV140_280_BFilter
364193		7498200.0		2919.0		6569745.47477		Sherpa_221_NNPDF30NNLO_Wtaunu_MAXHTPTV280_500_CVetoBVeto
364194		4497000.0		1863.0		4214680.48169		Sherpa_221_NNPDF30NNLO_Wtaunu_MAXHTPTV280_500_CFilterBVeto
364195		2998100.0		1103.0		2872290.12046		Sherpa_221_NNPDF30NNLO_Wtaunu_MAXHTPTV280_500_BFilter
364196		5960000.0		151887.0		5998107.73105		Sherpa_221_NNPDF30NNLO_Wtaunu_MAXHTPTV500_1000
364197		4000000.0		470544.0		4113124.75937		Sherpa_221_NNPDF30NNLO_Wtaunu_MAXHTPTV1000_E_CMS
407342		1984550.0		191313.0		1424639338.32		PhPy8EG_A14_ttbarHT1k5_hdamp258p75_nonallhad
407343		8003000.0		687491.0		5756317742.17		PhPy8EG_A14_ttbarHT1k_1k5_hdamp258p75_nonallhad
407344		10003000.0		234586.0		7246379659.21		PhPy8EG_A14_ttbarHT6c_1k_hdamp258p75_nonallhad
407345		16733700.0		171693.0		12053708644.0		PhPy8EG_A14_ttbarMET200_300_hdamp258p75_nonallhad
407346		3006020.0		68316.0		2132460458.35		PhPy8EG_A14_ttbarMET300_400_hdamp258p75_nonallhad
407347		1988600.0		85139.0		1370975733.34		PhPy8EG_A14_ttbarMET400_hdamp258p75_nonallhad
410470		119432000.0		219032.0		87205814506.9		PhPy8EG_A14_ttbar_hdamp258p75_nonallhad
410471		39885000.0		339548.0		29124112160.6		PhPy8EG_A14_ttbar_hdamp258p75_allhad
410644		2000000.0		1784.0		4056368.95581		PowhegPythia8EvtGen_A14_singletop_schan_lept_top
410645		2000000.0		1251.0		2537965.30339		PowhegPythia8EvtGen_A14_singletop_schan_lept_antitop
410646		4996000.0		19753.0		189644620.315		PowhegPythia8EvtGen_A14_Wt_DR_inclusive_top
410647		4999000.0		19885.0		189607897.912		PowhegPythia8EvtGen_A14_Wt_DR_inclusive_antitop
410658		4790500.0		1760.0		177371127.734		PhPy8EG_A14_tchan_BW50_lept_top
410659		4761500.0		1358.0		105687644.473		PhPy8EG_A14_tchan_BW50_lept_antitop
450160		100000.0		37272.0		235892.002583		MadGraphHerwig7EvtGen_PDF23LO_X1000tohh_bbtautau_hadhad
450174		50000.0		25121.0		32595.6502557		MadGraphHerwig7EvtGen_PDF23LO_X1200tohh_bbtautau_hadhad
450176		50000.0		29265.0		10368.0999577		MadGraphHerwig7EvtGen_PDF23LO_X1400tohh_bbtautau_hadhad
450178		50000.0		31516.0		3671.4200303		MadGraphHerwig7EvtGen_PDF23LO_X1600tohh_bbtautau_hadhad
450179		50000.0		32943.0		1413.20496798		MadGraphHerwig7EvtGen_PDF23LO_X1800tohh_bbtautau_hadhad
450180		50000.0		33431.0		581.455007195		MadGraphHerwig7EvtGen_PDF23LO_X2000tohh_bbtautau_hadhad
450182		50000.0		32224.0		78.1555013964		MadGraphHerwig7EvtGen_PDF23LO_X2500tohh_bbtautau_hadhad
450184		50000.0		27995.0		12.9313002981		MadGraphHerwig7EvtGen_PDF23LO_X3000tohh_bbtautau_hadhad
450523		100000.0		37795.0		100000.0		MadGraphPythia8EvtGen_A14NNPDF23LO_X1000tohh_bbtautau_hadhad
450525		60000.0		39637.0		60000.0		MadGraphPythia8EvtGen_A14NNPDF23LO_X2000tohh_bbtautau_hadhad
