00276262		12453880.0		424.0		12453880.0		physics_Main
00276329		12972955.0		786.0		12972955.0		physics_Main
00276336		635155.0		51.0		635155.0		physics_Main
00276416		3894134.0		276.0		3894134.0		physics_Main
00276511		5988485.0		569.0		5988485.0		physics_Main
00276689		5314467.0		736.0		5314467.0		physics_Main
00276778		430783.0		39.0		430783.0		physics_Main
00276790		941878.0		114.0		941878.0		physics_Main
00276952		3492176.0		465.0		3492176.0		physics_Main
00276954		417503.0		48.0		417503.0		physics_Main
00278880		12771895.0		1642.0		12771895.0		physics_Main
00278912		10890509.0		1520.0		10890509.0		physics_Main
00278968		4824560.0		743.0		4824560.0		physics_Main
00279169		28681854.0		4217.0		28681854.0		physics_Main
00279259		3398058.0		555.0		3398058.0		physics_Main
00279279		8636581.0		1294.0		8636581.0		physics_Main
00279284		15698710.0		2385.0		15698710.0		physics_Main
00279345		23676576.0		3978.0		23676576.0		physics_Main
00279515		99594.0		26.0		99594.0		physics_Main
00279598		27836447.0		5334.0		27836447.0		physics_Main
00279685		31519825.0		5424.0		31519825.0		physics_Main
00279764		2629946.0		520.0		2629946.0		physics_Main
00279813		22465562.0		3721.0		22465562.0		physics_Main
00279867		11732819.0		2275.0		11732819.0		physics_Main
00279928		345640.0		115.0		345640.0		physics_Main
00279932		18498231.0		3454.0		18498231.0		physics_Main
00279984		30899495.0		5176.0		30899495.0		physics_Main
00280231		38863293.0		6888.0		38863293.0		physics_Main
00280273		548271.0		158.0		548271.0		physics_Main
00280319		37042230.0		7645.0		37042230.0		physics_Main
00280368		2814636.0		688.0		2814636.0		physics_Main
00280423		26065895.0		5681.0		26065895.0		physics_Main
00280464		21462402.0		4802.0		21462402.0		physics_Main
00280500		3409266.0		607.0		3409266.0		physics_Main
00280520		6422287.0		1001.0		6422287.0		physics_Main
00280614		9032451.0		1932.0		9032451.0		physics_Main
00280673		55904749.0		11835.0		55904749.0		physics_Main
00280753		14443493.0		3660.0		14443493.0		physics_Main
00280853		2733592.0		544.0		2733592.0		physics_Main
00280862		49250789.0		10233.0		49250789.0		physics_Main
00280950		47827601.0		9785.0		47827601.0		physics_Main
00280977		11717261.0		2967.0		11717261.0		physics_Main
00281070		4408995.0		1038.0		4408995.0		physics_Main
00281074		15654592.0		3716.0		15654592.0		physics_Main
00281075		438686.0		92.0		438686.0		physics_Main
00281317		7857695.0		1913.0		7857695.0		physics_Main
00281385		35766381.0		6804.0		35766381.0		physics_Main
00281411		45207147.0		11012.0		45207147.0		physics_Main
00282625		5485314.0		892.0		5485314.0		physics_Main
00282631		9829580.0		2137.0		9829580.0		physics_Main
00282712		31385769.0		7708.0		31385769.0		physics_Main
00282784		4046640.0		218.0		4046640.0		physics_Main
00282992		35831753.0		8441.0		35831753.0		physics_Main
00283074		18933386.0		4678.0		18933386.0		physics_Main
00283155		9752472.0		2325.0		9752472.0		physics_Main
00283270		4430658.0		1005.0		4430658.0		physics_Main
00283429		79569604.0		18613.0		79569604.0		physics_Main
00283608		9606521.0		1837.0		9606521.0		physics_Main
00283780		46435904.0		11089.0		46435904.0		physics_Main
00284006		11928929.0		3176.0		11928929.0		physics_Main
00284154		5824197.0		761.0		5824197.0		physics_Main
00284213		63189115.0		15626.0		63189115.0		physics_Main
00284285		76835679.0		19747.0		76835679.0		physics_Main
00284420		18187501.0		4437.0		18187501.0		physics_Main
00284427		10995023.0		2774.0		10995023.0		physics_Main
00284484		31754768.0		8452.0		31754768.0		physics_Main
00297730		14666349.0		295.0		14666349.0		physics_Main
00298595		3133859.0		97.0		3133859.0		physics_Main
00298609		6288037.0		131.0		6288037.0		physics_Main
00298633		13229931.0		439.0		13229931.0		physics_Main
00298687		17971981.0		1517.0		17971981.0		physics_Main
00298690		1258445.0		107.0		1258445.0		physics_Main
00298771		7061356.0		615.0		7061356.0		physics_Main
00298773		6837614.0		595.0		6837614.0		physics_Main
00298862		20220154.0		1863.0		20220154.0		physics_Main
00298967		27997456.0		4114.0		27997456.0		physics_Main
00299055		23880448.0		3325.0		23880448.0		physics_Main
00299144		14319022.0		2172.0		14319022.0		physics_Main
00299147		13938967.0		1799.0		13938967.0		physics_Main
00299184		35490989.0		6916.0		35490989.0		physics_Main
00299243		3304691.0		403.0		3304691.0		physics_Main
00299584		83821946.0		14906.0		83821946.0		physics_Main
00300279		2358778.0		377.0		2358778.0		physics_Main
00300345		1396892.0		337.0		1396892.0		physics_Main
00300415		23298781.0		5925.0		23298781.0		physics_Main
00300418		1026746.0		365.0		1026746.0		physics_Main
00300487		28433227.0		7375.0		28433227.0		physics_Main
00300540		35939700.0		11324.0		35939700.0		physics_Main
00300571		28876747.0		9294.0		28876747.0		physics_Main
00300600		10395148.0		3484.0		10395148.0		physics_Main
00300655		38976996.0		15351.0		38976996.0		physics_Main
00300687		58638253.0		20662.0		58638253.0		physics_Main
00300784		1241726.0		507.0		1241726.0		physics_Main
00300800		48096930.0		17963.0		48096930.0		physics_Main
00300863		58204420.0		21047.0		58204420.0		physics_Main
00300908		35726539.0		13633.0		35726539.0		physics_Main
00301912		2526693.0		419.0		2526693.0		physics_Main
00301915		1450964.0		232.0		1450964.0		physics_Main
00301918		8233214.0		1243.0		8233214.0		physics_Main
00301932		82526129.0		22795.0		82526129.0		physics_Main
00301973		100108843.0		29000.0		100108843.0		physics_Main
00302053		78400574.0		25289.0		78400574.0		physics_Main
00302137		39832205.0		13204.0		39832205.0		physics_Main
00302265		20774509.0		7093.0		20774509.0		physics_Main
00302269		11340155.0		2364.0		11340155.0		physics_Main
00302300		83588612.0		23526.0		83588612.0		physics_Main
00302347		39072724.0		13244.0		39072724.0		physics_Main
00302380		21222052.0		7330.0		21222052.0		physics_Main
00302391		28142740.0		9008.0		28142740.0		physics_Main
00302393		106733895.0		31130.0		106733895.0		physics_Main
00302737		16786522.0		6307.0		16786522.0		physics_Main
00302831		5555894.0		913.0		5555894.0		physics_Main
00302872		131571245.0		42511.0		131571245.0		physics_Main
00302919		10884376.0		4487.0		10884376.0		physics_Main
00302925		20417664.0		7402.0		20417664.0		physics_Main
00302956		52494980.0		22278.0		52494980.0		physics_Main
00303007		2350962.0		1210.0		2350962.0		physics_Main
00303079		15170741.0		7419.0		15170741.0		physics_Main
00303201		14596310.0		7017.0		14596310.0		physics_Main
00303208		87008115.0		34901.0		87008115.0		physics_Main
00303264		5633196.0		2272.0		5633196.0		physics_Main
00303266		41740919.0		17816.0		41740919.0		physics_Main
00303291		26505956.0		11969.0		26505956.0		physics_Main
00303304		80740573.0		15249.0		80740573.0		physics_Main
00303338		90782421.0		23251.0		90782421.0		physics_Main
00303421		79594890.0		31596.0		79594890.0		physics_Main
00303499		68687323.0		26104.0		68687323.0		physics_Main
00303560		48916019.0		21848.0		48916019.0		physics_Main
00303638		74335806.0		29315.0		74335806.0		physics_Main
00303832		13919593.0		5058.0		13919593.0		physics_Main
00303846		71077917.0		30911.0		71077917.0		physics_Main
00303892		65779677.0		28783.0		65779677.0		physics_Main
00303943		60342124.0		30520.0		60342124.0		physics_Main
00304006		20930523.0		11649.0		20930523.0		physics_Main
00304008		61410138.0		31314.0		61410138.0		physics_Main
00304128		71422463.0		37528.0		71422463.0		physics_Main
00304178		53579736.0		28979.0		53579736.0		physics_Main
00304198		20173266.0		11909.0		20173266.0		physics_Main
00304211		16052307.0		9192.0		16052307.0		physics_Main
00304243		43859826.0		23419.0		43859826.0		physics_Main
00304308		3755004.0		2209.0		3755004.0		physics_Main
00304337		51425359.0		29000.0		51425359.0		physics_Main
00304409		13470958.0		7915.0		13470958.0		physics_Main
00304431		18955902.0		11563.0		18955902.0		physics_Main
00304494		7892600.0		4501.0		7892600.0		physics_Main
00305380		39218593.0		21534.0		39218593.0		physics_Main
00305543		34208100.0		10758.0		34208100.0		physics_Main
00305571		3553268.0		1299.0		3553268.0		physics_Main
00305618		36949727.0		19099.0		36949727.0		physics_Main
00305671		3260271.0		1741.0		3260271.0		physics_Main
00305674		2311425.0		1261.0		2311425.0		physics_Main
00305723		33307013.0		18166.0		33307013.0		physics_Main
00305727		8430939.0		3654.0		8430939.0		physics_Main
00305735		14849764.0		8237.0		14849764.0		physics_Main
00305777		39042835.0		20407.0		39042835.0		physics_Main
00305811		31880840.0		17707.0		31880840.0		physics_Main
00305920		30350299.0		16775.0		30350299.0		physics_Main
00306269		18416059.0		10777.0		18416059.0		physics_Main
00306278		46710498.0		24744.0		46710498.0		physics_Main
00306310		48415395.0		23655.0		48415395.0		physics_Main
00306384		26323954.0		13209.0		26323954.0		physics_Main
00306419		10910235.0		6604.0		10910235.0		physics_Main
00306442		3953031.0		2386.0		3953031.0		physics_Main
00306448		12095541.0		7582.0		12095541.0		physics_Main
00306451		38956733.0		22166.0		38956733.0		physics_Main
00307126		6678358.0		1804.0		6678358.0		physics_Main
00307195		24745704.0		14771.0		24745704.0		physics_Main
00307259		47891034.0		19683.0		47891034.0		physics_Main
00307306		21648529.0		12941.0		21648529.0		physics_Main
00307354		9815758.0		5881.0		9815758.0		physics_Main
00307358		46725678.0		24622.0		46725678.0		physics_Main
00307394		44002449.0		22725.0		44002449.0		physics_Main
00307454		60677930.0		31090.0		60677930.0		physics_Main
00307514		23130069.0		13767.0		23130069.0		physics_Main
00307539		9105245.0		5336.0		9105245.0		physics_Main
00307569		40510230.0		21659.0		40510230.0		physics_Main
00307601		36485000.0		20578.0		36485000.0		physics_Main
00307619		8266961.0		4811.0		8266961.0		physics_Main
00307656		56443850.0		27761.0		56443850.0		physics_Main
00307710		10467936.0		6003.0		10467936.0		physics_Main
00307716		27266528.0		15918.0		27266528.0		physics_Main
00307732		69443419.0		34321.0		69443419.0		physics_Main
00307861		36073657.0		20190.0		36073657.0		physics_Main
00307935		52828779.0		27057.0		52828779.0		physics_Main
00308047		62119233.0		29448.0		62119233.0		physics_Main
00308084		44248093.0		22962.0		44248093.0		physics_Main
00309375		12655194.0		2646.0		12655194.0		physics_Main
00309390		50733479.0		13569.0		50733479.0		physics_Main
00309440		58970492.0		30264.0		58970492.0		physics_Main
00309516		48003561.0		26257.0		48003561.0		physics_Main
00309640		49249481.0		25993.0		49249481.0		physics_Main
00309674		44280492.0		23781.0		44280492.0		physics_Main
00309759		46515816.0		24073.0		46515816.0		physics_Main
00310015		2038023.0		175.0		2038023.0		physics_Main
00310247		4365774.0		2323.0		4365774.0		physics_Main
00310249		58443043.0		27723.0		58443043.0		physics_Main
00310341		56570797.0		27399.0		56570797.0		physics_Main
00310370		4488643.0		1290.0		4488643.0		physics_Main
00310405		23313314.0		12791.0		23313314.0		physics_Main
00310468		19758243.0		10872.0		19758243.0		physics_Main
00310473		28671695.0		16381.0		28671695.0		physics_Main
00310634		72039752.0		34517.0		72039752.0		physics_Main
00310691		42630088.0		22698.0		42630088.0		physics_Main
00310738		57060346.0		26871.0		57060346.0		physics_Main
00310809		60744067.0		24831.0		60744067.0		physics_Main
00310863		15594412.0		9213.0		15594412.0		physics_Main
00310872		23911752.0		13279.0		23911752.0		physics_Main
00310969		25016508.0		10948.0		25016508.0		physics_Main
00311071		28475101.0		15937.0		28475101.0		physics_Main
00311170		48889697.0		23730.0		48889697.0		physics_Main
00311244		31614680.0		17968.0		31614680.0		physics_Main
00311287		47627258.0		24523.0		47627258.0		physics_Main
00311321		47805002.0		24376.0		47805002.0		physics_Main
00311365		38041073.0		20251.0		38041073.0		physics_Main
00311402		42759462.0		23205.0		42759462.0		physics_Main
00311473		12437510.0		6573.0		12437510.0		physics_Main
00311481		44043715.0		23596.0		44043715.0		physics_Main
345055		2669000.0		36031.0		203177.172991		PwPy8EG_NNPDF3_AZNLO_ZH125J_MINLO_llbb_VpT
345057		750000.0		10268.0		4340.11696838		PwPy8EG_NNPDF3_AZNLO_ggZH125_llbb
345212		250000.0		4394.0		215515.156476		PwPy8EG_NNPDF30_AZNLO_WpH125J_Winc_MINLO_tautau
345217		473100.0		9215.0		359998.100631		PwPy8EG_NNPDF30_AZNLO_ZH125J_Zinc_MINLO_tautau
345835		547000.0		108440.0		13498.3981156		aMcAtNloHerwig7EG_UEEE5_CTEQ6L1_CT10ME_hh_ttbb_hh
345873		4985000.0		13922.0		1935372.5419		PwPy8EG_A14NNPDF23_NNPDF30ME_ttH125_allhad
345874		4995000.0		12364.0		3519978.72082		PhPy8EG_A14NNPDF23_NNPDF30ME_ttH125_hdamp352p5_semilep
345875		4985000.0		13183.0		474057.626112		PhPy8EG_A14NNPDF23_NNPDF30ME_ttH125_hdamp352p5_dilep
345910		100000.0		18708.0		100000.0		MGPy8EG_A14NNPDF23LO_hh_bbtt_vbf_hh_l0cvv0cv1
345912		100000.0		11504.0		100000.0		MGPy8EG_A14NNPDF23LO_hh_bbtt_vbf_hh_l2cvv1cv1
345952		100000.0		19738.0		100000.0		MGPy8EG_A14NNPDF23LO_hh_bbtt_vbf_hh_l1cvv0cv1
345953		100000.0		17878.0		100000.0		MGPy8EG_A14NNPDF23LO_hh_bbtt_vbf_hh_l1cvv0p5cv1
345954		100000.0		11870.0		100000.0		MGPy8EG_A14NNPDF23LO_hh_bbtt_vbf_hh_l1cvv1cv1
345955		100000.0		20836.0		100000.0		MGPy8EG_A14NNPDF23LO_hh_bbtt_vbf_hh_l1cvv1p5cv1
345956		100000.0		22176.0		100000.0		MGPy8EG_A14NNPDF23LO_hh_bbtt_vbf_hh_l1cvv2cv1
345957		100000.0		12554.0		100000.0		MGPy8EG_A14NNPDF23LO_hh_bbtt_vbf_hh_l0cvv1cv1
345958		100000.0		20487.0		100000.0		MGPy8EG_A14NNPDF23LO_hh_bbtt_vbf_hh_l1cvv0cv0
345959		100000.0		12782.0		100000.0		MGPy8EG_A14NNPDF23LO_hh_bbtt_vbf_hh_l1cvv0cv0
345960		100000.0		21108.0		100000.0		MGPy8EG_A14NNPDF23LO_hh_bbtt_vbf_hh_l1cvv1cv0p5
363355		5400000.0		58.0		3496611.89369		Sh_221_NNPDF30NNLO_ZqqZvv
363356		5400000.0		15833.0		3493297.56961		Sh_221_NNPDF30NNLO_ZqqZll
363357		6000000.0		117.0		559370.390577		Sh_221_NNPDF30NNLO_WqqZvv
363358		5400000.0		17284.0		254404.249829		Sh_221_NNPDF30NNLO_WqqZll
363359		7194000.0		1773.0		1076338.13689		Sh_221_NNPDF30NNLO_WpqqWmlv
363360		7188000.0		1527.0		1080428.40937		Sh_221_NNPDF30NNLO_WplvWmqq
363489		7180000.0		1864.0		1124496.06696		Sh_221_NNPDF30NNLO_WlvZqq
364100		7970000.0		1.0		5372476.06854		Sh_221_NNPDF30NNLO_Zmumu_MAXHTPTV0_70_CVetoBVeto
364101		4982000.0		2.0		2871991.42614		Sh_221_NNPDF30NNLO_Zmumu_MAXHTPTV0_70_CFilterBVeto
364102		7983000.0		0.0		4120985.33734		Sh_221_NNPDF30NNLO_Zmumu_MAXHTPTV0_70_BFilter
364103		5983000.0		8.0		2166490.44184		Sh_221_NNPDF30NNLO_Zmumu_MAXHTPTV70_140_CVetoBVeto
364104		1996800.0		4.0		732465.502558		Sh_221_NNPDF30NNLO_Zmumu_MAXHTPTV70_140_CFilterBVeto
364105		5981600.0		9.0		2082263.96859		Sh_221_NNPDF30NNLO_Zmumu_MAXHTPTV70_140_BFilter
364106		5000000.0		34.0		2974012.06716		Sh_221_NNPDF30NNLO_Zmumu_MAXHTPTV140_280_CVetoBVeto
364107		3000000.0		25.0		1991088.33074		Sh_221_NNPDF30NNLO_Zmumu_MAXHTPTV140_280_CFilterBVeto
364108		12458900.0		94.0		8646674.04088		Sh_221_NNPDF30NNLO_Zmumu_MAXHTPTV140_280_BFilter
364109		2000000.0		39.0		1728411.3116		Sh_221_NNPDF30NNLO_Zmumu_MAXHTPTV280_500_CVetoBVeto
364110		999600.0		17.0		918652.62389		Sh_221_NNPDF30NNLO_Zmumu_MAXHTPTV280_500_CFilterBVeto
364111		1999400.0		24.0		1880442.9321		Sh_221_NNPDF30NNLO_Zmumu_MAXHTPTV280_500_BFilter
364112		2996500.0		49.0		2980513.21444		Sh_221_NNPDF30NNLO_Zmumu_MAXHTPTV500_1000
364113		997000.0		6.0		1017049.29351		Sh_221_NNPDF30NNLO_Zmumu_MAXHTPTV1000_E_CMS
364114		8000000.0		13.0		5374833.01675		Sh_221_NNPDF30NNLO_Zee_MAXHTPTV0_70_CVetoBVeto
364115		4999000.0		16.0		2872880.27642		Sh_221_NNPDF30NNLO_Zee_MAXHTPTV0_70_CFilterBVeto
364116		7995600.0		21.0		4110178.06018		Sh_221_NNPDF30NNLO_Zee_MAXHTPTV0_70_BFilter
364117		5956000.0		76.0		2175375.41702		Sh_221_NNPDF30NNLO_Zee_MAXHTPTV70_140_CVetoBVeto
364118		1999200.0		28.0		724681.699915		Sh_221_NNPDF30NNLO_Zee_MAXHTPTV70_140_CFilterBVeto
364119		5970000.0		70.0		2083822.28554		Sh_221_NNPDF30NNLO_Zee_MAXHTPTV70_140_BFilter
364120		5000000.0		134.0		2996565.61912		Sh_221_NNPDF30NNLO_Zee_MAXHTPTV140_280_CVetoBVeto
364121		3000000.0		72.0		2001395.90133		Sh_221_NNPDF30NNLO_Zee_MAXHTPTV140_280_CFilterBVeto
364122		12439600.0		292.0		8626709.41826		Sh_221_NNPDF30NNLO_Zee_MAXHTPTV140_280_BFilter
364123		1999800.0		72.0		1723396.10573		Sh_221_NNPDF30NNLO_Zee_MAXHTPTV280_500_CVetoBVeto
364124		999900.0		43.0		918309.624933		Sh_221_NNPDF30NNLO_Zee_MAXHTPTV280_500_CFilterBVeto
364125		1999850.0		68.0		1875662.69019		Sh_221_NNPDF30NNLO_Zee_MAXHTPTV280_500_BFilter
364126		2999000.0		123.0		2968474.17929		Sh_221_NNPDF30NNLO_Zee_MAXHTPTV500_1000
364127		1000000.0		36.0		1016520.83329		Sh_221_NNPDF30NNLO_Zee_MAXHTPTV1000_E_CMS
364128		7986000.0		1308.0		5376034.85937		Sh_221_NNPDF30NNLO_Ztautau_MAXHTPTV0_70_CVetoBVeto
364129		4979000.0		1411.0		2869441.98659		Sh_221_NNPDF30NNLO_Ztautau_MAXHTPTV0_70_CFilterBVeto
364130		7995800.0		2117.0		4114442.11523		Sh_221_NNPDF30NNLO_Ztautau_MAXHTPTV0_70_BFilter
364131		5997500.0		19911.0		2190964.01323		Sh_221_NNPDF30NNLO_Ztautau_MAXHTPTV70_140_CVetoBVeto
364132		1999200.0		7565.0		731614.169086		Sh_221_NNPDF30NNLO_Ztautau_MAXHTPTV70_140_CFilterBVeto
364133		5969550.0		20988.0		2090757.19021		Sh_221_NNPDF30NNLO_Ztautau_MAXHTPTV70_140_BFilter
364134		4940000.0		61139.0		2959723.05679		Sh_221_NNPDF30NNLO_Ztautau_MAXHTPTV140_280_CVetoBVeto
364135		3000000.0		38479.0		2001155.3521		Sh_221_NNPDF30NNLO_Ztautau_MAXHTPTV140_280_CFilterBVeto
364136		4992950.0		61323.0		3472626.20143		Sh_221_NNPDF30NNLO_Ztautau_MAXHTPTV140_280_BFilter
364137		2000000.0		48075.0		1678900.33208		Sh_221_NNPDF30NNLO_Ztautau_MAXHTPTV280_500_CVetoBVeto
364138		1000000.0		23161.0		918259.650128		Sh_221_NNPDF30NNLO_Ztautau_MAXHTPTV280_500_CFilterBVeto
364139		1983950.0		43718.0		1860875.96469		Sh_221_NNPDF30NNLO_Ztautau_MAXHTPTV280_500_BFilter
364140		2999800.0		73038.0		2978478.47472		Sh_221_NNPDF30NNLO_Ztautau_MAXHTPTV500_1000
364141		1000000.0		23172.0		1018271.29465		Sh_221_NNPDF30NNLO_Ztautau_MAXHTPTV1000_E_CMS
364156		24966000.0		4.0		16783367.7152		Sh_221_NNPDF30NNLO_Wmunu_MAXHTPTV0_70_CVetoBVeto
364157		9993000.0		4.0		5726997.70075		Sh_221_NNPDF30NNLO_Wmunu_MAXHTPTV0_70_CFilterBVeto
364158		17485200.0		8.0		10559843.0788		Sh_221_NNPDF30NNLO_Wmunu_MAXHTPTV0_70_BFilter
364159		14964000.0		15.0		5482207.91321		Sh_221_NNPDF30NNLO_Wmunu_MAXHTPTV70_140_CVetoBVeto
364160		9975200.0		24.0		3739738.71653		Sh_221_NNPDF30NNLO_Wmunu_MAXHTPTV70_140_CFilterBVeto
364161		19915000.0		34.0		8101688.30063		Sh_221_NNPDF30NNLO_Wmunu_MAXHTPTV70_140_BFilter
364162		10000000.0		68.0		6228867.74873		Sh_221_NNPDF30NNLO_Wmunu_MAXHTPTV140_280_CVetoBVeto
364163		13387300.0		131.0		9512303.27891		Sh_221_NNPDF30NNLO_Wmunu_MAXHTPTV140_280_CFilterBVeto
364164		25000000.0		200.0		18531580.7631		Sh_221_NNPDF30NNLO_Wmunu_MAXHTPTV140_280_BFilter
364165		4999000.0		79.0		4376833.8348		Sh_221_NNPDF30NNLO_Wmunu_MAXHTPTV280_500_CVetoBVeto
364166		2649000.0		62.0		2494673.50915		Sh_221_NNPDF30NNLO_Wmunu_MAXHTPTV280_500_CFilterBVeto
364167		2939500.0		51.0		2816636.72689		Sh_221_NNPDF30NNLO_Wmunu_MAXHTPTV280_500_BFilter
364168		5997500.0		155.0		6029336.82547		Sh_221_NNPDF30NNLO_Wmunu_MAXHTPTV500_1000
364169		3998000.0		63.0		4108152.13579		Sh_221_NNPDF30NNLO_Wmunu_MAXHTPTV1000_E_CMS
364170		24997000.0		17.0		16788422.9834		Sh_221_NNPDF30NNLO_Wenu_MAXHTPTV0_70_CVetoBVeto
364171		9910500.0		4.0		5679456.92207		Sh_221_NNPDF30NNLO_Wenu_MAXHTPTV0_70_CFilterBVeto
364172		17482400.0		11.0		10553785.923		Sh_221_NNPDF30NNLO_Wenu_MAXHTPTV0_70_BFilter
364173		14815500.0		53.0		5415989.61195		Sh_221_NNPDF30NNLO_Wenu_MAXHTPTV70_140_CVetoBVeto
364174		9940400.0		54.0		3760767.33242		Sh_221_NNPDF30NNLO_Wenu_MAXHTPTV70_140_CFilterBVeto
364175		19801100.0		88.0		8029891.54481		Sh_221_NNPDF30NNLO_Wenu_MAXHTPTV70_140_BFilter
364176		10000000.0		149.0		6234702.26577		Sh_221_NNPDF30NNLO_Wenu_MAXHTPTV140_280_CVetoBVeto
364177		13411500.0		284.0		9528510.59571		Sh_221_NNPDF30NNLO_Wenu_MAXHTPTV140_280_CFilterBVeto
364178		24860800.0		454.0		18433491.2623		Sh_221_NNPDF30NNLO_Wenu_MAXHTPTV140_280_BFilter
364179		4998800.0		185.0		4378414.32311		Sh_221_NNPDF30NNLO_Wenu_MAXHTPTV280_500_CVetoBVeto
364180		2999400.0		127.0		2812495.50016		Sh_221_NNPDF30NNLO_Wenu_MAXHTPTV280_500_CFilterBVeto
364181		2998000.0		123.0		2873526.18781		Sh_221_NNPDF30NNLO_Wenu_MAXHTPTV280_500_BFilter
364182		5998600.0		243.0		6085450.80947		Sh_221_NNPDF30NNLO_Wenu_MAXHTPTV500_1000
364183		3999000.0		115.0		4129139.92138		Sh_221_NNPDF30NNLO_Wenu_MAXHTPTV1000_E_CMS
364184		24921000.0		57.0		16819156.769		Sh_221_NNPDF30NNLO_Wtaunu_MAXHTPTV0_70_CVetoBVeto
364185		9994600.0		60.0		5745345.39694		Sh_221_NNPDF30NNLO_Wtaunu_MAXHTPTV0_70_CFilterBVeto
364186		17483200.0		91.0		10626861.1261		Sh_221_NNPDF30NNLO_Wtaunu_MAXHTPTV0_70_BFilter
364187		14998500.0		1166.0		5496494.38062		Sh_221_NNPDF30NNLO_Wtaunu_MAXHTPTV70_140_CVetoBVeto
364188		9999000.0		1082.0		3772484.90809		Sh_221_NNPDF30NNLO_Wtaunu_MAXHTPTV70_140_CFilterBVeto
364189		9999000.0		987.0		4026450.52081		Sh_221_NNPDF30NNLO_Wtaunu_MAXHTPTV70_140_BFilter
364190		9970000.0		4368.0		6210472.1822		Sh_221_NNPDF30NNLO_Wtaunu_MAXHTPTV140_280_CVetoBVeto
364191		7500000.0		4533.0		5315025.00756		Sh_221_NNPDF30NNLO_Wtaunu_MAXHTPTV140_280_CFilterBVeto
364192		24999900.0		12530.0		18537130.7842		Sh_221_NNPDF30NNLO_Wtaunu_MAXHTPTV140_280_BFilter
364193		4999200.0		5285.0		4382337.21193		Sh_221_NNPDF30NNLO_Wtaunu_MAXHTPTV280_500_CVetoBVeto
364194		2998400.0		4225.0		2811523.16208		Sh_221_NNPDF30NNLO_Wtaunu_MAXHTPTV280_500_CFilterBVeto
364195		2998100.0		3355.0		2872290.12046		Sh_221_NNPDF30NNLO_Wtaunu_MAXHTPTV280_500_BFilter
364196		5960000.0		8259.0		5998107.73105		Sh_221_NNPDF30NNLO_Wtaunu_MAXHTPTV500_1000
364197		4000000.0		5139.0		4113124.75937		Sh_221_NNPDF30NNLO_Wtaunu_MAXHTPTV1000_E_CMS
364198		7490000.0		0.0		3346738.51543		Sh_221_NN30NNLO_Zmm_Mll10_40_MAXHTPTV0_70_BVeto
364199		1500000.0		0.0		633229.521453		Sh_221_NN30NNLO_Zmm_Mll10_40_MAXHTPTV0_70_BFilter
364200		2380000.0		5.0		1338628.88462		Sh_221_NN30NNLO_Zmm_Mll10_40_MAXHTPTV70_280_BVeto
364201		1100000.0		1.0		640180.092114		Sh_221_NN30NNLO_Zmm_Mll10_40_MAXHTPTV70_280_BFilter
364202		598400.0		12.0		575003.157485		Sh_221_NN30NNLO_Zmm_Mll10_40_MAXHTPTV280_E_CMS_BVeto
364203		249810.0		3.0		246687.902706		Sh_221_NN30NNLO_Zmm_Mll10_40_MAXHTPTV280_E_CMS_BFilter
364204		7500000.0		3.0		3350770.79452		Sh_221_NN30NNLO_Zee_Mll10_40_MAXHTPTV0_70_BVeto
364205		1500000.0		0.0		634977.000209		Sh_221_NN30NNLO_Zee_Mll10_40_MAXHTPTV0_70_BFilter
364206		2400000.0		20.0		1355659.53185		Sh_221_NN30NNLO_Zee_Mll10_40_MAXHTPTV70_280_BVeto
364207		1100000.0		8.0		641173.943864		Sh_221_NN30NNLO_Zee_Mll10_40_MAXHTPTV70_280_BFilter
364208		600000.0		18.0		575348.550475		Sh_221_NN30NNLO_Zee_Mll10_40_MAXHTPTV280_E_CMS_BVeto
364209		250000.0		10.0		246286.41342		Sh_221_NN30NNLO_Zee_Mll10_40_MAXHTPTV280_E_CMS_BFilter
364210		7497000.0		3.0		3350829.7935		Sh_221_NN30NNLO_Ztt_Mll10_40_MAXHTPTV0_70_BVeto
364211		1498600.0		1.0		629985.801546		Sh_221_NN30NNLO_Ztt_Mll10_40_MAXHTPTV0_70_BFilter
364212		2396400.0		527.0		1352443.67119		Sh_221_NN30NNLO_Ztt_Mll10_40_MAXHTPTV70_280_BVeto
364213		1098740.0		185.0		642791.958503		Sh_221_NN30NNLO_Ztt_Mll10_40_MAXHTPTV70_280_BFilter
364214		600000.0		522.0		577537.011484		Sh_221_NN30NNLO_Ztt_Mll10_40_MAXHTPTV280_E_CMS_BVeto
364215		250000.0		189.0		246056.029465		Sh_221_NN30NNLO_Ztt_Mll10_40_MAXHTPTV280_E_CMS_BFilter
364250		17842900.0		17488.0		7518811.89632		Sh_222_NNPDF30NNLO_llll
410470		119432000.0		105756.0		87205814506.9		PhPy8EG_A14_ttbar_hdamp258p75_nonallhad
410471		39885000.0		14815.0		29124112160.6		PhPy8EG_A14_ttbar_hdamp258p75_allhad
410644		2000000.0		145.0		4056368.95581		PwPy8EG_A14_singletop_schan_lept_top
410645		2000000.0		178.0		2537965.30339		PwPy8EG_A14_singletop_schan_lept_antitop
410646		4996000.0		2979.0		189644620.315		PwPy8EG_A14_Wt_DR_inclusive_top
410647		4999000.0		2929.0		189607897.912		PwPy8EG_A14_Wt_DR_inclusive_antitop
410658		4790500.0		417.0		177371127.734		PhPy8EG_A14_tchan_BW50_lept_top
410659		4761500.0		525.0		105687644.473		PhPy8EG_A14_tchan_BW50_lept_antitop
