00266904		3651777.0		0.0		3651777.0		physics_Main
00266919		5126707.0		0.0		5126707.0		physics_Main
00267073		18151016.0		0.0		18151016.0		physics_Main
00267152		21157841.0		0.0		21157841.0		physics_Main
00267162		45426717.0		0.0		45426717.0		physics_Main
00267167		15492455.0		0.0		15492455.0		physics_Main
00267638		32611097.0		0.0		32611097.0		physics_Main
00270441		336275.0		0.0		336275.0		physics_Main
00270448		9399509.0		0.0		9399509.0		physics_Main
00270588		2346328.0		0.0		2346328.0		physics_Main
00270806		2678857.0		0.0		2678857.0		physics_Main
00270949		785407.0		0.0		785407.0		physics_Main
00270953		4587713.0		0.0		4587713.0		physics_Main
00271048		14835431.0		0.0		14835431.0		physics_Main
00271298		12028855.0		0.0		12028855.0		physics_Main
00271388		130804.0		0.0		130804.0		physics_Main
00271421		9126052.0		0.0		9126052.0		physics_Main
00271516		12311292.0		0.0		12311292.0		physics_Main
00271595		11252467.0		0.0		11252467.0		physics_Main
00271744		4950671.0		0.0		4950671.0		physics_Main
00276073		857483.0		0.0		857483.0		physics_Main
00276147		16638798.0		0.0		16638798.0		physics_Main
00276161		8430052.0		0.0		8430052.0		physics_Main
00276166		9716.0		0.0		9716.0		physics_Main
00276176		183325.0		0.0		183325.0		physics_Main
00276181		32820534.0		0.0		32820534.0		physics_Main
00276183		1656382.0		0.0		1656382.0		physics_Main
00276189		3464667.0		0.0		3464667.0		physics_Main
00276212		5547381.0		0.0		5547381.0		physics_Main
00276245		3976787.0		0.0		3976787.0		physics_Main
00276262		12453880.0		1314.0		12453880.0		physics_Main
00276329		12972955.0		2207.0		12972955.0		physics_Main
00276330		963724.0		0.0		963724.0		physics_Main
00276416		3894134.0		764.0		3894134.0		physics_Main
00276511		5988485.0		1476.0		5988485.0		physics_Main
00276689		5314467.0		1867.0		5314467.0		physics_Main
00276731		17594044.0		0.0		17594044.0		physics_Main
00276778		430783.0		109.0		430783.0		physics_Main
00276790		941878.0		273.0		941878.0		physics_Main
00276952		3492176.0		1029.0		3492176.0		physics_Main
00276954		417503.0		104.0		417503.0		physics_Main
00276982		11486.0		0.0		11486.0		physics_Main
00277025		2025109.0		0.0		2025109.0		physics_Main
00277061		1.0		0.0		1.0		physics_Main
00277064		7468.0		0.0		7468.0		physics_Main
00277081		12873.0		0.0		12873.0		physics_Main
00278727		387041.0		0.0		387041.0		physics_Main
00278731		12592.0		0.0		12592.0		physics_Main
00278734		3595.0		0.0		3595.0		physics_Main
00278748		5500949.0		0.0		5500949.0		physics_Main
00278880		12771895.0		3556.0		12771895.0		physics_Main
00278912		10890509.0		3227.0		10890509.0		physics_Main
00278968		4824560.0		1698.0		4824560.0		physics_Main
00278970		378004.0		0.0		378004.0		physics_Main
00279169		28681854.0		8820.0		28681854.0		physics_Main
00279255		931.0		0.0		931.0		physics_Main
00279258		1371.0		0.0		1371.0		physics_Main
00279259		3398058.0		1128.0		3398058.0		physics_Main
00279279		8636581.0		2742.0		8636581.0		physics_Main
00279284		15698710.0		5068.0		15698710.0		physics_Main
00279345		23676576.0		8091.0		23676576.0		physics_Main
00279515		99594.0		41.0		99594.0		physics_Main
00279598		27836447.0		10309.0		27836447.0		physics_Main
00279685		31519825.0		11921.0		31519825.0		physics_Main
00279743		27543.0		0.0		27543.0		physics_Main
00279758		8.0		0.0		8.0		physics_Main
00279764		2629946.0		347.0		2629946.0		physics_Main
00279813		22465562.0		7284.0		22465562.0		physics_Main
00279867		11734773.0		4635.0		11734773.0		physics_Main
00279928		345640.0		135.0		345640.0		physics_Main
00279932		18498231.0		6782.0		18498231.0		physics_Main
00279984		30899495.0		10222.0		30899495.0		physics_Main
00280231		38863293.0		13761.0		38863293.0		physics_Main
00280273		548271.0		0.0		548271.0		physics_Main
00280319		37042230.0		15026.0		37042230.0		physics_Main
00280368		2814636.0		1304.0		2814636.0		physics_Main
00280422		181.0		0.0		181.0		physics_Main
00280423		26065895.0		10891.0		26065895.0		physics_Main
00280464		21462402.0		9339.0		21462402.0		physics_Main
00280500		3409266.0		1258.0		3409266.0		physics_Main
00280520		6422287.0		2024.0		6422287.0		physics_Main
00280614		9032451.0		3896.0		9032451.0		physics_Main
00280664		609.0		0.0		609.0		physics_Main
00280673		55904749.0		23100.0		55904749.0		physics_Main
00280753		14443493.0		6865.0		14443493.0		physics_Main
00280806		4941.0		0.0		4941.0		physics_Main
00280845		6959.0		0.0		6959.0		physics_Main
00280853		2733592.0		1125.0		2733592.0		physics_Main
00280862		49250789.0		20268.0		49250789.0		physics_Main
00280944		10756.0		0.0		10756.0		physics_Main
00280950		41966389.0		17018.0		41966389.0		physics_Main
00280977		11714348.0		5535.0		11714348.0		physics_Main
00281070		4408995.0		1901.0		4408995.0		physics_Main
00281074		15654592.0		6976.0		15654592.0		physics_Main
00281075		438686.0		175.0		438686.0		physics_Main
00281130		7730588.0		0.0		7730588.0		physics_Main
00281143		78803706.0		0.0		78803706.0		physics_Main
00281317		7857695.0		3623.0		7857695.0		physics_Main
00281327		3814.0		0.0		3814.0		physics_Main
00281381		15377685.0		0.0		15377685.0		physics_Main
00281385		3085856.0		861.0		3085856.0		physics_Main
00281411		45207147.0		20440.0		45207147.0		physics_Main
00281471		44.0		0.0		44.0		physics_Main
00281662		817.0		0.0		817.0		physics_Main
00281669		1.0		0.0		1.0		physics_Main
00281682		1.0		0.0		1.0		physics_Main
00281712		807.0		0.0		807.0		physics_Main
00281724		242.0		0.0		242.0		physics_Main
00281958		3.0		0.0		3.0		physics_Main
00281976		15883.0		0.0		15883.0		physics_Main
00281978		49819.0		0.0		49819.0		physics_Main
00281995		9980.0		0.0		9980.0		physics_Main
00282026		135018.0		5.0		135018.0		physics_Main
00282248		136984.0		1.0		136984.0		physics_Main
00282417		1891.0		0.0		1891.0		physics_Main
00282418		88243.0		4.0		88243.0		physics_Main
00282420		84461.0		8.0		84461.0		physics_Main
00282421		19257.0		0.0		19257.0		physics_Main
00282423		119190.0		0.0		119190.0		physics_Main
00282431		21.0		0.0		21.0		physics_Main
00282455		1340.0		0.0		1340.0		physics_Main
00282457		21653.0		1.0		21653.0		physics_Main
00282630		3.0		0.0		3.0		physics_Main
00282631		9806548.0		4024.0		9806548.0		physics_Main
00282712		30095250.0		13846.0		30095250.0		physics_Main
00282784		4046640.0		0.0		4046640.0		physics_Main
00282992		35749750.0		0.0		35749750.0		physics_Main
00283074		18049516.0		0.0		18049516.0		physics_Main
00283077		233.0		0.0		233.0		physics_Main
00283155		9431136.0		0.0		9431136.0		physics_Main
301000		498000.0		5088.0		8704262.47411		PwPy8EG_AZNLOCTEQ6L1_DYee_120M180
301001		249600.0		2518.0		729132.288167		PwPy8EG_AZNLOCTEQ6L1_DYee_180M250
301002		149400.0		1594.0		161638.442677		PwPy8EG_AZNLOCTEQ6L1_DYee_250M400
301003		100000.0		1572.0		19549.596473		PwPy8EG_AZNLOCTEQ6L1_DYee_400M600
301004		145000.0		2784.0		5423.15920538		PwPy8EG_AZNLOCTEQ6L1_DYee_600M800
301005		50000.0		1022.0		530.325998552		PwPy8EG_AZNLOCTEQ6L1_DYee_800M1000
301006		50000.0		1123.0		212.907795794		PwPy8EG_AZNLOCTEQ6L1_DYee_1000M1250
301007		50000.0		1189.0		71.0943498416		PwPy8EG_AZNLOCTEQ6L1_DYee_1250M1500
301008		49800.0		1220.0		27.1515363827		PwPy8EG_AZNLOCTEQ6L1_DYee_1500M1750
301009		49600.0		1274.0		11.4032454643		PwPy8EG_AZNLOCTEQ6L1_DYee_1750M2000
301010		50000.0		1359.0		5.19259490829		PwPy8EG_AZNLOCTEQ6L1_DYee_2000M2250
301011		50000.0		1396.0		2.46995747148		PwPy8EG_AZNLOCTEQ6L1_DYee_2250M2500
301012		50000.0		1480.0		1.22263149024		PwPy8EG_AZNLOCTEQ6L1_DYee_2500M2750
301013		49800.0		1470.0		0.621938722361		PwPy8EG_AZNLOCTEQ6L1_DYee_2750M3000
301014		48600.0		1447.0		0.487483144207		PwPy8EG_AZNLOCTEQ6L1_DYee_3000M3500
301015		49600.0		1543.0		0.145535290039		PwPy8EG_AZNLOCTEQ6L1_DYee_3500M4000
301016		50000.0		1695.0		0.0448814751053		PwPy8EG_AZNLOCTEQ6L1_DYee_4000M4500
301017		50000.0		1683.0		0.0140350151412		PwPy8EG_AZNLOCTEQ6L1_DYee_4500M5000
301018		50000.0		1783.0		0.0063241999726		PwPy8EG_AZNLOCTEQ6L1_DYee_5000M
301020		498600.0		395.0		8714800.32044		PwPy8EG_AZNLOCTEQ6L1_DYmumu_120M180
301021		249600.0		263.0		729132.670013		PwPy8EG_AZNLOCTEQ6L1_DYmumu_180M250
301022		149200.0		176.0		161418.987797		PwPy8EG_AZNLOCTEQ6L1_DYmumu_250M400
301023		99000.0		155.0		19354.0628696		PwPy8EG_AZNLOCTEQ6L1_DYmumu_400M600
301024		48400.0		82.0		1810.11083999		PwPy8EG_AZNLOCTEQ6L1_DYmumu_600M800
301025		50000.0		99.0		530.325998552		PwPy8EG_AZNLOCTEQ6L1_DYmumu_800M1000
301026		50000.0		167.0		212.907795794		PwPy8EG_AZNLOCTEQ6L1_DYmumu_1000M1250
301027		49800.0		191.0		70.8098818315		PwPy8EG_AZNLOCTEQ6L1_DYmumu_1250M1500
301028		49600.0		237.0		27.0424305811		PwPy8EG_AZNLOCTEQ6L1_DYmumu_1500M1750
301029		50000.0		250.0		11.4952300646		PwPy8EG_AZNLOCTEQ6L1_DYmumu_1750M2000
301030		50000.0		339.0		5.19259490829		PwPy8EG_AZNLOCTEQ6L1_DYmumu_2000M2250
301031		49800.0		381.0		2.46007563183		PwPy8EG_AZNLOCTEQ6L1_DYmumu_2250M2500
301032		49800.0		448.0		1.21774537038		PwPy8EG_AZNLOCTEQ6L1_DYmumu_2500M2750
301033		50000.0		495.0		0.624437002443		PwPy8EG_AZNLOCTEQ6L1_DYmumu_2750M3000
301034		50000.0		610.0		0.501532003909		PwPy8EG_AZNLOCTEQ6L1_DYmumu_3000M3500
301035		50000.0		774.0		0.146709400042		PwPy8EG_AZNLOCTEQ6L1_DYmumu_3500M4000
301036		49000.0		900.0		0.0439837401132		PwPy8EG_AZNLOCTEQ6L1_DYmumu_4000M4500
301037		50000.0		1125.0		0.0140350151412		PwPy8EG_AZNLOCTEQ6L1_DYmumu_4500M5000
301038		50000.0		1519.0		0.0063241999726		PwPy8EG_AZNLOCTEQ6L1_DYmumu_5000M
301040		149800.0		2876.0		2618405.2173		PwPy8EG_AZNLOCTEQ6L1_DYtautau_120M180
301041		149800.0		5059.0		437540.23697		PwPy8EG_AZNLOCTEQ6L1_DYtautau_180M250
301042		149600.0		7483.0		161854.464365		PwPy8EG_AZNLOCTEQ6L1_DYtautau_250M400
301043		148200.0		11817.0		28972.7259133		PwPy8EG_AZNLOCTEQ6L1_DYtautau_400M600
301044		150000.0		16834.0		5610.17470157		PwPy8EG_AZNLOCTEQ6L1_DYtautau_600M800
301045		149400.0		19277.0		1584.6854711		PwPy8EG_AZNLOCTEQ6L1_DYtautau_800M1000
301046		148000.0		19756.0		630.235342309		PwPy8EG_AZNLOCTEQ6L1_DYtautau_1000M1250
301047		149800.0		20021.0		213.008814584		PwPy8EG_AZNLOCTEQ6L1_DYtautau_1250M1500
301048		50000.0		6469.0		27.2606001818		PwPy8EG_AZNLOCTEQ6L1_DYtautau_1500M1750
301049		48200.0		5921.0		11.0812156752		PwPy8EG_AZNLOCTEQ6L1_DYtautau_1750M2000
301050		50000.0		5832.0		5.19259490829		PwPy8EG_AZNLOCTEQ6L1_DYtautau_2000M2250
301051		50000.0		5363.0		2.46995747148		PwPy8EG_AZNLOCTEQ6L1_DYtautau_2250M2500
301052		50000.0		4924.0		1.22263149024		PwPy8EG_AZNLOCTEQ6L1_DYtautau_2500M2750
301053		50000.0		4645.0		0.624437002443		PwPy8EG_AZNLOCTEQ6L1_DYtautau_2750M3000
301054		49600.0		4215.0		0.49751840379		PwPy8EG_AZNLOCTEQ6L1_DYtautau_3000M3500
301055		50000.0		3758.0		0.146709400042		PwPy8EG_AZNLOCTEQ6L1_DYtautau_3500M4000
301056		50000.0		3240.0		0.0448814751053		PwPy8EG_AZNLOCTEQ6L1_DYtautau_4000M4500
301057		50000.0		2791.0		0.0140350151412		PwPy8EG_AZNLOCTEQ6L1_DYtautau_4500M5000
301058		50000.0		2393.0		0.0063241999726		PwPy8EG_AZNLOCTEQ6L1_DYtautau_5000M
301060		498800.0		582.0		15987984.2961		PwPy8EG_AZNLOCTEQ6L1_Wplusenu
301061		249600.0		421.0		1248706.49934		PwPy8EG_AZNLOCTEQ6L1_Wplusenu
301062		139600.0		286.0		244898.179		PwPy8EG_AZNLOCTEQ6L1_Wplusenu
301063		99400.0		309.0		31048.0463398		PwPy8EG_AZNLOCTEQ6L1_Wplusenu
301064		49600.0		159.0		3015.30914307		PwPy8EG_AZNLOCTEQ6L1_Wplusenu
301065		49800.0		188.0		879.880996048		PwPy8EG_AZNLOCTEQ6L1_Wplusenu
301066		49800.0		217.0		363.009839226		PwPy8EG_AZNLOCTEQ6L1_Wplusenu
301067		50000.0		200.0		125.351800816		PwPy8EG_AZNLOCTEQ6L1_Wplusenu
301068		49800.0		180.0		49.1163162747		PwPy8EG_AZNLOCTEQ6L1_Wplusenu
301069		40000.0		161.0		16.9796551927		PwPy8EG_AZNLOCTEQ6L1_Wplusenu
301070		50000.0		172.0		9.7318799817		PwPy8EG_AZNLOCTEQ6L1_Wplusenu
301071		50000.0		192.0		4.66739998956		PwPy8EG_AZNLOCTEQ6L1_Wplusenu
301072		49800.0		194.0		2.30372143924		PwPy8EG_AZNLOCTEQ6L1_Wplusenu
301073		49600.0		190.0		1.16441085702		PwPy8EG_AZNLOCTEQ6L1_Wplusenu
301074		50000.0		220.0		0.922463004827		PwPy8EG_AZNLOCTEQ6L1_Wplusenu
301075		49800.0		198.0		0.25381923424		PwPy8EG_AZNLOCTEQ6L1_Wplusenu
301076		50000.0		169.0		0.0715329497325		PwPy8EG_AZNLOCTEQ6L1_Wplusenu
301077		50000.0		210.0		0.0200640448611		PwPy8EG_AZNLOCTEQ6L1_Wplusenu
301078		50000.0		190.0		0.00767298999449		PwPy8EG_AZNLOCTEQ6L1_Wplusenu
301080		499600.0		604.0		11090025.9337		PwPy8EG_AZNLOCTEQ6L1_Wminenu_120M180
301081		249800.0		365.0		820635.77		PwPy8EG_AZNLOCTEQ6L1_Wminenu_180M250
301082		149400.0		280.0		161820.848241		PwPy8EG_AZNLOCTEQ6L1_Wminenu_250M400
301083		100000.0		240.0		17541.2411527		PwPy8EG_AZNLOCTEQ6L1_Wminenu_400M600
301084		50000.0		176.0		1548.98750596		PwPy8EG_AZNLOCTEQ6L1_Wminenu_600M800
301085		50000.0		177.0		414.319201373		PwPy8EG_AZNLOCTEQ6L1_Wminenu_800M1000
301086		50000.0		169.0		157.966600964		PwPy8EG_AZNLOCTEQ6L1_Wminenu_1000M1250
301087		50000.0		197.0		50.1383002847		PwPy8EG_AZNLOCTEQ6L1_Wminenu_1250M1500
301088		49800.0		196.0		18.3331019536		PwPy8EG_AZNLOCTEQ6L1_Wminenu_1500M1750
301089		50000.0		196.0		7.47332502215		PwPy8EG_AZNLOCTEQ6L1_Wminenu_1750M2000
301090		49600.0		156.0		3.23939642258		PwPy8EG_AZNLOCTEQ6L1_Wminenu_2000M2250
301091		50000.0		195.0		1.50840948663		PwPy8EG_AZNLOCTEQ6L1_Wminenu_2250M2500
301092		49600.0		172.0		0.721634038564		PwPy8EG_AZNLOCTEQ6L1_Wminenu_2500M2750
301093		50000.0		194.0		0.362948298971		PwPy8EG_AZNLOCTEQ6L1_Wminenu_2750M3000
301094		49800.0		191.0		0.282322261774		PwPy8EG_AZNLOCTEQ6L1_Wminenu_3000M3500
301095		50000.0		200.0		0.0798696993343		PwPy8EG_AZNLOCTEQ6L1_Wminenu_3500M4000
301096		50000.0		199.0		0.0236051700142		PwPy8EG_AZNLOCTEQ6L1_Wminenu_4000M4500
301097		50000.0		176.0		0.00714015506276		PwPy8EG_AZNLOCTEQ6L1_Wminenu_4500M5000
301098		50000.0		189.0		0.00308123500048		PwPy8EG_AZNLOCTEQ6L1_Wminenu_5000M
301100		499400.0		619.0		16007675.4386		PwPy8EG_AZNLOCTEQ6L1_Wplusmunu
301101		249400.0		359.0		1247733.98157		PwPy8EG_AZNLOCTEQ6L1_Wplusmunu
301102		150000.0		273.0		263143.063105		PwPy8EG_AZNLOCTEQ6L1_Wplusmunu
301103		100000.0		223.0		31235.4115379		PwPy8EG_AZNLOCTEQ6L1_Wplusmunu
301104		49800.0		106.0		3027.45952308		PwPy8EG_AZNLOCTEQ6L1_Wplusmunu
301105		50000.0		136.0		883.416496217		PwPy8EG_AZNLOCTEQ6L1_Wplusmunu
301106		50000.0		155.0		364.46539918		PwPy8EG_AZNLOCTEQ6L1_Wplusmunu
301107		50000.0		121.0		125.351800816		PwPy8EG_AZNLOCTEQ6L1_Wplusmunu
301108		49800.0		147.0		49.1164430743		PwPy8EG_AZNLOCTEQ6L1_Wplusmunu
301109		50000.0		138.0		21.2281402491		PwPy8EG_AZNLOCTEQ6L1_Wplusmunu
301110		50000.0		145.0		9.7318799817		PwPy8EG_AZNLOCTEQ6L1_Wplusmunu
301111		50000.0		138.0		4.66739998956		PwPy8EG_AZNLOCTEQ6L1_Wplusmunu
301112		50000.0		158.0		2.31297251958		PwPy8EG_AZNLOCTEQ6L1_Wplusmunu
301113		49800.0		150.0		1.16909401695		PwPy8EG_AZNLOCTEQ6L1_Wplusmunu
301114		50000.0		146.0		0.922463004827		PwPy8EG_AZNLOCTEQ6L1_Wplusmunu
301115		50000.0		147.0		0.254837548255		PwPy8EG_AZNLOCTEQ6L1_Wplusmunu
301116		50000.0		168.0		0.0715329497325		PwPy8EG_AZNLOCTEQ6L1_Wplusmunu
301117		50000.0		138.0		0.0200640448611		PwPy8EG_AZNLOCTEQ6L1_Wplusmunu
301118		50000.0		168.0		0.00767298999449		PwPy8EG_AZNLOCTEQ6L1_Wplusmunu
301120		499800.0		537.0		11094442.5489		PwPy8EG_AZNLOCTEQ6L1_Wminmunu_120M180
301121		249600.0		368.0		820004.353045		PwPy8EG_AZNLOCTEQ6L1_Wminmunu_180M250
301122		149600.0		233.0		162035.488174		PwPy8EG_AZNLOCTEQ6L1_Wminmunu_250M400
301123		99800.0		205.0		17505.8263344		PwPy8EG_AZNLOCTEQ6L1_Wminmunu_400M600
301124		50000.0		93.0		1548.98750596		PwPy8EG_AZNLOCTEQ6L1_Wminmunu_600M800
301125		49800.0		141.0		412.663025409		PwPy8EG_AZNLOCTEQ6L1_Wminmunu_800M1000
301126		50000.0		119.0		157.966600964		PwPy8EG_AZNLOCTEQ6L1_Wminmunu_1000M1250
301127		49800.0		135.0		49.937872286		PwPy8EG_AZNLOCTEQ6L1_Wminmunu_1250M1500
301128		50000.0		135.0		18.406714953		PwPy8EG_AZNLOCTEQ6L1_Wminmunu_1500M1750
301129		50000.0		135.0		7.47332502215		PwPy8EG_AZNLOCTEQ6L1_Wminmunu_1750M2000
301130		49600.0		118.0		3.23937960347		PwPy8EG_AZNLOCTEQ6L1_Wminmunu_2000M2250
301131		50000.0		146.0		1.50840948663		PwPy8EG_AZNLOCTEQ6L1_Wminmunu_2250M2500
301132		50000.0		151.0		0.727453998479		PwPy8EG_AZNLOCTEQ6L1_Wminmunu_2500M2750
301133		50000.0		128.0		0.362948298971		PwPy8EG_AZNLOCTEQ6L1_Wminmunu_2750M3000
301134		50000.0		141.0		0.283456399757		PwPy8EG_AZNLOCTEQ6L1_Wminmunu_3000M3500
301135		50000.0		164.0		0.0798696993343		PwPy8EG_AZNLOCTEQ6L1_Wminmunu_3500M4000
301136		50000.0		164.0		0.0236051700142		PwPy8EG_AZNLOCTEQ6L1_Wminmunu_4000M4500
301137		50000.0		159.0		0.00714015506276		PwPy8EG_AZNLOCTEQ6L1_Wminmunu_4500M5000
301138		50000.0		154.0		0.00308123500048		PwPy8EG_AZNLOCTEQ6L1_Wminmunu_5000M
301140		499800.0		175.0		16020175.641		PwPy8EG_AZNLOCTEQ6L1_Wplustaunu
301141		249000.0		151.0		1245709.47806		PwPy8EG_AZNLOCTEQ6L1_Wplustaunu
301142		149400.0		120.0		262089.819134		PwPy8EG_AZNLOCTEQ6L1_Wplustaunu
301143		100000.0		132.0		31235.4115379		PwPy8EG_AZNLOCTEQ6L1_Wplustaunu
301144		49800.0		78.0		3027.4839431		PwPy8EG_AZNLOCTEQ6L1_Wplustaunu
301145		49800.0		101.0		879.879356176		PwPy8EG_AZNLOCTEQ6L1_Wplustaunu
301146		49800.0		90.0		363.007075153		PwPy8EG_AZNLOCTEQ6L1_Wplustaunu
301147		50000.0		111.0		125.351800816		PwPy8EG_AZNLOCTEQ6L1_Wplustaunu
301148		49800.0		79.0		49.1164100822		PwPy8EG_AZNLOCTEQ6L1_Wplustaunu
301149		50000.0		121.0		21.2281402491		PwPy8EG_AZNLOCTEQ6L1_Wplustaunu
301150		49800.0		114.0		9.69294058159		PwPy8EG_AZNLOCTEQ6L1_Wplustaunu
301151		50000.0		98.0		4.66739998956		PwPy8EG_AZNLOCTEQ6L1_Wplustaunu
301152		49800.0		91.0		2.30371063953		PwPy8EG_AZNLOCTEQ6L1_Wplustaunu
301153		50000.0		84.0		1.17379049698		PwPy8EG_AZNLOCTEQ6L1_Wplustaunu
301154		50000.0		80.0		0.922463004827		PwPy8EG_AZNLOCTEQ6L1_Wplustaunu
301155		50000.0		89.0		0.254837548255		PwPy8EG_AZNLOCTEQ6L1_Wplustaunu
301156		50000.0		75.0		0.0715329497325		PwPy8EG_AZNLOCTEQ6L1_Wplustaunu
301157		50000.0		78.0		0.0200640448611		PwPy8EG_AZNLOCTEQ6L1_Wplustaunu
301158		50000.0		58.0		0.00767298999449		PwPy8EG_AZNLOCTEQ6L1_Wplustaunu
301160		499400.0		191.0		11085729.9502		PwPy8EG_AZNLOCTEQ6L1_Wmintaunu_120M180
301161		250000.0		174.0		821307.7798		PwPy8EG_AZNLOCTEQ6L1_Wmintaunu_180M250
301162		149800.0		115.0		162254.394322		PwPy8EG_AZNLOCTEQ6L1_Wmintaunu_250M400
301163		100000.0		113.0		17540.8901347		PwPy8EG_AZNLOCTEQ6L1_Wmintaunu_400M600
301164		50000.0		69.0		1548.98750596		PwPy8EG_AZNLOCTEQ6L1_Wmintaunu_600M800
301165		50000.0		70.0		414.319201373		PwPy8EG_AZNLOCTEQ6L1_Wmintaunu_800M1000
301166		49800.0		79.0		157.334846957		PwPy8EG_AZNLOCTEQ6L1_Wmintaunu_1000M1250
301167		49800.0		74.0		49.9379142886		PwPy8EG_AZNLOCTEQ6L1_Wmintaunu_1250M1500
301168		49600.0		71.0		18.2595187565		PwPy8EG_AZNLOCTEQ6L1_Wmintaunu_1500M1750
301169		49800.0		93.0		7.44343722181		PwPy8EG_AZNLOCTEQ6L1_Wmintaunu_1750M2000
301170		50000.0		81.0		3.26551202306		PwPy8EG_AZNLOCTEQ6L1_Wmintaunu_2000M2250
301171		50000.0		87.0		1.50840948663		PwPy8EG_AZNLOCTEQ6L1_Wmintaunu_2250M2500
301172		49800.0		88.0		0.724545618505		PwPy8EG_AZNLOCTEQ6L1_Wmintaunu_2500M2750
301173		49600.0		66.0		0.360044653007		PwPy8EG_AZNLOCTEQ6L1_Wmintaunu_2750M3000
301174		49800.0		76.0		0.282322261774		PwPy8EG_AZNLOCTEQ6L1_Wmintaunu_3000M3500
301175		50000.0		70.0		0.0798696993343		PwPy8EG_AZNLOCTEQ6L1_Wmintaunu_3500M4000
301176		50000.0		69.0		0.0236051700142		PwPy8EG_AZNLOCTEQ6L1_Wmintaunu_4000M4500
301177		50000.0		72.0		0.00714015506276		PwPy8EG_AZNLOCTEQ6L1_Wmintaunu_4500M5000
301178		50000.0		70.0		0.00308123500048		PwPy8EG_AZNLOCTEQ6L1_Wmintaunu_5000M
301540		248400.0		2360.0		248400.0		Py8EG_A14NNPDF23LO_DYee_70M120
301541		249200.0		2546.0		249200.0		Py8EG_A14NNPDF23LO_DYee_120M180
301542		249200.0		2550.0		249200.0		Py8EG_A14NNPDF23LO_DYee_180M250
301543		149800.0		1705.0		149800.0		Py8EG_A14NNPDF23LO_DYee_250M400
301544		99400.0		1619.0		99400.0		Py8EG_A14NNPDF23LO_DYee_400M600
301545		49800.0		941.0		49800.0		Py8EG_A14NNPDF23LO_DYee_600M800
301546		50000.0		1067.0		50000.0		Py8EG_A14NNPDF23LO_DYee_800M1000
301547		50000.0		1132.0		50000.0		Py8EG_A14NNPDF23LO_DYee_1000M1250
301548		49800.0		1186.0		49800.0		Py8EG_A14NNPDF23LO_DYee_1250M1500
301549		50000.0		1267.0		50000.0		Py8EG_A14NNPDF23LO_DYee_1500M1750
301550		50000.0		1262.0		50000.0		Py8EG_A14NNPDF23LO_DYee_1750M2000
301551		49800.0		1367.0		49800.0		Py8EG_A14NNPDF23LO_DYee_2000M2250
301552		50000.0		1326.0		50000.0		Py8EG_A14NNPDF23LO_DYee_2250M2500
301553		49600.0		1409.0		49600.0		Py8EG_A14NNPDF23LO_DYee_2500M2750
301554		50000.0		1400.0		50000.0		Py8EG_A14NNPDF23LO_DYee_2750M3000
301555		49600.0		1514.0		49600.0		Py8EG_A14NNPDF23LO_DYee_3000M3500
301556		50000.0		1670.0		50000.0		Py8EG_A14NNPDF23LO_DYee_3500M4000
301557		49800.0		1607.0		49800.0		Py8EG_A14NNPDF23LO_DYee_4000M4500
301558		50000.0		1784.0		50000.0		Py8EG_A14NNPDF23LO_DYee_4500M5000
301559		50000.0		1829.0		50000.0		Py8EG_A14NNPDF23LO_DYee_5000M
301560		249200.0		168.0		249200.0		Py8EG_A14NNPDF23LO_DYmumu_70M120
301561		249400.0		210.0		249400.0		Py8EG_A14NNPDF23LO_DYmumu_120M180
301562		249000.0		264.0		249000.0		Py8EG_A14NNPDF23LO_DYmumu_180M250
301563		150000.0		219.0		150000.0		Py8EG_A14NNPDF23LO_DYmumu_250M400
301564		99600.0		145.0		99600.0		Py8EG_A14NNPDF23LO_DYmumu_400M600
301565		49600.0		99.0		49600.0		Py8EG_A14NNPDF23LO_DYmumu_600M800
301566		50000.0		109.0		50000.0		Py8EG_A14NNPDF23LO_DYmumu_800M1000
301567		50000.0		156.0		50000.0		Py8EG_A14NNPDF23LO_DYmumu_1000M1250
301568		50000.0		183.0		50000.0		Py8EG_A14NNPDF23LO_DYmumu_1250M1500
301569		50000.0		234.0		50000.0		Py8EG_A14NNPDF23LO_DYmumu_1500M1750
301570		49600.0		272.0		49600.0		Py8EG_A14NNPDF23LO_DYmumu_1750M2000
301571		50000.0		321.0		50000.0		Py8EG_A14NNPDF23LO_DYmumu_2000M2250
301572		50000.0		380.0		50000.0		Py8EG_A14NNPDF23LO_DYmumu_2250M2500
301573		50000.0		463.0		50000.0		Py8EG_A14NNPDF23LO_DYmumu_2500M2750
301574		49800.0		473.0		49800.0		Py8EG_A14NNPDF23LO_DYmumu_2750M3000
301575		50000.0		613.0		50000.0		Py8EG_A14NNPDF23LO_DYmumu_3000M3500
301576		49800.0		818.0		49800.0		Py8EG_A14NNPDF23LO_DYmumu_3500M4000
301577		49200.0		975.0		49200.0		Py8EG_A14NNPDF23LO_DYmumu_4000M4500
301578		50000.0		1195.0		50000.0		Py8EG_A14NNPDF23LO_DYmumu_4500M5000
301579		50000.0		1484.0		50000.0		Py8EG_A14NNPDF23LO_DYmumu_5000M
303393		100000.0		18976.0		100000.0		MGPy8EG_A14NNPDF23LO_RS_G_hh_bbtt_lh_c05_M500
303394		100000.0		28046.0		100000.0		MGPy8EG_A14NNPDF23LO_RS_G_hh_bbtt_lh_c05_M1000
303395		93000.0		10325.0		93000.0		MGPy8EG_A14NNPDF23LO_RS_G_hh_bbtt_lh_c10_M260
303396		98000.0		10951.0		98000.0		MGPy8EG_A14NNPDF23LO_RS_G_hh_bbtt_lh_c10_M300
303397		99000.0		15186.0		99000.0		MGPy8EG_A14NNPDF23LO_RS_G_hh_bbtt_lh_c10_M400
303398		100000.0		19410.0		100000.0		MGPy8EG_A14NNPDF23LO_RS_G_hh_bbtt_lh_c10_M500
303399		99000.0		22086.0		99000.0		MGPy8EG_A14NNPDF23LO_RS_G_hh_bbtt_lh_c10_M600
303400		99000.0		24179.0		99000.0		MGPy8EG_A14NNPDF23LO_RS_G_hh_bbtt_lh_c10_M700
303401		97000.0		25457.0		97000.0		MGPy8EG_A14NNPDF23LO_RS_G_hh_bbtt_lh_c10_M800
303403		97000.0		27065.0		97000.0		MGPy8EG_A14NNPDF23LO_RS_G_hh_bbtt_lh_c10_M1000
303404		97000.0		26899.0		97000.0		MGPy8EG_A14NNPDF23LO_RS_G_hh_bbtt_lh_c10_M1100
303405		99000.0		26364.0		99000.0		MGPy8EG_A14NNPDF23LO_RS_G_hh_bbtt_lh_c10_M1200
303406		99000.0		23535.0		99000.0		MGPy8EG_A14NNPDF23LO_RS_G_hh_bbtt_lh_c10_M1300
303407		99000.0		19950.0		99000.0		MGPy8EG_A14NNPDF23LO_RS_G_hh_bbtt_lh_c10_M1400
303408		99000.0		16991.0		99000.0		MGPy8EG_A14NNPDF23LO_RS_G_hh_bbtt_lh_c10_M1500
303409		98000.0		14260.0		98000.0		MGPy8EG_A14NNPDF23LO_RS_G_hh_bbtt_lh_c10_M1600
303410		99000.0		10672.0		99000.0		MGPy8EG_A14NNPDF23LO_RS_G_hh_bbtt_lh_c10_M1800
303411		97000.0		8061.0		97000.0		MGPy8EG_A14NNPDF23LO_RS_G_hh_bbtt_lh_c10_M2000
303413		99000.0		5067.0		99000.0		MGPy8EG_A14NNPDF23LO_RS_G_hh_bbtt_lh_c10_M2500
303414		95000.0		3684.0		95000.0		MGPy8EG_A14NNPDF23LO_RS_G_hh_bbtt_lh_c10_M2750
303415		98000.0		3096.0		98000.0		MGPy8EG_A14NNPDF23LO_RS_G_hh_bbtt_lh_c10_M3000
303416		98000.0		16718.0		98000.0		MGPy8EG_A14NNPDF23LO_RS_G_hh_bbtt_lh_c20_M260
303417		99000.0		15048.0		99000.0		MGPy8EG_A14NNPDF23LO_RS_G_hh_bbtt_lh_c20_M300
303418		98000.0		16713.0		98000.0		MGPy8EG_A14NNPDF23LO_RS_G_hh_bbtt_lh_c20_M400
303419		97000.0		19708.0		97000.0		MGPy8EG_A14NNPDF23LO_RS_G_hh_bbtt_lh_c20_M500
303421		97000.0		23864.0		97000.0		MGPy8EG_A14NNPDF23LO_RS_G_hh_bbtt_lh_c20_M700
303423		96000.0		25080.0		96000.0		MGPy8EG_A14NNPDF23LO_RS_G_hh_bbtt_lh_c20_M900
303425		93000.0		23774.0		93000.0		MGPy8EG_A14NNPDF23LO_RS_G_hh_bbtt_lh_c20_M1100
303426		99000.0		24031.0		99000.0		MGPy8EG_A14NNPDF23LO_RS_G_hh_bbtt_lh_c20_M1200
303428		99000.0		18892.0		99000.0		MGPy8EG_A14NNPDF23LO_RS_G_hh_bbtt_lh_c20_M1400
303429		97000.0		16331.0		97000.0		MGPy8EG_A14NNPDF23LO_RS_G_hh_bbtt_lh_c20_M1500
303430		99000.0		14622.0		99000.0		MGPy8EG_A14NNPDF23LO_RS_G_hh_bbtt_lh_c20_M1600
303432		99000.0		9154.0		99000.0		MGPy8EG_A14NNPDF23LO_RS_G_hh_bbtt_lh_c20_M2000
303433		98000.0		7286.0		98000.0		MGPy8EG_A14NNPDF23LO_RS_G_hh_bbtt_lh_c20_M2250
303434		100000.0		6084.0		100000.0		MGPy8EG_A14NNPDF23LO_RS_G_hh_bbtt_lh_c20_M2500
303435		96000.0		5055.0		96000.0		MGPy8EG_A14NNPDF23LO_RS_G_hh_bbtt_lh_c20_M2750
303436		93000.0		4207.0		93000.0		MGPy8EG_A14NNPDF23LO_RS_G_hh_bbtt_lh_c20_M3000
303438		299800.0		10134.0		299800.0		Py8EG_A14NNPDF23LO_DYtautau_180M250
303440		250000.0		19739.0		250000.0		Py8EG_A14NNPDF23LO_DYtautau_400M600
303441		250000.0		27983.0		250000.0		Py8EG_A14NNPDF23LO_DYtautau_600M800
303445		50000.0		6592.0		50000.0		Py8EG_A14NNPDF23LO_DYtautau_1500M1750
303446		300000.0		37508.0		300000.0		Py8EG_A14NNPDF23LO_DYtautau_1750M2000
303447		49800.0		5769.0		49800.0		Py8EG_A14NNPDF23LO_DYtautau_2000M2250
303449		250000.0		25119.0		250000.0		Py8EG_A14NNPDF23LO_DYtautau_2500M2750
303450		250000.0		23610.0		250000.0		Py8EG_A14NNPDF23LO_DYtautau_2750M3000
303451		49800.0		4202.0		49800.0		Py8EG_A14NNPDF23LO_DYtautau_3000M3500
303778		499800.0		22475.0		499800.0		Py8EG_A14NNPDF23LO_Ztaumu_LeptonFilter
303779		498400.0		19762.0		498400.0		Py8EG_A14NNPDF23LO_Ztaue_LeptonFilter
341096		99800.0		7042.0		182.805581088		PwPy8EG_CT10_AZNLO_ggZH125_tautaubb
341102		498000.0		11758.0		498000.0		Py8EG_A14NNPDF23LO_ZllH125_bb
341123		1446400.0		98654.0		43670244.96		PwPy8EG_CT10_AZNLOCTEQ6L1_ggH125_tautaulh
341156		890000.0		95454.0		890000.0		PwPy8EG_CT10_AZNLOCTEQ6L1_VBFH125_tautaulh
341902		473997.0		32643.0		14311728.4324		PwPy8EG_CT10_AZNLOCTEQ6L1_ggH125_tautaulh_CPodd
341903		243000.0		16917.0		7336106.01901		PwPy8EG_CT10_AZNLOCTEQ6L1_ggH125_tautaulh_mix50
341904		961000.0		64932.0		29011501.5905		PwPy8EG_CT10_AZNLOCTEQ6L1_ggH125_tautaulh_unpol
341908		498000.0		53715.0		1906622.95235		PwPy8EG_CT10_AZNLOCTEQ6L1_VBFH125_tautaulh_CPodd
341909		249000.0		26539.0		953149.013707		PwPy8EG_CT10_AZNLOCTEQ6L1_VBFH125_tautaulh_mix50
341910		992000.0		104594.0		3799762.72615		PwPy8EG_CT10_AZNLOCTEQ6L1_VBFH125_tautaulh_unpol
341934		199000.0		10329.0		199000.0		Py8EG_A14NNPDF23LO_ZbbH125tautau
342300		50000.0		2749.0		1512213.03127		PwPy8EG_CT10_AZNLOCTEQ6L1_ggH125W02_tautaulh
342301		49800.0		102.0		1505563.75231		PwPy8EG_CT10_AZNLOCTEQ6L1_ggH125W02_tautauhh
342302		49600.0		189.0		1499172.81231		PwPy8EG_CT10_AZNLOCTEQ6L1_ggH125W02_tautaull
342622		98000.0		19268.0		1080.3535955		aMcAtNloHerwigppEG_UEEE5_CTEQ6L1_CT10ME_hh_ttbb_lh
361063		990000.0		4487.0		700350.234019		Sh_CT10_llll
361064		149600.0		522.0		146705.086501		Sh_CT10_lllvSFMinus
361065		299800.0		2456.0		293470.63921		Sh_CT10_lllvOFMinus
361066		199400.0		711.0		196613.491445		Sh_CT10_lllvSFPlus
361067		399800.0		3341.0		394344.008822		Sh_CT10_lllvOFPlus
361068		997400.0		28159.0		680539.485261		Sh_CT10_llvv
361081		1494800.0		9471.0		359086.960018		Sh_CT10_WplvWmqq
361082		1492400.0		9121.0		358334.27364		Sh_CT10_WpqqWmlv
361083		748400.0		4672.0		188351.110355		Sh_CT10_WlvZqq
361084		249400.0		5261.0		18724.9983058		Sh_CT10_WqqZll
361085		448400.0		17.0		66636.6145453		Sh_CT10_WqqZvv
361086		99400.0		2076.0		65018.1487758		Sh_CT10_ZqqZll
361087		149000.0		3.0		97797.2955956		Sh_CT10_ZqqZvv
361100		29914098.0		19928.0		338208793427.0		PwPy8EG_AZNLOCTEQ6L1_Wplusenu
361101		27951402.0		21852.0		316014243275.0		PwPy8EG_AZNLOCTEQ6L1_Wplusmunu
361102		29908753.0		4287.0		338143898136.0		PwPy8EG_AZNLOCTEQ6L1_Wplustaunu
361103		19916972.0		14475.0		164964135954.0		PwPy8EG_AZNLOCTEQ6L1_Wminusenu
361104		19965914.0		16358.0		165367927700.0		PwPy8EG_AZNLOCTEQ6L1_Wminusmunu
361105		19952348.0		3271.0		165253618493.0		PwPy8EG_AZNLOCTEQ6L1_Wminustaunu
361106		19916520.0		189272.0		37864803167.1		PwPy8EG_AZNLOCTEQ6L1_Zee
361107		19942848.0		10948.0		37915443209.8		PwPy8EG_AZNLOCTEQ6L1_Zmumu
361108		19197457.0		149394.0		36496620553.4		PwPy8EG_AZNLOCTEQ6L1_Ztautau
361300		39634400.0		39768.0		26287258.4759		Sh_CT10_Wenu_Pt0_70_CVetoBVeto
361301		8986800.0		28640.0		4440104.40237		Sh_CT10_Wenu_Pt0_70_CFilterBVeto
361302		8984600.0		14228.0		5601372.60668		Sh_CT10_Wenu_Pt0_70_BFilter
361303		4940500.0		17481.0		2010789.94423		Sh_CT10_Wenu_Pt70_140_CVetoBVeto
361304		4933000.0		26942.0		2249057.39249		Sh_CT10_Wenu_Pt70_140_CFilterBVeto
361305		1487500.0		6379.0		694720.144938		Sh_CT10_Wenu_Pt70_140_BFilter
361306		4841900.0		22725.0		2106084.32377		Sh_CT10_Wenu_Pt140_280_CVetoBVeto
361307		1494600.0		9540.0		808366.986049		Sh_CT10_Wenu_Pt140_280_CFilterBVeto
361308		296000.0		1606.0		157993.722655		Sh_CT10_Wenu_Pt140_280_BFilter
361309		998000.0		6572.0		418685.521643		Sh_CT10_Wenu_Pt280_500_CVetoBVeto
361310		896600.0		6821.0		492545.879848		Sh_CT10_Wenu_Pt280_500_CFilterBVeto
361311		896000.0		6377.0		484209.358567		Sh_CT10_Wenu_Pt280_500_BFilter
361312		499000.0		3457.0		227771.916917		Sh_CT10_Wenu_Pt500_700_CVetoBVeto
361313		299800.0		2504.0		175351.592237		Sh_CT10_Wenu_Pt500_700_CFilterBVeto
361314		299000.0		2301.0		172017.437216		Sh_CT10_Wenu_Pt500_700_BFilter
361315		200000.0		1380.0		82830.2461796		Sh_CT10_Wenu_Pt700_1000_CVetoBVeto
361316		100000.0		817.0		57788.0023296		Sh_CT10_Wenu_Pt700_1000_CFilterBVeto
361317		99800.0		770.0		57976.4329859		Sh_CT10_Wenu_Pt700_1000_BFilter
361318		49600.0		376.0		20146.5789597		Sh_CT10_Wenu_Pt1000_2000_CVetoBVeto
361319		30000.0		220.0		17601.4139409		Sh_CT10_Wenu_Pt1000_2000_CFilterBVeto
361320		30000.0		242.0		17194.0805077		Sh_CT10_Wenu_Pt1000_2000_BFilter
361321		19800.0		121.0		7851.42422488		Sh_CT10_Wenu_Pt2000_E_CMS_CVetoBVeto
361322		10000.0		67.0		5109.78769687		Sh_CT10_Wenu_Pt2000_E_CMS_CFilterBVeto
361323		9800.0		66.0		5220.7427275		Sh_CT10_Wenu_Pt2000_E_CMS_BFilter
361324		37477100.0		45118.0		25047083.9757		Sh_CT10_Wmunu_Pt0_70_CVetoBVeto
361325		8926500.0		34451.0		4376726.63306		Sh_CT10_Wmunu_Pt0_70_CFilterBVeto
361326		8958500.0		16917.0		5511265.50875		Sh_CT10_Wmunu_Pt0_70_BFilter
361327		4938600.0		19379.0		2013925.72064		Sh_CT10_Wmunu_Pt70_140_CVetoBVeto
361328		1483800.0		8684.0		675135.566654		Sh_CT10_Wmunu_Pt70_140_CFilterBVeto
361329		4872600.0		23237.0		2268294.4488		Sh_CT10_Wmunu_Pt70_140_BFilter
361330		1474500.0		7129.0		638465.732292		Sh_CT10_Wmunu_Pt140_280_CVetoBVeto
361331		4828000.0		30616.0		2624075.62974		Sh_CT10_Wmunu_Pt140_280_CFilterBVeto
361332		295950.0		1601.0		158266.171265		Sh_CT10_Wmunu_Pt140_280_BFilter
361333		997800.0		6268.0		424012.799246		Sh_CT10_Wmunu_Pt280_500_CVetoBVeto
361334		897400.0		6592.0		492481.388509		Sh_CT10_Wmunu_Pt280_500_CFilterBVeto
361335		896400.0		6322.0		482335.815674		Sh_CT10_Wmunu_Pt280_500_BFilter
361336		497800.0		3181.0		214649.317847		Sh_CT10_Wmunu_Pt500_700_CVetoBVeto
361337		298800.0		2192.0		173248.051838		Sh_CT10_Wmunu_Pt500_700_CFilterBVeto
361338		298000.0		2145.0		163983.460213		Sh_CT10_Wmunu_Pt500_700_BFilter
361339		199200.0		1288.0		86130.3766418		Sh_CT10_Wmunu_Pt700_1000_CVetoBVeto
361340		99600.0		790.0		60201.0714339		Sh_CT10_Wmunu_Pt700_1000_CFilterBVeto
361341		99550.0		619.0		56787.815342		Sh_CT10_Wmunu_Pt700_1000_BFilter
361342		50000.0		307.0		20666.3823188		Sh_CT10_Wmunu_Pt1000_2000_CVetoBVeto
361343		29800.0		188.0		17621.8406322		Sh_CT10_Wmunu_Pt1000_2000_CFilterBVeto
361344		30000.0		202.0		17198.1862217		Sh_CT10_Wmunu_Pt1000_2000_BFilter
361345		20000.0		104.0		7491.25266519		Sh_CT10_Wmunu_Pt2000_E_CMS_CVetoBVeto
361346		9000.0		70.0		5117.49168853		Sh_CT10_Wmunu_Pt2000_E_CMS_CFilterBVeto
361347		10000.0		72.0		5257.81874511		Sh_CT10_Wmunu_Pt2000_E_CMS_BFilter
361348		39796400.0		7152.0		26644439.0405		Sh_CT10_Wtaunu_Pt0_70_CVetoBVeto
361349		11932000.0		6733.0		5933570.87569		Sh_CT10_Wtaunu_Pt0_70_CFilterBVeto
361350		5978200.0		1699.0		3737215.57751		Sh_CT10_Wtaunu_Pt0_70_BFilter
361351		4935800.0		4514.0		2016407.90929		Sh_CT10_Wtaunu_Pt70_140_CVetoBVeto
361352		1495400.0		2164.0		682616.692307		Sh_CT10_Wtaunu_Pt70_140_CFilterBVeto
361353		1490200.0		1842.0		691484.639878		Sh_CT10_Wtaunu_Pt70_140_BFilter
361354		1490100.0		2348.0		649820.876819		Sh_CT10_Wtaunu_Pt140_280_CVetoBVeto
361355		1498400.0		3244.0		816895.201107		Sh_CT10_Wtaunu_Pt140_280_CFilterBVeto
361356		299000.0		545.0		159820.92881		Sh_CT10_Wtaunu_Pt140_280_BFilter
361357		998200.0		2542.0		422430.880388		Sh_CT10_Wtaunu_Pt280_500_CVetoBVeto
361358		898600.0		2761.0		497555.785532		Sh_CT10_Wtaunu_Pt280_500_CFilterBVeto
361359		899300.0		2780.0		484504.91023		Sh_CT10_Wtaunu_Pt280_500_BFilter
361360		499800.0		1686.0		209337.407169		Sh_CT10_Wtaunu_Pt500_700_CVetoBVeto
361361		300000.0		1095.0		169571.225842		Sh_CT10_Wtaunu_Pt500_700_CFilterBVeto
361362		299600.0		1086.0		165216.814313		Sh_CT10_Wtaunu_Pt500_700_BFilter
361363		200000.0		853.0		84156.8183943		Sh_CT10_Wtaunu_Pt700_1000_CVetoBVeto
361364		99700.0		355.0		57494.6445087		Sh_CT10_Wtaunu_Pt700_1000_CFilterBVeto
361365		100000.0		430.0		56770.0816174		Sh_CT10_Wtaunu_Pt700_1000_BFilter
361366		50000.0		210.0		20136.2603183		Sh_CT10_Wtaunu_Pt1000_2000_CVetoBVeto
361367		30000.0		119.0		17198.9062993		Sh_CT10_Wtaunu_Pt1000_2000_CFilterBVeto
361368		29780.0		119.0		16523.8187621		Sh_CT10_Wtaunu_Pt1000_2000_BFilter
361369		20000.0		101.0		8999.40507121		Sh_CT10_Wtaunu_Pt2000_E_CMS_CVetoBVeto
361370		10000.0		41.0		5656.76838484		Sh_CT10_Wtaunu_Pt2000_E_CMS_CFilterBVeto
361371		10000.0		44.0		5379.48764775		Sh_CT10_Wtaunu_Pt2000_E_CMS_BFilter
361372		3972200.0		44286.0		2687529.53349		Sh_CT10_Zee_Pt0_70_CVetoBVeto
361373		1795200.0		28286.0		1081511.51925		Sh_CT10_Zee_Pt0_70_CFilterBVeto
361374		2949800.0		47257.0		1614617.33924		Sh_CT10_Zee_Pt0_70_BFilter
361375		1473100.0		37379.0		622521.757648		Sh_CT10_Zee_Pt70_140_CVetoBVeto
361376		493200.0		13081.0		216974.465551		Sh_CT10_Zee_Pt70_140_CFilterBVeto
361377		245900.0		6680.0		105716.334911		Sh_CT10_Zee_Pt70_140_BFilter
361378		444200.0		11442.0		199797.509378		Sh_CT10_Zee_Pt140_280_CVetoBVeto
361379		498000.0		12991.0		243202.678984		Sh_CT10_Zee_Pt140_280_CFilterBVeto
361380		30000.0		837.0		15494.2019722		Sh_CT10_Zee_Pt140_280_BFilter
361381		498600.0		13352.0		211433.045276		Sh_CT10_Zee_Pt280_500_CVetoBVeto
361382		299800.0		7935.0		144046.132891		Sh_CT10_Zee_Pt280_500_CFilterBVeto
361383		299700.0		7961.0		154136.555909		Sh_CT10_Zee_Pt280_500_BFilter
361384		299600.0		4814.0		127533.994552		Sh_CT10_Zee_Pt500_700_CVetoBVeto
361385		200000.0		3086.0		97519.1145761		Sh_CT10_Zee_Pt500_700_CFilterBVeto
361386		199800.0		3121.0		108851.854593		Sh_CT10_Zee_Pt500_700_BFilter
361387		50000.0		504.0		20952.3831738		Sh_CT10_Zee_Pt700_1000_CVetoBVeto
361388		30000.0		292.0		14703.1880893		Sh_CT10_Zee_Pt700_1000_CFilterBVeto
361389		29800.0		272.0		15676.2813269		Sh_CT10_Zee_Pt700_1000_BFilter
361390		30000.0		176.0		12403.425057		Sh_CT10_Zee_Pt1000_2000_CVetoBVeto
361391		20000.0		106.0		9833.99517565		Sh_CT10_Zee_Pt1000_2000_CFilterBVeto
361392		20000.0		111.0		11268.4795374		Sh_CT10_Zee_Pt1000_2000_BFilter
361393		19800.0		62.0		8076.86296002		Sh_CT10_Zee_Pt2000_E_CMS_CVetoBVeto
361394		10000.0		33.0		4918.06481232		Sh_CT10_Zee_Pt2000_E_CMS_CFilterBVeto
361395		9980.0		35.0		5141.83145222		Sh_CT10_Zee_Pt2000_E_CMS_BFilter
361396		3969600.0		3336.0		2684675.29071		Sh_CT10_Zmumu_Pt0_70_CVetoBVeto
361397		1770800.0		2263.0		1065798.48306		Sh_CT10_Zmumu_Pt0_70_CFilterBVeto
361398		1479200.0		1698.0		810273.594791		Sh_CT10_Zmumu_Pt0_70_BFilter
361399		1485600.0		3052.0		630624.532714		Sh_CT10_Zmumu_Pt70_140_CVetoBVeto
361400		487000.0		1216.0		216371.201586		Sh_CT10_Zmumu_Pt70_140_CFilterBVeto
361401		1175600.0		2605.0		502088.771302		Sh_CT10_Zmumu_Pt70_140_BFilter
361402		178000.0		370.0		78243.5420873		Sh_CT10_Zmumu_Pt140_280_CVetoBVeto
361403		77200.0		197.0		37942.031452		Sh_CT10_Zmumu_Pt140_280_CFilterBVeto
361404		825900.0		1938.0		415109.484069		Sh_CT10_Zmumu_Pt140_280_BFilter
361405		499000.0		1261.0		212132.682654		Sh_CT10_Zmumu_Pt280_500_CVetoBVeto
361406		299000.0		859.0		142860.863272		Sh_CT10_Zmumu_Pt280_500_CFilterBVeto
361407		299800.0		758.0		155469.317603		Sh_CT10_Zmumu_Pt280_500_BFilter
361408		299200.0		640.0		125805.171001		Sh_CT10_Zmumu_Pt500_700_CVetoBVeto
361409		199600.0		417.0		98250.2790227		Sh_CT10_Zmumu_Pt500_700_CFilterBVeto
361410		199400.0		447.0		106935.974374		Sh_CT10_Zmumu_Pt500_700_BFilter
361411		50000.0		97.0		20240.6005895		Sh_CT10_Zmumu_Pt700_1000_CVetoBVeto
361412		30000.0		70.0		14477.6415124		Sh_CT10_Zmumu_Pt700_1000_CFilterBVeto
361413		30000.0		59.0		16146.9354549		Sh_CT10_Zmumu_Pt700_1000_BFilter
361414		30000.0		85.0		13005.5438684		Sh_CT10_Zmumu_Pt1000_2000_CVetoBVeto
361415		19800.0		48.0		9628.18394004		Sh_CT10_Zmumu_Pt1000_2000_CFilterBVeto
361416		19240.0		54.0		10549.2832993		Sh_CT10_Zmumu_Pt1000_2000_BFilter
361417		20000.0		67.0		7992.78501583		Sh_CT10_Zmumu_Pt2000_E_CMS_CVetoBVeto
361418		9980.0		24.0		4526.49395029		Sh_CT10_Zmumu_Pt2000_E_CMS_CFilterBVeto
361419		9790.0		28.0		5021.85816795		Sh_CT10_Zmumu_Pt2000_E_CMS_BFilter
361420		1969000.0		16281.0		1321100.59981		Sh_CT10_Ztautau_Pt0_70_CVetoBVeto
361421		1788800.0		20678.0		1073757.54586		Sh_CT10_Ztautau_Pt0_70_CFilterBVeto
361422		1496200.0		18059.0		815267.167051		Sh_CT10_Ztautau_Pt0_70_BFilter
361423		1491500.0		44383.0		635689.911928		Sh_CT10_Ztautau_Pt70_140_CVetoBVeto
361424		498000.0		15347.0		221994.157852		Sh_CT10_Ztautau_Pt70_140_CFilterBVeto
361425		1185400.0		37564.0		506026.903803		Sh_CT10_Ztautau_Pt70_140_BFilter
361426		333000.0		20985.0		146543.3204		Sh_CT10_Ztautau_Pt140_280_CVetoBVeto
361427		493200.0		30680.0		242559.646123		Sh_CT10_Ztautau_Pt140_280_CFilterBVeto
361428		974600.0		60906.0		495412.749599		Sh_CT10_Ztautau_Pt140_280_BFilter
361429		499000.0		55053.0		212832.927028		Sh_CT10_Ztautau_Pt280_500_CVetoBVeto
361430		299100.0		32414.0		143564.063937		Sh_CT10_Ztautau_Pt280_500_CFilterBVeto
361431		300000.0		31831.0		154680.635963		Sh_CT10_Ztautau_Pt280_500_BFilter
361432		299600.0		19403.0		127136.834531		Sh_CT10_Ztautau_Pt500_700_CVetoBVeto
361433		199000.0		12354.0		97509.5768112		Sh_CT10_Ztautau_Pt500_700_CFilterBVeto
361434		199180.0		12103.0		107102.738473		Sh_CT10_Ztautau_Pt500_700_BFilter
361435		49800.0		1770.0		20540.0678312		Sh_CT10_Ztautau_Pt700_1000_CVetoBVeto
361436		30000.0		1043.0		14685.9301776		Sh_CT10_Ztautau_Pt700_1000_CFilterBVeto
361437		30000.0		968.0		16643.4121535		Sh_CT10_Ztautau_Pt700_1000_BFilter
361438		30000.0		555.0		12799.7955666		Sh_CT10_Ztautau_Pt1000_2000_CVetoBVeto
361439		20000.0		351.0		9900.7579992		Sh_CT10_Ztautau_Pt1000_2000_CFilterBVeto
361440		20000.0		359.0		11528.0452697		Sh_CT10_Ztautau_Pt1000_2000_BFilter
361441		20000.0		146.0		7775.24714547		Sh_CT10_Ztautau_Pt2000_E_CMS_CVetoBVeto
410000		19958779.0		408540.0		19958779.0		PwPyEG_P2012_ttbar_hdamp172p5_nonallhad
410007		9991200.0		2438.0		6.95874407714		PwPyEG_P2012_ttbar_hdamp172p5_allhad
410011		4988200.0		24019.0		0.218252793003		PwPyEG_P2012_singletop_tchan_lept_top
410012		4989800.0		27769.0		0.128694693283		PwPyEG_P2012_singletop_tchan_lept_antitop
410013		4985800.0		57052.0		4985800.0		PwPyEG_P2012_Wt_inclusive_top
410014		4985600.0		56405.0		4985600.0		PwPyEG_P2012_Wt_inclusive_antitop
410015		997200.0		62390.0		997200.0		PwPyEG_P2012_Wt_dilepton_top
410016		997600.0		62579.0		997600.0		PwPyEG_P2012_Wt_dilepton_antitop
